129 166 181
161 206 223
155 199 216
157 200 217
156 200 217
157 200 217
157 200 217
157 200 217
157 200 217
157 200 217
157 200 217
157 200 217
157 200 217
156 200 217
157 200 217
157 200 217
157 200 217
157 200 217
157 200 217
157 200 217
158 201 218
143 189 208
137 181 198
137 181 198
144 190 209
158 201 218
156 199 217
157 200 217
157 200 217
157 200 218
157 200 217
157 200 217
157 200 217
156 200 217
157 200 217
157 200 217
157 200 217
157 200 217
157 200 217
157 200 217
157 200 217
157 200 217
157 200 217
157 200 217
156 200 217
156 200 217
157 200 217
157 200 217
157 200 217
157 200 217
157 200 217
157 200 217
157 200 217
156 200 217
158 201 218
145 192 210
136 181 198
139 181 198
138 185 204
156 200 218
157 200 217
157 200 217
157 200 218
157 200 217
157 200 217
157 200 217
157 200 217
157 200 217
157 200 217
157 200 217
157 200 217
157 200 217
157 200 217
157 200 217
157 200 217
157 200 217
157 200 217
157 199 217
158 201 218
152 195 212
74 89 95
87 105 112
85 101 108
85 102 109
85 103 109
85 102 109
85 102 109
85 102 109
85 103 109
85 102 109
85 103 109
85 102 109
85 102 109
85 102 109
85 102 109
85 102 109
85 102 109
85 102 109
85 103 109
85 102 110
85 99 105
123 169 187
118 203 237
119 203 237
118 165 184
85 99 104
85 103 111
86 104 111
85 102 109
86 103 110
86 104 111
85 102 108
86 104 111
86 103 110
85 102 109
87 104 111
86 103 110
85 102 109
87 104 111
85 103 110
85 102 109
87 104 111
85 103 109
85 103 110
87 104 111
85 102 109
86 103 110
87 104 111
85 102 109
86 103 110
86 103 110
85 102 109
86 104 111
87 104 112
81 96 102
122 155 168
125 206 238
115 201 235
132 188 210
89 105 112
84 102 109
85 103 110
85 103 110
85 103 110
85 102 109
85 103 110
85 102 109
85 102 109
85 103 110
85 102 109
85 102 109
85 102 109
85 102 109
85 103 110
85 102 109
85 103 110
85 102 109
85 102 109
85 102 109
86 103 110
0 0 0
0 0 0
0 0 0
0 0 0
0 0 0
0 0 0
0 0 0
0 0 0
0 0 0
0 0 0
0 0 0
0 0 0
0 0 0
0 0 0
0 0 0
0 0 0
0 0 0
0 0 0
0 0 0
3 4 4
0 0 0
89 97 100
132 208 239
134 208 238
84 90 93
0 0 0
3 3 4
0 0 0
0 0 0
0 0 0
0 0 0
0 0 0
0 0 0
0 0 0
0 0 0
0 0 0
0 0 0
0 0 0
0 0 0
0 0 0
0 0 0
0 0 0
0 0 0
0 0 0
0 0 0
0 0 0
0 0 0
0 0 0
0 0 0
0 0 0
0 0 0
0 0 0
0 0 0
3 3 3
0 0 0
59 57 56
143 206 231
122 206 239
117 134 141
0 0 0
2 3 3
0 0 0
0 0 0
0 0 0
0 0 0
0 0 0
0 0 0
0 0 0
0 0 0
0 0 0
0 0 0
0 0 0
0 0 0
0 0 0
0 0 0
0 0 0
0 0 0
0 0 0
0 0 0
0 0 0
3 3 3
3 3 4
3 3 4
3 3 4
3 3 4
3 3 4
3 3 4
3 3 4
3 3 4
3 3 4
3 3 4
3 3 4
3 3 4
3 3 4
3 3 4
3 3 4
3 3 4
3 3 4
3 3 4
6 6 8
0 0 0
88 98 102
131 209 240
133 208 239
84 92 96
0 0 0
20 20 21
47 48 48
0 0 0
27 27 28
40 41 41
0 0 0
36 37 37
32 32 33
0 0 0
44 44 45
22 22 23
0 0 0
49 49 50
12 12 13
2 2 3
51 52 52
3 4 4
10 11 11
50 50 51
0 0 0
20 20 21
45 46 46
0 0 0
30 30 31
38 38 39
0 0 0
39 40 40
30 30 31
0 0 0
57 58 58
140 206 232
122 206 240
112 133 142
0 0 0
5 7 7
3 3 4
3 4 4
3 4 4
3 3 4
3 4 4
3 3 4
3 3 4
3 4 4
3 3 4
3 3 4
3 3 4
3 3 4
3 4 4
3 3 4
3 4 4
3 3 4
3 3 4
3 3 4
3 3 4
3 3 3
3 3 4
3 3 4
3 3 4
3 3 4
3 3 4
3 3 4
3 3 4
3 3 4
3 3 4
3 3 4
3 3 4
3 3 4
3 3 4
3 3 4
1 1 1
0 0 0
0 0 0
0 0 0
3 4 4
0 0 0
87 97 100
132 209 240
133 209 239
83 91 94
0 0 0
18 19 19
49 49 49
0 0 0
26 26 26
42 42 42
0 0 0
40 40 41
35 35 36
0 0 0
48 49 49
24 24 25
0 0 0
54 54 55
13 13 14
2 2 3
56 56 57
3 3 4
11 11 12
54 55 55
0 0 0
22 22 23
49 50 50
0 0 0
31 31 32
38 38 38
0 0 0
40 40 40
30 30 30
0 0 0
56 56 56
141 206 232
122 207 241
113 133 141
0 0 0
2 3 3
0 0 0
0 0 0
0 0 0
0 1 1
3 3 4
3 3 4
3 3 4
3 3 4
3 3 4
3 3 4
3 3 4
3 3 4
3 3 4
3 3 4
3 3 4
3 3 4
3 3 4
3 3 4
3 3 4
0 0 0
0 0 0
0 0 0
0 0 0
0 0 0
0 0 0
0 0 0
0 0 0
0 0 0
0 0 0
0 0 0
0 0 0
0 0 0
0 0 0
0 0 0
1 1 1
0 0 0
0 0 0
0 0 0
3 4 4
0 0 0
87 96 100
131 209 239
133 209 239
83 90 93
0 0 0
3 3 4
0 0 0
0 0 0
0 0 0
0 0 0
0 0 0
0 0 0
0 0 0
0 0 0
0 0 0
0 0 0
0 0 0
0 0 0
0 0 0
0 0 0
0 0 0
0 0 0
0 0 0
0 0 0
0 0 0
0 0 0
0 0 0
0 0 0
0 0 0
0 0 0
0 0 0
0 0 0
2 3 3
0 0 0
55 55 55
141 206 232
122 207 240
112 133 141
0 0 0
2 3 3
0 0 0
0 0 0
0 0 0
1 1 1
0 0 0
0 0 0
0 0 0
0 0 0
0 0 0
0 0 0
0 0 0
0 0 0
0 0 0
0 0 0
0 0 0
0 0 0
0 0 0
0 0 0
0 0 0
66 75 78
80 90 93
79 87 91
79 87 91
79 87 91
79 88 91
79 88 91
79 88 91
79 88 91
79 87 91
79 87 91
79 88 91
79 87 91
79 88 91
78 86 90
16 16 16
0 0 0
1 1 1
0 0 0
3 3 4
0 0 0
86 95 99
132 208 238
133 208 238
82 90 93
0 0 0
27 27 27
74 74 74
0 0 0
0 0 0
24 23 23
81 89 92
80 89 92
80 89 92
79 87 91
81 89 93
80 89 92
79 87 91
80 89 93
79 88 91
78 87 91
80 90 93
79 87 91
79 88 91
81 89 93
79 87 91
80 88 92
80 88 91
83 92 96
37 37 37
0 0 0
0 0 0
59 59 59
45 45 45
0 0 0
56 56 56
140 205 231
123 206 240
111 131 139
0 0 0
2 3 3
0 0 0
1 1 1
0 0 0
10 9 9
74 81 84
80 89 93
79 88 91
79 87 91
79 87 91
79 87 91
79 87 91
79 87 91
79 87 91
79 87 91
79 88 91
79 88 91
79 87 91
78 88 91
77 87 91
121 185 209
138 216 247
130 209 240
131 211 242
131 210 242
131 210 242
131 211 242
131 210 242
131 210 242
131 211 242
131 210 242
131 210 242
131 211 242
130 208 240
135 219 252
130 163 176
1 0 0
0 1 1
0 0 0
3 4 4
0 0 0
93 103 107
129 210 242
131 211 242
88 97 100
0 0 0
4 4 5
3 3 3
0 0 0
3 0 0
129 165 179
135 219 252
130 208 239
131 210 242
131 210 242
131 210 242
131 211 242
131 210 242
134 211 241
137 213 243
136 212 243
135 211 241
131 210 242
131 210 242
131 210 242
131 210 242
131 210 242
131 209 240
131 215 248
142 192 211
19 15 13
0 0 0
3 3 3
4 4 4
0 0 0
59 59 60
143 211 238
118 206 241
118 140 149
0 0 0
2 3 4
0 0 0
2 3 3
0 0 0
103 125 134
142 223 255
129 207 239
131 210 242
131 210 242
131 210 242
131 210 242
131 210 242
131 211 242
131 210 242
131 210 242
131 210 242
131 210 242
131 210 241
134 211 241
141 214 243
135 176 192
115 200 233
137 202 228
140 205 231
141 206 233
138 203 229
136 201 227
137 202 228
136 202 228
136 202 228
137 202 228
136 202 228
136 201 227
135 200 226
140 209 237
96 123 133
0 0 0
0 1 2
0 0 0
2 2 2
0 0 0
53 55 56
150 205 228
140 198 222
42 44 46
0 0 0
10 10 10
26 26 26
0 0 0
0 0 0
100 128 140
139 209 236
136 201 226
137 202 228
136 202 228
136 202 228
136 202 228
138 203 228
122 199 230
111 191 223
112 191 222
117 197 228
136 203 229
136 202 228
136 202 228
136 202 228
137 202 228
136 200 226
137 206 234
125 162 177
14 10 9
0 0 0
22 22 22
16 16 16
0 0 0
26 24 23
131 179 197
147 214 240
67 78 83
0 0 0
2 2 3
0 0 0
2 2 3
0 0 0
75 92 99
138 206 233
136 201 227
136 201 227
136 202 228
136 202 228
136 202 227
137 202 228
136 202 228
136 201 228
139 204 230
141 207 233
139 204 230
138 202 228
112 196 229
145 201 223
148 190 207
124 166 183
43 38 36
31 31 31
25 24 24
38 38 37
47 46 46
47 46 45
45 44 44
46 45 45
47 46 46
45 44 44
46 46 45
47 46 46
43 42 41
6 5 5
0 0 0
0 0 0
2 2 2
0 0 0
0 0 0
0 0 0
35 33 32
33 31 31
0 0 0
0 0 0
20 20 20
62 62 62
0 0 0
1 1 1
7 6 6
44 43 42
47 46 46
46 46 45
45 44 44
47 46 45
48 48 47
37 34 32
103 123 131
129 206 236
122 203 236
107 141 155
39 35 33
47 47 47
47 47 46
45 44 44
46 45 45
47 46 45
46 46 45
14 12 12
0 0 0
0 0 0
50 50 50
36 36 36
0 0 0
0 0 0
21 20 20
41 40 39
2 1 1
0 0 0
0 0 0
2 2 2
0 0 0
0 0 0
1 1 1
38 37 36
48 47 46
46 46 45
44 44 44
46 46 45
47 46 45
44 43 44
46 46 45
47 47 46
35 34 34
25 24 23
35 35 35
39 34 32
94 128 141
164 219 241
154 196 214
113 136 146
0 0 0
86 87 87
133 133 133
32 32 32
0 0 0
1 1 1
0 0 0
0 0 0
0 0 0
0 0 0
0 0 0
0 0 0
0 0 0
0 0 1
0 0 0
0 0 0
0 0 0
0 0 0
0 0 0
0 0 0
0 0 0
0 0 0
0 0 0
0 0 0
0 0 0
0 0 0
0 0 0
0 0 0
0 0 1
0 0 0
0 0 0
0 0 0
0 0 0
0 0 0
3 3 3
0 0 0
73 76 77
138 209 237
128 209 241
101 113 117
0 0 0
3 4 4
0 0 0
0 0 0
0 0 0
0 0 0
0 0 0
0 0 1
0 0 0
0 0 0
0 0 0
0 0 0
0 0 0
0 0 0
0 0 0
0 0 0
0 0 0
0 0 0
0 0 0
0 0 0
0 0 0
0 0 0
0 0 0
0 0 0
0 0 0
0 0 0
0 0 0
0 0 0
0 0 0
0 0 0
2 2 2
0 0 0
52 52 52
138 138 138
66 66 66
0 0 0
84 96 101
174 225 245
155 198 215
101 127 137
36 30 28
250 251 251
255 255 255
130 130 130
0 0 0
74 75 75
0 0 0
34 34 34
62 62 62
0 0 0
48 48 48
50 50 50
0 0 0
59 59 59
33 33 33
0 0 0
68 68 68
18 18 18
0 0 0
72 72 72
6 6 6
8 8 8
71 71 71
0 0 0
22 22 22
68 68 68
0 0 0
36 36 36
56 56 56
0 0 0
52 52 52
45 45 45
0 0 0
64 64 64
32 33 33
0 0 0
73 78 80
137 208 237
128 208 241
99 114 119
0 0 0
17 17 18
73 73 73
0 0 0
28 28 28
65 66 66
0 0 0
41 41 41
53 53 53
0 0 0
56 56 56
40 40 40
0 0 0
64 64 64
25 25 25
0 0 0
71 71 71
10 10 10
2 2 2
73 73 73
0 0 0
15 15 15
69 69 69
0 0 0
32 32 32
63 63 63
0 0 0
47 47 47
51 51 51
0 0 0
58 59 59
38 38 38
201 201 201
255 255 255
200 201 201
0 0 0
82 96 102
173 225 245
154 197 213
109 134 144
0 0 0
136 137 137
187 187 187
59 59 59
0 0 0
26 27 27
0 0 0
12 13 13
21 22 23
0 0 0
17 18 18
17 18 19
0 0 0
21 22 22
12 14 14
0 0 0
24 25 26
7 9 9
0 1 1
25 27 27
2 4 4
4 5 5
24 24 24
0 0 0
6 6 6
18 18 18
0 0 0
12 12 12
20 21 21
0 0 0
18 19 19
14 14 14
0 0 0
17 17 17
10 11 11
0 0 0
72 76 78
137 209 237
128 208 240
99 112 117
0 0 0
6 7 7
19 19 19
0 0 0
8 8 8
23 23 23
0 0 0
15 16 16
18 18 18
0 0 0
15 15 15
11 11 11
0 0 0
22 22 22
10 11 11
0 0 0
25 26 26
4 6 6
2 4 4
25 27 27
0 2 2
6 8 8
24 26 26
0 0 0
11 13 13
21 23 23
0 0 0
16 18 18
17 19 19
0 0 0
23 23 23
2 2 2
90 90 90
193 193 193
106 106 106
0 0 0
82 95 101
173 224 245
153 196 213
110 135 145
0 0 0
3 4 4
8 8 8
0 0 0
0 0 0
0 0 0
0 0 0
0 0 0
0 0 0
0 0 0
0 0 0
0 0 0
0 0 0
0 0 0
0 0 0
0 0 0
0 0 0
0 0 0
0 0 0
0 0 0
0 0 0
0 0 0
0 0 0
0 0 0
3 3 3
10 10 10
0 0 0
0 0 0
0 0 0
0 0 0
0 0 0
0 0 0
0 0 0
9 9 9
7 7 7
0 0 0
72 76 77
137 209 237
127 208 240
99 112 118
0 0 0
5 5 6
10 10 10
0 0 0
0 0 0
0 0 0
0 0 0
0 0 0
0 0 0
0 0 0
8 8 8
5 5 5
0 0 0
0 0 0
0 0 0
0 0 0
0 0 0
0 0 0
0 0 0
0 0 0
0 0 0
0 0 0
0 0 0
0 0 0
0 0 0
0 0 0
0 0 0
0 0 0
0 0 0
0 0 0
0 0 0
0 0 0
0 0 0
7 7 7
5 5 6
0 0 0
80 94 99
173 224 245
153 196 213
109 135 145
0 0 0
11 12 12
79 79 79
3 3 3
0 0 0
33 36 37
114 139 150
114 143 154
115 142 152
114 140 151
115 141 152
115 141 152
114 141 151
115 141 152
114 141 151
114 141 151
115 142 152
115 141 151
115 141 152
114 140 150
119 147 157
89 109 117
4 4 4
0 0 0
23 23 23
71 71 71
0 0 0
0 0 0
45 52 55
122 152 164
43 54 59
0 0 0
0 0 0
66 66 66
33 33 33
0 0 0
72 77 78
137 209 238
128 208 240
98 112 117
0 0 0
16 17 17
76 76 76
0 0 0
0 0 0
29 34 36
119 147 159
70 81 85
0 0 0
0 0 0
58 58 58
41 41 41
0 0 0
3 1 1
86 99 104
119 147 158
114 140 150
114 141 151
114 141 151
115 141 152
115 141 151
115 141 152
115 142 152
114 141 151
115 141 152
115 141 152
114 141 151
115 142 152
114 141 152
119 147 158
46 52 54
0 0 0
0 0 0
75 75 75
27 27 27
0 0 0
81 95 100
173 225 245
154 196 213
109 135 145
0 0 0
6 3 4
1 0 0
5 3 3
0 0 0
121 146 156
135 222 255
122 204 237
121 209 243
124 213 249
124 213 248
124 213 248
124 213 248
124 213 248
124 212 248
124 213 248
124 213 248
127 215 251
127 214 250
128 215 250
121 210 247
150 232 255
81 87 90
0 0 0
3 3 4
0 0 0
0 0 0
6 1 0
136 177 193
126 221 255
139 186 205
14 8 6
0 0 0
1 1 1
3 3 3
0 0 0
71 76 77
136 208 237
127 208 240
98 112 117
0 0 0
3 4 4
0 0 0
0 2 2
0 0 0
127 159 171
127 221 255
149 203 224
27 23 21
0 0 0
1 1 1
2 2 3
0 0 0
54 52 52
161 230 255
118 210 247
125 213 248
124 213 248
124 213 248
124 213 248
124 213 248
124 213 248
124 213 248
124 213 248
124 213 248
124 213 248
124 213 248
123 211 246
124 206 238
128 216 252
136 175 191
5 0 0
0 0 0
0 0 0
3 4 4
0 0 0
80 94 99
173 225 245
153 196 213
109 134 144
0 0 0
2 6 7
0 2 2
1 5 6
0 0 0
120 147 158
122 203 236
114 192 223
136 192 215
133 175 192
132 176 194
132 176 194
132 176 194
132 176 194
132 176 194
132 176 194
132 177 195
117 166 182
120 167 184
116 164 180
124 173 189
129 162 175
28 28 28
0 0 0
19 19 19
56 56 56
0 0 0
12 6 4
138 178 194
112 200 235
141 187 205
20 15 13
0 0 0
52 52 52
26 27 27
0 0 0
72 76 77
137 208 237
128 208 240
97 111 116
0 0 0
13 14 14
60 60 60
0 0 0
2 0 0
130 163 176
114 201 235
141 195 217
34 30 28
0 0 0
46 46 46
33 33 33
0 0 0
13 11 10
106 134 146
135 182 201
131 175 192
132 176 194
132 176 193
132 176 194
132 176 193
132 176 194
132 176 194
132 176 194
132 176 194
132 176 194
132 175 192
130 183 204
116 193 224
115 198 230
136 176 192
10 5 2
0 0 0
57 57 57
20 20 20
0 0 0
81 94 100
173 225 245
154 196 213
107 135 145
2 0 0
133 3 4
202 0 0
120 2 3
1 0 0
120 146 157
119 205 239
141 205 231
68 65 64
1 0 0
12 7 5
10 5 3
11 5 3
10 4 2
11 5 3
11 5 4
10 5 0
93 61 68
206 145 169
186 129 147
48 31 36
0 0 0
1 1 1
0 0 0
11 11 11
35 35 35
0 0 0
10 5 2
137 177 193
115 204 239
140 186 204
19 13 11
0 0 0
33 33 33
18 18 18
0 0 0
74 79 81
135 207 236
125 205 237
102 117 122
0 0 0
9 10 10
38 38 38
0 0 0
1 0 0
130 162 174
116 204 239
143 197 218
32 28 26
0 0 0
30 30 30
20 20 20
0 0 0
0 0 1
4 2 1
12 5 3
10 4 2
11 5 3
11 5 3
10 4 2
11 5 3
11 5 3
10 4 2
11 5 3
11 5 3
11 6 4
6 0 0
33 27 25
136 191 213
115 203 238
136 175 191
9 3 1
0 0 0
36 36 36
13 14 14
0 0 0
80 94 99
173 224 245
157 197 214
95 130 140
143 8 5
255 98 89
248 14 15
255 100 91
125 4 2
105 144 154
123 206 241
143 203 227
45 42 41
0 0 0
3 4 4
1 2 2
0 0 0
2 2 3
3 3 4
0 0 0
30 28 53
227 205 241
243 188 234
227 203 250
220 172 195
8 4 8
3 4 3
0 0 0
0 0 0
0 0 0
0 0 0
10 4 2
138 178 194
114 203 239
141 187 205
18 13 10
0 0 0
1 1 1
2 3 3
0 0 0
58 60 60
146 215 242
140 220 252
79 90 94
0 0 0
2 3 3
0 0 0
0 1 1
0 0 0
130 162 175
117 205 240
143 197 218
31 27 25
0 0 0
1 1 1
0 0 0
0 0 0
4 4 4
3 3 4
0 0 0
2 3 3
0 0 0
0 0 0
2 3 3
0 0 0
0 1 1
2 3 3
0 0 0
1 1 1
3 3 3
0 0 0
21 15 12
143 189 207
114 204 240
136 176 191
8 2 0
0 0 0
0 0 0
3 4 4
0 0 0
80 94 99
173 225 245
149 199 216
127 124 132
206 37 45
172 155 220
243 49 47
172 159 227
202 27 29
125 138 147
117 207 242
143 203 227
47 45 44
0 0 0
53 54 54
55 55 55
0 0 0
66 66 66
39 38 40
0 0 0
107 78 134
208 184 245
228 170 218
177 158 227
255 206 231
81 60 74
65 69 67
0 0 0
24 24 24
74 74 74
0 0 0
12 6 3
137 178 194
114 204 239
140 186 205
20 14 12
0 0 0
71 71 71
32 32 32
0 0 0
0 0 0
63 72 76
75 87 92
1 1 0
0 0 0
14 14 14
81 81 81
0 0 0
1 0 0
130 162 175
116 204 239
143 197 218
33 29 27
0 0 0
61 61 61
44 44 44
0 0 0
72 72 72
27 27 27
0 0 0
80 80 80
12 12 12
3 3 3
82 82 82
0 0 0
18 18 18
78 78 78
0 0 0
35 35 35
69 69 69
0 0 0
23 17 15
141 188 207
115 204 239
136 175 191
10 4 2
0 0 0
76 76 76
25 26 26
0 0 0
81 94 100
173 224 245
147 196 213
133 134 144
231 0 0
243 3 19
252 0 0
245 2 19
222 0 0
131 147 157
116 206 240
143 203 227
44 41 40
0 0 0
2 2 2
0 0 0
0 0 0
1 1 1
5 5 5
0 0 0
165 130 151
255 204 242
250 187 225
251 193 225
255 197 241
88 69 83
0 0 0
3 3 3
0 0 0
1 1 1
0 0 0
10 4 2
138 177 193
114 203 239
140 187 205
18 12 10
0 0 0
1 1 1
0 0 0
0 0 0
0 0 0
0 0 0
0 0 0
0 0 0
0 0 0
0 0 0
0 0 0
0 1 1
0 0 0
130 162 175
116 204 239
142 196 218
31 27 25
0 0 0
2 2 2
1 1 1
0 0 0
2 2 2
2 2 2
0 0 0
0 0 0
0 0 0
0 0 0
0 0 0
0 0 0
1 2 2
2 2 2
0 0 0
0 0 0
1 1 1
0 0 0
20 14 12
141 189 207
114 204 239
137 176 191
8 2 0
0 0 0
0 0 0
3 4 4
0 0 0
80 94 99
173 225 245
147 196 213
136 134 145
88 0 0
130 6 4
103 1 1
128 5 3
89 0 0
138 146 156
115 206 240
143 202 226
44 42 41
0 0 0
29 29 29
28 28 28
0 0 0
0 0 1
6 4 3
12 8 5
98 70 81
126 90 105
124 89 103
132 95 112
120 85 98
67 48 56
0 0 0
3 2 2
0 0 0
0 0 0
0 0 0
10 4 2
137 177 193
114 204 239
140 186 205
19 13 11
0 0 0
38 38 38
18 18 18
0 0 0
43 43 43
11 11 11
2 2 2
45 45 45
0 0 0
7 7 7
43 43 43
0 0 0
1 0 0
130 162 175
116 204 239
143 196 218
31 27 25
0 0 0
1 1 1
0 0 0
0 0 0
0 0 0
5 4 3
17 12 9
15 11 8
16 11 8
16 11 8
15 10 8
17 12 9
7 5 3
0 0 0
0 0 0
18 18 18
37 37 37
0 0 0
21 15 13
141 188 207
115 204 240
136 175 191
9 3 1
0 0 0
41 41 41
15 15 16
0 0 0
80 94 99
173 225 245
153 196 213
109 135 145
0 0 0
2 3 5
0 0 0
1 2 4
0 0 0
122 149 159
116 202 236
141 201 225
46 44 43
0 0 0
37 37 37
36 37 37
0 0 0
6 4 3
104 133 144
139 190 210
124 174 192
119 171 188
121 172 189
122 173 190
124 178 197
125 164 179
25 25 26
0 0 0
1 1 1
0 0 0
0 0 0
10 4 2
137 177 193
114 204 239
140 187 205
22 16 15
0 0 0
50 50 51
25 25 25
0 0 0
57 57 57
14 14 14
2 2 2
59 59 59
3 3 3
11 12 12
57 57 57
0 1 1
4 0 0
130 163 176
116 205 240
143 197 218
31 27 25
0 0 0
1 1 1
1 1 1
0 0 0
13 11 10
113 145 157
139 191 211
136 183 202
134 182 201
134 181 200
133 180 199
137 187 207
113 149 164
17 17 17
0 0 0
24 24 24
48 48 48
0 0 0
22 17 15
141 189 208
111 200 234
135 175 191
10 4 2
0 0 0
52 52 52
18 19 19
0 0 0
80 94 99
172 224 245
153 196 213
110 134 145
0 0 0
9 7 4
5 3 0
4 3 4
0 0 0
116 140 149
133 222 255
150 209 232
39 35 34
0 0 0
2 2 2
2 2 2
0 0 0
36 33 32
150 215 241
121 213 249
127 213 248
128 215 250
128 216 251
119 205 240
112 196 230
141 221 253
86 94 97
0 0 0
3 4 4
0 0 0
0 0 0
10 4 2
137 178 194
114 203 239
141 187 205
18 13 10
0 0 0
1 1 1
0 0 0
0 0 0
0 0 0
0 0 0
0 0 0
0 0 0
0 0 0
0 0 0
0 0 0
0 1 1
1 0 0
131 163 175
116 205 240
143 197 218
31 27 25
0 0 0
1 1 1
2 3 3
0 0 0
58 58 58
150 219 247
109 195 229
116 202 236
124 213 248
125 212 247
126 213 247
120 210 246
152 228 255
63 66 67
0 0 0
3 3 3
1 1 1
0 0 0
14 9 7
141 187 206
130 223 255
140 176 190
4 0 0
0 0 0
0 0 0
3 3 4
0 0 0
80 93 99
172 224 244
153 196 213
110 135 145
0 0 0
2 3 4
0 0 0
11 1 2
0 0 0
23 25 25
113 137 146
65 77 82
0 0 0
0 0 0
50 50 50
51 51 51
0 0 0
0 0 0
56 68 74
115 139 149
108 131 140
109 133 142
109 129 138
128 179 199
115 195 227
137 210 240
82 89 92
0 0 0
3 3 4
0 0 0
0 0 0
9 4 2
136 176 193
116 201 235
126 195 222
91 106 112
72 77 80
77 85 88
76 83 86
75 82 85
77 84 87
75 82 85
75 82 85
77 84 87
75 82 85
75 82 85
77 84 87
73 80 83
87 93 96
131 187 209
113 198 232
143 197 218
30 26 25
0 0 0
1 1 1
2 3 3
0 0 0
54 54 55
141 206 232
113 194 227
122 183 208
107 131 141
110 132 141
109 132 141
114 139 148
75 90 96
0 0 0
0 0 0
33 33 33
67 67 67
0 0 0
0 0 0
51 58 60
119 144 153
46 50 51
0 0 0
0 0 0
74 74 74
25 25 26
0 0 0
81 94 100
173 224 245
155 198 213
105 130 145
24 17 0
158 164 3
203 180 0
170 57 49
30 4 18
1 1 0
0 0 0
0 0 0
0 0 0
0 0 0
8 8 8
8 8 8
0 0 0
0 0 0
0 0 0
0 0 0
0 0 0
3 3 4
0 0 0
94 103 106
131 209 240
133 209 239
83 90 93
0 0 0
3 3 4
1 1 1
0 0 0
11 5 3
141 185 202
111 198 232
111 192 225
127 208 240
133 210 241
132 210 241
132 210 241
132 210 240
132 210 241
132 209 241
132 210 241
132 210 241
132 210 241
132 210 241
132 209 240
132 209 240
131 210 241
113 195 228
106 192 225
147 205 228
34 30 28
0 0 0
1 2 2
2 3 3
0 0 0
55 55 55
141 207 232
122 206 240
114 134 142
0 0 0
2 3 3
0 0 0
0 0 0
0 0 0
0 0 0
0 0 0
2 2 2
5 5 5
0 0 0
0 0 0
0 0 0
0 0 0
0 0 0
0 0 0
0 0 0
5 5 5
4 5 5
0 0 0
80 94 99
172 224 244
153 196 213
108 133 144
194 190 0
238 238 3
174 180 4
193 157 28
166 61 31
0 0 0
4 5 4
2 2 3
0 0 0
0 0 0
0 0 0
0 0 0
0 0 0
0 0 0
2 2 2
2 3 3
2 3 3
5 7 7
0 0 0
88 97 101
132 209 240
134 209 239
83 90 93
0 0 0
3 3 4
0 0 0
0 1 1
0 0 0
116 140 150
146 216 243
140 205 231
138 204 230
136 203 230
136 203 230
136 203 230
136 203 230
136 203 230
136 204 230
136 203 230
136 203 230
136 203 230
136 203 230
136 204 230
136 204 230
136 203 230
140 205 231
142 213 241
126 163 178
12 8 6
0 0 0
1 1 1
2 3 3
0 0 0
55 55 55
141 206 232
122 206 240
113 133 141
0 0 0
6 8 8
31 32 32
1 2 2
8 9 9
28 28 28
0 0 0
11 11 11
22 22 22
0 0 0
18 18 18
21 22 22
0 0 0
25 25 25
14 14 14
0 0 0
24 24 24
10 10 11
0 0 0
80 94 99
173 225 245
146 188 212
135 161 146
219 210 0
78 79 6
0 0 5
150 152 3
154 152 2
0 0 3
6 6 3
2 2 3
2 2 3
2 2 3
2 2 3
2 2 3
2 2 3
0 0 0
0 0 0
0 0 0
0 0 0
3 4 4
0 0 0
88 97 101
131 209 239
133 209 239
82 90 93
0 0 0
3 3 4
0 0 0
1 0 0
0 0 0
11 10 10
49 49 49
49 49 49
49 50 50
50 50 50
49 49 49
49 49 49
49 49 49
49 49 49
50 50 50
50 50 50
50 50 50
50 50 50
49 49 49
50 50 50
49 50 50
49 49 49
49 49 49
51 51 51
14 13 13
0 0 0
1 1 1
0 0 0
2 3 3
0 0 0
55 55 55
141 206 232
122 206 240
112 133 141
0 0 0
6 7 8
71 71 71
0 0 0
15 15 15
66 66 66
0 0 0
31 31 32
61 61 61
0 0 0
45 45 46
49 49 49
0 0 0
57 57 58
35 35 36
0 0 0
66 66 67
24 24 25
0 0 0
81 95 101
172 224 244
150 195 213
128 143 145
25 0 0
0 1 4
0 0 0
6 3 0
42 20 0
0 0 0
1 0 0
0 0 0
0 0 0
0 0 0
0 0 0
0 0 0
0 0 0
1 1 1
0 0 0
0 0 0
0 0 0
3 4 4
0 0 0
87 97 100
132 209 240
133 209 239
83 90 93
0 0 0
3 3 4
0 0 0
0 0 0
0 0 0
1 1 1
0 0 0
0 0 0
0 0 0
0 0 0
0 0 0
0 0 0
0 0 0
0 0 0
0 0 0
0 0 0
0 0 0
0 0 0
0 0 0
0 0 0
0 0 0
0 0 0
0 0 0
0 0 0
1 1 1
1 1 1
0 0 0
0 0 0
2 3 3
0 0 0
55 55 55
141 206 232
122 207 240
112 133 141
0 0 0
2 3 3
0 0 0
0 0 0
0 0 0
0 0 0
0 0 0
0 0 0
0 0 0
0 0 0
0 0 0
0 0 0
0 0 0
0 0 0
0 0 0
0 0 0
0 0 0
3 4 4
0 0 0
82 94 99
173 224 245
147 189 205
121 167 187
43 43 45
56 57 54
53 54 53
52 53 53
44 47 52
53 54 53
52 53 53
52 53 53
52 53 53
52 53 53
52 53 53
52 53 53
52 52 52
11 10 9
0 0 0
1 0 0
0 0 0
3 4 4
0 0 0
88 97 101
132 209 240
133 209 239
83 90 93
0 0 0
3 3 4
0 0 0
0 0 0
0 0 0
0 0 0
2 2 2
2 2 2
2 2 2
2 2 2
2 2 2
2 2 2
2 2 2
2 2 2
2 2 2
2 2 2
2 2 2
2 2 2
2 2 2
2 2 2
2 2 2
2 2 2
2 2 2
2 2 2
1 1 1
0 0 0
0 0 0
0 0 0
2 3 3
0 0 0
55 55 55
140 206 232
122 207 240
113 133 141
0 0 0
7 7 8
72 72 72
1 1 1
0 0 0
6 5 4
47 47 46
54 55 55
54 54 54
51 53 52
53 54 54
54 54 55
51 53 52
54 54 55
53 54 54
52 53 53
54 55 55
54 56 56
46 43 41
107 140 153
162 217 240
140 179 195
119 203 236
138 205 231
135 204 231
135 204 231
136 204 231
138 206 232
136 204 231
136 204 232
136 204 231
136 204 232
136 204 232
136 204 231
134 202 229
142 213 241
118 143 152
0 0 0
0 1 1
0 0 0
3 4 4
0 0 0
87 96 100
132 209 240
133 209 239
82 90 93
0 0 0
3 3 4
0 0 0
0 0 0
0 0 0
2 3 3
2 3 3
2 3 3
2 3 3
2 3 3
2 3 3
2 3 3
3 3 3
3 3 3
3 3 3
3 3 3
3 3 3
3 3 3
2 3 3
2 3 3
2 3 3
2 3 3
2 3 3
2 3 3
2 3 3
0 0 0
0 0 0
0 0 0
2 3 3
0 0 0
55 55 55
141 206 232
122 207 240
113 133 141
0 0 0
3 4 5
23 23 23
2 3 3
0 0 0
94 109 114
146 213 241
134 202 229
135 204 231
136 204 231
136 204 231
136 204 232
136 204 231
136 204 231
136 204 231
136 204 231
136 204 231
135 204 231
138 205 232
117 199 232
150 205 226
141 180 195
118 203 237
133 209 240
132 209 240
132 209 240
132 209 240
132 209 240
133 209 240
132 209 240
132 209 240
132 209 240
132 209 240
132 209 239
131 207 237
135 217 250
113 148 162
1 0 0
0 1 1
0 0 0
3 4 4
0 0 0
87 96 100
131 209 240
133 209 239
82 90 93
0 0 0
3 3 4
0 0 0
0 0 0
0 0 0
0 0 0
0 0 0
0 0 0
0 0 0
0 0 0
0 0 0
0 0 0
0 0 0
0 0 0
0 0 0
0 0 0
0 0 0
0 0 0
0 0 0
0 0 0
0 0 0
0 0 0
0 0 0
0 0 0
0 0 0
0 0 0
0 0 0
0 0 0
2 3 3
0 0 0
55 55 55
141 206 232
122 207 240
112 133 141
0 0 0
3 4 4
8 8 8
2 3 3
0 0 0
105 125 132
143 221 252
130 206 237
132 209 240
132 209 240
132 209 240
132 209 240
132 209 240
133 210 240
133 210 240
132 209 240
132 209 240
132 209 239
135 211 241
116 200 233
150 204 226
143 185 202
131 181 201
76 79 80
71 78 81
72 78 81
72 78 81
72 78 81
72 78 81
72 78 81
72 78 81
72 78 81
72 78 81
73 79 82
74 80 83
70 76 79
13 13 13
0 0 0
0 0 0
0 0 0
3 4 4
0 0 0
87 97 100
131 208 239
133 209 239
82 90 93
0 0 0
3 3 4
0 0 0
0 0 0
2 0 0
103 115 119
116 146 159
120 149 161
119 149 161
120 150 162
118 149 162
127 153 163
107 93 102
93 73 85
95 78 89
95 77 88
93 75 87
101 83 92
126 147 155
119 151 163
120 150 161
120 150 162
120 150 162
114 145 158
112 130 138
15 13 13
0 0 0
1 1 1
2 3 3
0 0 0
55 55 55
140 206 232
122 207 240
112 133 141
0 0 0
7 8 8
80 80 80
1 1 1
0 0 0
10 8 8
67 71 73
74 80 83
73 80 82
71 78 81
73 79 82
73 79 82
71 77 81
74 80 83
73 79 82
72 78 81
74 80 83
73 80 83
71 73 74
123 159 174
158 214 236
153 196 213
113 136 145
0 0 0
2 3 4
0 0 0
0 0 0
0 0 0
0 0 0
0 0 0
0 0 0
0 0 0
0 0 0
0 0 0
0 0 0
0 0 0
0 0 0
0 0 0
0 0 0
0 0 0
3 4 4
0 0 0
87 96 100
131 208 239
133 209 239
83 91 94
0 0 0
3 3 4
1 1 1
0 0 0
9 3 1
151 196 214
153 200 218
117 143 154
119 150 162
119 149 160
118 148 160
126 152 162
106 92 101
91 74 84
95 77 88
94 77 87
93 75 86
100 83 91
126 146 155
118 150 162
119 149 161
120 150 162
116 143 155
144 183 198
164 219 241
31 27 26
0 0 0
1 2 2
2 3 3
0 0 0
55 55 55
141 206 232
122 207 240
112 133 141
0 0 0
2 3 3
0 0 0
0 0 0
0 0 0
0 0 0
0 0 0
0 0 0
0 0 0
0 0 0
0 0 0
0 0 0
0 0 0
0 0 0
0 0 0
0 0 0
0 0 0
3 4 4
0 0 0
83 94 99
173 224 244
153 196 213
110 135 146
0 0 0
5 6 6
3 3 3
3 3 3
3 3 3
3 3 3
3 3 3
3 3 3
4 4 4
0 0 0
38 38 39
41 41 41
0 0 0
47 47 47
25 25 25
0 0 0
1 1 1
3 4 4
0 0 0
87 96 100
131 208 239
133 209 239
82 90 93
0 0 0
3 3 4
0 0 0
0 0 0
6 0 0
149 192 209
102 121 128
0 0 0
3 3 4
0 0 0
0 0 0
0 0 0
0 0 0
0 0 0
0 0 0
0 0 0
0 0 0
0 0 0
0 0 0
0 0 0
0 0 0
3 3 3
0 0 0
71 80 82
164 213 232
25 23 22
0 0 0
1 1 1
2 3 3
0 0 0
54 54 54
141 206 231
123 207 241
112 132 140
0 0 0
6 7 7
59 59 59
0 0 0
12 12 12
55 55 55
0 0 0
27 27 27
51 51 51
0 0 0
39 39 39
42 42 42
0 0 0
49 49 49
30 30 31
0 0 0
56 56 57
21 22 22
0 0 0
81 95 101
172 224 244
154 196 213
109 134 144
0 0 0
2 3 4
0 0 0
0 0 0
0 0 0
1 1 1
3 4 4
3 4 4
4 5 5
0 0 0
29 30 30
31 32 32
0 0 0
36 36 36
19 19 19
0 0 0
1 1 1
3 4 4
0 0 0
90 100 104
128 206 237
130 207 237
85 93 97
0 0 0
3 4 4
0 0 0
0 0 0
6 0 0
151 194 211
100 122 131
0 0 0
5 6 7
2 3 3
2 3 3
2 3 3
3 3 3
3 3 3
3 3 3
3 3 3
3 3 3
3 3 3
2 3 3
2 3 3
2 3 3
5 6 6
0 0 0
71 81 86
165 215 235
26 23 22
0 0 0
1 1 1
2 3 3
0 0 0
57 58 58
139 205 232
119 203 237
116 137 145
0 0 0
5 6 6
42 42 42
0 0 0
9 9 9
42 42 42
0 0 0
21 22 22
39 40 40
0 0 0
29 30 30
32 33 33
0 0 0
36 36 36
20 20 20
0 0 0
39 39 39
14 15 15
0 0 0
81 94 100
173 224 245
154 196 213
109 135 145
0 0 0
2 3 4
0 0 0
0 0 0
0 0 0
1 1 1
0 0 0
0 0 0
0 0 0
0 0 0
0 0 0
0 0 0
0 0 0
0 0 0
0 0 0
0 0 0
0 0 0
3 3 3
0 0 0
77 83 85
146 221 251
146 219 248
72 76 78
0 0 0
3 3 3
0 0 0
0 0 0
6 0 0
151 194 212
100 121 130
0 0 0
3 3 4
0 0 0
0 0 0
0 0 0
0 0 0
0 0 0
0 0 0
0 0 0
0 0 0
0 0 0
0 0 0
0 0 0
0 0 0
3 3 3
0 0 0
70 80 84
165 215 235
26 23 22
0 0 0
1 1 1
2 2 2
0 0 0
45 43 42
149 210 234
137 223 255
95 113 120
0 0 0
2 3 3
0 0 0
0 0 0
0 0 0
0 0 0
0 0 0
0 0 0
0 0 0
0 0 0
0 0 0
0 0 0
0 0 0
0 0 0
0 0 0
0 0 0
0 0 0
3 4 4
0 0 0
80 94 99
172 224 245
154 196 213
109 135 145
0 0 0
2 3 4
0 0 0
1 1 1
0 0 0
13 13 13
86 98 103
94 108 114
92 106 111
92 106 112
93 107 113
92 107 113
94 108 113
33 33 34
0 0 0
1 1 1
0 0 0
0 0 0
0 0 0
4 2 2
81 93 97
72 84 88
1 0 0
0 0 0
0 0 0
0 0 0
0 0 0
6 0 0
151 195 212
100 121 130
0 0 0
3 3 4
0 0 0
0 0 0
0 0 0
0 0 0
0 0 0
0 0 0
0 0 0
0 0 0
0 0 0
0 0 0
0 0 0
0 0 0
3 3 3
0 0 0
70 80 84
166 216 236
26 23 22
0 0 0
1 1 1
0 0 0
1 1 1
0 0 0
59 66 69
86 101 107
5 6 6
0 0 0
5 6 6
83 83 83
1 1 1
0 0 0
15 15 15
84 98 103
94 110 116
93 108 113
93 107 112
93 107 113
93 108 113
95 108 113
31 32 33
0 0 0
0 0 0
76 76 76
25 26 26
0 0 0
81 95 100
173 225 245
154 196 213
110 135 145
0 0 0
2 3 4
0 0 0
2 3 3
0 0 0
119 142 151
139 226 255
125 209 242
128 212 245
128 212 245
128 210 243
131 209 240
137 221 254
133 165 178
1 0 0
0 1 1
0 0 0
0 0 0
0 0 0
1 1 1
0 0 0
0 0 0
1 1 1
0 0 0
0 0 0
0 0 0
0 0 0
6 0 0
151 194 211
100 121 130
0 0 0
3 3 4
0 0 0
0 0 0
0 0 0
0 0 0
0 0 0
0 0 0
0 0 0
0 0 0
0 0 0
0 0 0
0 0 0
0 0 0
3 3 3
0 0 0
70 80 84
166 216 236
26 23 22
0 0 0
1 1 1
0 0 0
0 0 0
0 0 0
0 0 0
0 0 0
1 1 1
0 0 0
0 0 0
0 0 0
2 3 3
0 0 0
110 130 138
142 224 255
130 209 240
128 210 242
128 212 245
128 212 245
127 210 242
132 221 255
139 177 191
3 0 0
0 0 1
0 0 0
3 4 4
0 0 0
80 94 99
173 224 245
154 197 213
109 135 145
0 0 0
2 3 4
0 0 0
2 2 2
0 0 0
73 87 92
138 198 221
136 194 218
136 195 218
138 194 217
136 200 226
113 192 223
114 197 231
135 176 192
8 2 0
0 0 0
0 0 0
0 0 0
0 0 0
0 0 0
3 4 4
2 3 3
0 0 0
0 0 0
0 0 0
0 0 0
0 0 0
6 0 0
151 194 211
101 122 131
0 0 0
5 6 7
2 3 3
2 3 3
2 3 3
2 3 3
2 3 3
2 3 3
2 3 3
2 3 3
2 3 3
2 3 3
2 3 3
2 3 3
5 6 6
0 0 0
71 82 86
165 215 235
26 23 22
0 0 0
1 1 1
0 0 0
0 0 0
0 0 0
2 3 3
3 4 4
0 0 0
0 0 0
2 2 2
41 41 41
2 3 3
0 0 0
120 147 157
122 204 237
110 189 221
132 200 227
138 195 217
136 195 218
136 194 217
140 201 226
86 109 118
0 0 0
0 0 0
38 38 38
14 15 15
0 0 0
80 94 99
173 224 244
154 196 213
109 135 145
0 0 0
2 3 4
0 0 0
0 0 0
0 0 0
0 0 0
27 24 22
33 30 28
33 30 28
27 23 22
60 59 58
134 194 218
116 202 237
135 173 188
6 1 0
0 0 0
0 0 0
0 0 0
0 0 0
0 0 0
2 2 2
2 2 2
0 0 0
0 0 0
0 0 0
0 0 0
0 0 0
6 0 0
149 192 208
101 121 128
0 0 0
3 3 4
0 0 0
0 0 0
0 0 0
0 0 0
0 0 0
0 0 0
0 0 0
0 0 0
0 0 0
0 0 0
0 0 0
0 0 0
3 3 3
0 0 0
71 80 83
164 213 232
25 22 21
0 0 0
1 1 1
0 0 0
0 0 0
0 0 0
2 2 2
3 3 3
0 0 0
0 0 0
4 4 4
59 59 59
2 3 4
0 0 0
119 144 153
121 206 239
134 204 232
83 90 92
24 19 17
34 32 30
33 30 29
30 27 26
3 3 3
1 1 1
0 0 0
54 54 54
19 19 20
0 0 0
80 94 99
173 225 245
154 196 213
110 135 145
0 0 0
2 3 4
0 0 0
0 0 0
0 0 0
2 2 2
0 0 0
0 0 0
1 1 1
0 0 0
22 17 14
144 191 209
115 204 240
135 173 188
7 1 0
0 0 0
0 0 0
0 0 0
0 0 0
1 1 1
0 0 0
0 0 0
1 1 1
0 0 0
0 0 0
1 1 1
0 0 0
9 3 1
151 196 214
148 193 212
115 141 151
118 148 159
118 147 158
117 147 158
117 147 158
118 147 158
118 147 158
118 147 158
118 147 159
118 147 159
118 147 159
118 147 158
118 147 159
118 147 158
118 148 159
114 141 152
138 175 191
164 219 241
31 27 26
0 0 0
1 2 2
0 0 0
0 0 0
1 1 1
0 0 0
0 0 0
1 1 1
0 0 0
0 0 0
0 0 0
1 3 3
0 0 0
119 144 154
120 206 241
144 204 228
47 45 43
0 0 0
2 2 2
0 0 0
0 0 0
0 1 1
0 0 0
0 0 0
0 0 0
3 3 4
0 0 0
80 93 99
172 224 245
154 196 213
110 135 145
0 0 0
2 3 4
0 0 0
0 0 0
0 0 0
0 0 0
1 1 2
1 1 2
2 2 3
0 0 0
23 18 17
142 190 210
114 203 239
135 173 188
7 1 0
0 0 0
0 0 0
0 0 0
0 0 0
0 0 0
58 61 62
56 58 60
0 0 0
0 0 0
0 0 0
0 0 0
0 0 0
2 0 0
102 116 121
117 149 162
122 152 164
121 152 164
121 152 164
121 152 164
121 152 164
121 152 164
121 152 164
122 152 164
121 152 164
122 152 164
121 152 164
121 152 164
122 152 165
121 152 164
121 152 164
122 153 164
116 148 161
113 132 140
15 14 13
0 0 0
1 1 1
0 0 0
1 1 1
0 0 0
38 40 41
63 68 71
1 0 0
0 0 0
5 5 5
79 79 79
2 3 4
0 0 0
119 144 154
120 206 240
141 203 228
49 47 47
0 0 0
50 50 50
54 55 55
0 0 0
62 62 62
37 37 37
0 0 0
74 74 74
24 25 25
0 0 0
81 95 100
172 224 244
153 195 212
110 135 145
0 0 0
2 4 6
0 1 2
0 1 2
1 2 3
1 1 1
0 0 0
0 0 0
1 1 1
0 0 0
21 16 14
142 190 209
115 204 239
136 174 189
7 1 0
0 0 0
0 0 0
3 3 3
0 0 0
67 70 72
151 218 244
146 212 239
56 60 61
0 0 0
2 3 3
0 0 0
0 0 0
0 0 0
0 0 0
0 0 0
0 0 0
0 0 0
0 0 0
0 0 0
0 0 0
0 0 0
0 0 0
0 0 0
0 0 0
0 0 0
0 0 0
0 0 0
0 0 0
0 0 0
0 0 0
0 0 0
0 0 0
0 0 0
0 0 0
0 0 0
0 0 0
2 2 2
0 0 0
36 34 33
144 198 220
143 221 252
89 102 108
0 0 0
3 3 4
9 9 9
1 3 3
0 0 0
119 144 154
119 205 240
142 204 228
46 44 44
0 0 0
7 7 7
6 6 6
0 0 0
12 12 12
9 9 10
0 0 0
14 15 16
7 8 10
0 0 0
81 94 99
173 223 243
155 200 218
114 142 154
0 0 0
1 3 3
0 0 0
0 0 0
0 0 0
0 0 0
0 0 0
0 0 0
1 1 1
0 0 0
21 16 14
142 190 209
115 204 239
135 173 188
7 1 0
0 0 0
0 0 0
3 4 4
0 0 0
91 102 106
127 207 239
130 208 239
87 96 99
0 0 0
3 4 4
0 0 0
0 0 0
0 0 0
2 3 3
2 3 3
2 3 3
2 3 3
2 3 3
2 3 3
2 3 3
2 3 3
2 3 3
2 3 3
2 3 3
2 3 3
2 3 3
2 3 3
2 3 3
2 3 3
2 3 3
2 3 3
2 3 3
2 3 3
0 0 0
0 0 0
0 0 0
3 3 3
0 0 0
59 59 59
140 208 234
117 203 238
117 139 147
0 0 0
3 4 5
22 22 22
2 3 3
0 0 0
120 144 154
120 206 240
142 203 228
46 44 44
0 0 0
15 15 15
14 14 14
0 0 0
0 1 1
0 0 0
0 0 0
0 0 0
3 3 4
0 0 0
88 102 108
173 228 250
97 113 120
156 215 239
134 173 189
138 175 188
138 174 188
138 178 194
92 119 129
8 6 5
0 0 0
1 1 1
1 1 1
0 0 0
21 16 14
142 190 209
115 204 239
135 173 188
7 1 0
0 0 0
0 0 0
3 4 4
0 0 0
87 96 99
132 209 239
133 208 238
82 90 94
0 0 0
5 5 6
2 2 2
2 2 2
1 1 1
0 0 0
0 0 0
0 0 0
0 0 0
0 0 0
0 0 0
1 1 1
2 2 2
2 2 2
2 2 2
2 2 2
2 2 2
2 2 2
1 1 1
0 0 0
0 0 0
0 0 0
0 0 0
0 0 0
0 0 0
0 0 0
2 2 2
2 2 2
4 4 5
0 0 0
55 56 56
140 205 231
123 207 240
111 131 139
0 0 0
7 8 8
73 73 73
2 3 4
0 0 0
120 144 154
120 206 240
143 204 228
48 46 45
0 0 0
46 46 46
48 48 48
0 0 0
2 0 0
79 97 104
136 176 192
138 175 189
138 175 189
137 173 187
157 214 237
119 149 161
6 3 2
65 71 74
102 125 135
99 121 130
97 118 126
104 132 143
161 226 251
64 68 69
0 0 0
3 3 3
1 1 1
0 0 0
22 16 14
141 189 209
114 203 239
135 173 188
7 1 0
0 0 0
0 0 0
3 4 4
0 0 0
87 97 100
131 209 240
134 209 239
85 91 94
0 0 0
3 3 4
0 0 0
0 0 0
1 1 1
1 1 1
0 0 0
0 0 0
0 0 0
0 0 0
1 1 1
1 1 1
0 0 0
0 0 0
0 0 0
0 0 0
0 0 0
0 0 0
1 1 1
1 1 1
0 0 0
0 0 0
0 0 0
0 0 0
0 0 0
1 2 2
0 0 0
0 0 0
2 3 3
0 0 0
57 56 55
142 207 232
122 207 240
112 132 140
0 0 0
2 3 3
0 0 0
1 3 3
0 0 0
120 144 154
120 206 240
143 204 228
46 44 44
0 0 0
2 2 2
2 2 2
0 0 0
36 33 32
162 220 243
115 150 164
96 115 123
99 121 130
102 125 135
75 86 90
14 11 10
1 1 2
0 0 0
0 0 0
2 2 2
0 0 0
35 32 31
168 217 237
61 68 71
0 0 0
3 3 3
2 2 1
0 0 0
21 16 14
141 189 208
116 204 239
135 172 187
6 1 0
0 0 0
0 0 0
3 3 4
0 0 0
86 96 99
134 210 240
124 204 235
101 128 139
41 38 36
50 50 50
47 48 47
50 50 50
16 15 14
0 0 0
1 1 1
0 0 0
0 0 0
1 1 1
0 0 0
19 18 18
51 51 51
47 46 46
48 48 48
48 47 47
47 47 47
51 51 51
27 26 26
0 0 0
1 1 1
0 0 0
0 0 0
0 0 0
0 0 0
8 8 7
48 48 47
48 48 48
49 50 50
41 39 37
85 102 109
130 203 233
125 207 240
111 131 140
0 0 0
6 7 8
70 70 70
2 3 4
0 0 0
119 143 152
120 206 240
142 203 227
47 45 44
0 0 0
44 44 44
48 48 48
0 0 0
35 35 35
167 217 237
62 67 69
0 0 0
3 3 3
0 0 0
0 0 0
1 1 2
0 0 0
2 2 3
3 3 4
5 5 6
0 0 0
35 34 35
168 219 240
61 68 70
0 0 0
3 4 6
1 1 2
0 0 0
24 19 16
144 194 214
108 199 235
139 178 194
8 2 0
0 0 0
0 0 0
3 4 4
0 0 0
91 102 106
134 212 243
106 186 218
120 199 230
138 204 230
136 203 229
136 202 227
137 208 236
122 165 182
15 12 10
0 0 0
1 1 1
1 1 1
0 0 0
19 16 15
127 173 191
142 212 239
140 205 231
141 207 233
141 206 233
140 206 232
140 208 235
140 195 217
42 43 44
0 0 0
2 2 2
0 0 0
0 0 1
3 0 0
103 137 150
138 209 238
136 201 227
136 203 229
138 203 229
124 201 231
108 188 219
125 207 240
116 138 147
0 0 0
4 5 5
27 27 27
2 3 3
0 0 0
123 149 159
114 202 236
142 205 230
50 48 47
0 0 0
18 18 18
19 19 19
0 0 0
34 33 33
168 219 239
62 69 72
0 0 0
6 6 7
3 3 4
3 3 3
1 1 1
0 0 0
0 0 0
0 0 0
2 2 2
0 0 0
33 32 31
168 219 239
61 68 71
0 0 0
6 5 4
7 5 2
0 0 0
11 6 4
134 172 188
143 227 255
118 148 159
0 0 0
0 1 2
0 0 0
2 3 3
0 0 0
63 69 71
149 217 244
135 211 241
135 210 240
131 210 241
132 210 241
132 209 240
129 212 245
144 197 218
27 23 21
0 0 0
1 1 1
2 2 2
0 0 0
52 51 51
146 213 240
105 190 223
113 193 225
112 193 225
112 193 225
113 193 225
106 188 221
140 216 247
81 87 89
0 0 0
3 3 4
0 0 0
0 0 0
7 2 0
137 176 191
134 217 250
131 208 239
131 210 241
132 210 241
134 210 240
135 210 240
145 220 251
86 102 108
0 0 0
2 3 3
4 4 4
2 3 3
0 0 0
105 121 127
147 226 255
145 198 219
31 28 26
0 0 0
4 4 4
5 5 5
0 0 0
34 33 33
168 219 240
60 66 69
0 0 0
3 3 3
0 0 0
0 0 0
0 0 0
0 0 0
0 0 0
0 0 0
2 2 2
0 0 0
33 32 31
168 220 242
63 69 61
0 2 53
139 110 123
199 150 94
18 24 111
3 2 0
24 25 27
79 87 90
20 20 19
0 0 0
1 1 1
0 0 0
0 0 0
0 0 0
0 0 0
60 64 65
79 88 91
75 83 86
76 84 87
76 84 87
75 83 86
80 89 92
30 32 33
0 0 0
1 1 1
0 0 0
2 2 2
0 0 0
47 46 45
143 205 230
113 193 225
119 196 226
118 195 226
118 196 227
119 196 227
113 191 223
139 211 240
74 80 82
0 0 0
4 4 4
2 2 2
1 1 1
0 0 0
25 25 25
78 86 89
77 85 88
77 85 88
76 84 87
77 85 88
79 87 91
64 71 73
4 4 3
0 0 0
5 5 5
81 81 81
1 1 1
0 0 0
11 10 9
76 83 85
43 46 46
0 0 0
0 0 0
49 49 49
55 55 55
0 0 0
36 35 35
168 220 240
60 67 69
0 0 0
3 3 3
0 0 0
0 0 0
0 0 0
0 0 0
0 0 0
0 0 0
2 2 2
0 0 0
34 33 32
163 217 240
79 76 62
200 173 142
243 215 183
242 198 128
234 216 211
76 54 17
0 0 0
3 2 1
0 0 0
0 0 0
0 0 0
0 0 0
0 0 0
0 0 0
1 1 1
0 0 0
0 0 0
0 0 0
0 0 0
0 0 0
0 0 0
0 0 0
0 0 0
0 0 0
0 0 0
0 0 0
2 2 2
0 0 0
48 47 46
144 207 233
112 193 226
119 196 227
118 196 227
118 196 227
118 195 226
112 192 223
140 213 242
76 81 84
0 0 0
3 3 3
0 0 0
0 0 0
0 0 0
0 0 0
0 0 0
0 0 0
0 0 0
0 0 0
0 0 0
0 0 0
0 0 0
0 0 0
0 0 0
0 0 0
0 0 0
0 0 0
0 0 0
0 0 0
0 0 0
0 0 0
0 0 0
0 0 0
0 0 0
2 2 2
0 0 0
34 33 33
168 219 240
60 67 69
0 0 0
3 3 3
0 0 0
0 0 0
0 0 0
0 0 0
0 0 0
0 0 0
2 2 2
0 0 0
36 34 32
152 208 235
140 125 93
255 183 59
253 185 70
251 181 68
255 192 65
199 156 85
23 27 35
0 0 0
45 45 46
24 24 24
0 0 0
1 1 1
0 0 0
0 0 0
0 0 0
2 2 3
3 3 4
3 3 4
3 3 4
3 3 4
3 3 4
3 3 4
2 2 2
0 0 0
0 0 0
0 0 0
2 2 2
0 0 0
48 47 47
143 207 232
112 193 225
118 195 226
117 195 226
117 195 227
118 196 227
113 192 224
139 213 242
76 82 84
0 0 0
22 22 22
48 48 48
0 0 0
31 31 30
41 41 41
0 0 0
44 44 45
32 33 33
0 0 0
52 52 52
21 21 22
0 0 0
54 54 54
7 7 7
1 1 1
56 56 56
0 0 0
11 11 11
53 53 53
0 0 0
25 25 25
46 46 46
0 0 0
35 35 35
38 38 38
0 0 0
35 34 34
168 219 240
60 67 69
0 0 0
3 3 3
0 0 0
0 0 0
0 0 0
0 0 0
0 0 0
0 0 0
2 2 2
0 0 0
37 35 32
151 206 234
148 136 97
248 179 60
248 188 75
244 183 72
255 189 69
196 158 83
18 23 29
0 0 0
40 41 41
23 24 24
0 0 0
4 5 5
3 4 4
3 4 4
3 4 4
3 4 4
3 4 4
3 4 4
3 4 4
3 4 4
3 4 4
3 4 4
2 2 2
0 0 0
0 0 0
0 0 0
2 2 2
0 0 0
48 47 47
144 207 232
112 193 225
118 195 226
117 195 226
117 195 226
118 196 226
112 192 223
139 213 242
76 82 84
0 0 0
19 19 19
41 41 41
0 0 0
25 25 25
35 35 35
0 0 0
37 38 38
28 29 29
0 0 0
44 45 45
18 19 19
0 0 0
48 49 49
9 10 10
4 5 5
49 50 50
1 2 2
13 14 14
47 48 48
0 0 0
21 21 21
38 38 38
0 0 0
29 29 29
32 32 32
0 0 0
35 34 34
168 219 239
60 66 69
0 0 0
3 3 3
0 0 0
0 0 0
0 0 0
2 2 2
2 2 2
2 2 2
4 4 4
0 0 0
37 35 34
159 213 237
106 101 83
54 34 4
85 63 27
74 54 21
73 53 21
60 43 17
0 0 0
1 1 0
0 0 0
0 0 0
0 0 0
0 0 0
0 0 0
0 0 0
0 0 0
0 0 0
0 0 0
0 0 0
0 0 0
0 0 0
0 0 0
0 0 0
0 0 0
0 0 0
0 0 0
0 0 0
2 2 2
0 0 0
48 47 46
144 207 232
112 194 226
118 195 226
118 196 227
117 196 227
118 196 227
112 192 223
139 212 242
76 81 84
0 0 0
3 3 3
0 0 0
0 0 0
0 0 0
0 0 0
0 0 0
0 0 0
0 0 0
0 0 0
0 0 0
0 0 0
0 0 0
0 0 0
0 0 0
0 0 0
0 0 0
0 0 0
0 0 0
0 0 0
0 0 0
0 0 0
0 0 0
0 0 0
0 0 0
2 2 2
0 0 0
34 33 33
167 219 239
61 68 70
0 0 0
5 5 5
2 2 2
2 2 2
2 2 2
0 0 0
0 0 0
0 0 0
2 2 2
0 0 0
34 32 31
168 218 237
60 67 70
0 0 0
3 3 3
0 0 0
1 1 1
0 0 0
31 34 35
91 104 109
89 102 107
89 102 107
88 101 106
89 101 106
88 101 106
88 101 106
88 101 106
88 101 106
88 101 106
88 101 106
89 101 106
89 101 106
87 100 105
93 107 112
49 51 51
0 0 0
1 1 1
0 0 0
2 2 2
0 0 0
48 46 46
143 206 230
113 193 225
119 195 226
118 196 226
118 196 226
118 195 226
113 192 223
139 211 240
75 81 83
0 0 0
32 32 32
72 72 72
0 0 0
0 0 0
32 33 33
92 104 109
89 101 106
89 102 107
88 101 106
90 102 108
88 101 107
88 101 106
90 103 108
89 101 106
89 101 106
91 103 108
88 101 106
89 101 106
90 101 106
93 107 112
46 50 52
0 0 0
0 0 0
50 50 50
56 56 56
0 0 0
35 34 34
168 218 238
62 67 69
0 0 0
3 3 3
0 0 0
0 0 0
0 0 0
35 38 40
42 45 47
41 44 46
42 46 48
35 37 39
67 72 75
168 226 249
68 74 76
0 0 0
6 5 4
4 3 1
0 0 0
18 11 8
142 190 209
128 216 251
129 210 242
129 211 244
129 212 244
129 211 244
129 211 244
128 211 244
132 211 243
134 212 243
134 212 243
131 211 242
128 211 244
129 211 244
129 211 243
126 213 247
155 208 230
30 26 24
0 0 0
1 1 1
2 2 2
0 0 0
52 51 50
147 214 241
106 191 225
114 195 227
113 195 227
113 195 227
114 195 228
107 190 223
141 218 249
81 87 89
0 0 0
3 4 4
1 1 1
0 0 0
8 2 0
137 179 195
131 219 254
128 210 242
129 211 244
129 211 244
130 210 242
134 212 243
134 212 244
132 211 242
128 211 244
129 212 244
129 211 244
129 212 245
129 215 248
130 216 247
125 214 248
151 211 234
38 35 34
0 0 0
2 2 2
2 2 2
0 0 0
39 37 36
165 222 245
80 95 101
33 34 34
43 46 48
41 44 46
41 45 46
41 44 46
141 182 198
168 216 236
163 210 229
164 211 230
164 210 228
162 215 236
128 176 194
24 24 24
0 0 0
1 1 1
0 0 0
0 0 0
3 0 0
110 139 151
142 205 230
136 196 220
137 197 221
137 197 221
137 197 221
137 197 221
137 198 222
119 197 227
113 192 223
111 191 222
125 199 229
140 199 222
136 197 221
136 196 220
138 202 228
120 156 170
14 10 9
0 0 0
1 1 1
1 1 1
0 0 0
14 12 11
116 159 176
143 207 232
140 200 223
141 201 225
140 201 225
140 200 224
142 205 230
129 181 201
30 31 32
0 0 0
14 14 14
33 33 33
0 0 0
1 0 0
100 129 140
141 205 230
136 196 219
137 197 221
138 198 221
128 200 229
111 191 223
112 191 222
119 197 228
140 200 224
136 196 220
137 198 222
139 196 221
138 181 207
138 176 202
140 191 218
132 172 187
20 17 16
0 0 0
23 23 23
25 25 25
0 0 0
11 8 6
120 157 172
160 215 237
165 210 228
164 211 230
164 211 230
164 211 230
164 211 230
27 27 27
32 32 32
31 31 31
31 31 31
30 30 31
34 33 33
17 15 15
0 0 0
1 1 1
0 0 0
0 0 0
0 0 0
0 0 0
10 8 7
37 34 32
36 33 32
36 33 32
36 33 32
36 33 32
38 36 35
28 22 19
99 125 135
125 205 237
127 205 236
113 132 140
30 24 21
37 35 34
36 33 32
38 34 33
11 9 9
0 0 0
0 0 0
0 0 0
0 0 0
1 0 0
0 0 0
13 11 11
38 35 34
36 33 32
36 33 32
36 33 32
35 32 31
39 35 34
19 17 17
0 0 0
0 0 0
21 21 21
53 53 53
0 0 0
0 0 0
8 6 5
36 33 31
37 34 33
39 36 35
27 22 21
95 104 107
135 206 235
118 201 234
120 156 170
37 30 28
36 34 33
37 33 32
24 38 30
26 129 115
28 186 160
25 90 79
17 5 6
0 1 1
0 0 0
36 36 36
40 40 40
0 0 0
0 0 0
15 12 11
34 33 33
30 31 31
31 31 31
31 31 31
31 31 31
31 31 31
0 0 0
0 0 0
0 0 0
0 0 0
0 0 0
0 0 0
1 1 1
1 1 1
0 0 0
0 0 0
0 0 0
0 0 0
0 0 0
1 2 2
0 0 0
0 0 0
0 0 0
0 0 0
0 0 0
3 4 4
0 0 0
90 98 101
132 209 240
134 209 239
85 91 93
0 0 0
3 3 4
0 0 0
0 0 0
1 1 1
1 1 1
0 0 0
0 0 0
0 0 0
0 0 0
1 1 1
1 1 1
0 0 0
0 0 0
0 0 0
0 0 0
0 0 0
0 0 0
1 1 1
1 1 1
0 0 0
0 0 0
0 0 0
0 0 0
0 0 0
1 2 2
0 0 0
0 0 0
2 3 3
0 0 0
57 55 55
142 206 232
122 207 240
115 134 141
0 0 0
3 6 6
0 0 0
75 127 136
53 255 238
49 238 233
79 246 226
0 74 62
2 0 0
0 3 2
0 0 0
0 0 0
0 0 0
1 1 1
1 1 1
0 0 0
0 0 0
0 0 0
0 0 0
0 0 0
0 0 0
2 2 2
2 2 2
2 2 2
2 2 2
2 2 2
2 2 2
1 1 1
0 0 0
0 0 0
0 0 0
0 0 0
0 0 0
0 0 0
1 1 1
2 2 2
2 2 2
2 2 2
2 2 2
2 2 2
5 5 6
0 0 0
88 98 102
131 209 240
133 209 239
83 92 95
0 0 0
5 5 6
2 2 2
2 2 2
1 1 1
0 0 0
0 0 0
0 0 0
0 0 0
0 0 0
0 0 0
1 1 1
2 2 2
2 2 2
2 2 2
2 2 2
2 2 2
2 2 2
1 1 1
0 0 0
0 0 0
1 1 1
2 2 2
0 0 0
0 0 0
2 2 2
0 0 0
58 58 58
44 44 44
0 0 0
58 59 59
140 206 232
122 207 240
113 134 142
0 0 0
6 0 0
0 27 23
91 143 226
108 242 226
50 162 224
147 235 242
0 177 154
2 0 0
0 2 2
1 1 1
1 1 1
0 0 0
0 0 0
1 1 1
2 2 2
2 2 2
2 2 2
2 2 2
2 2 2
2 2 2
0 2 2
0 2 2
0 2 2
0 2 2
0 2 2
0 2 2
1 3 3
1 1 1
0 0 0
0 0 0
0 0 0
0 0 0
0 0 0
1 2 2
0 2 3
1 2 2
0 0 0
0 0 0
0 0 0
3 4 4
0 0 0
87 96 100
132 209 240
133 209 239
82 90 93
0 0 0
3 3 4
0 0 0
0 0 0
0 0 0
2 2 2
0 2 2
0 2 2
0 2 2
0 2 2
0 2 2
0 2 2
0 2 2
0 2 2
0 2 2
0 2 2
0 2 2
0 2 2
0 2 2
0 2 2
0 2 2
0 2 2
0 2 2
0 2 2
1 2 3
1 0 0
0 0 0
9 9 9
9 9 9
0 0 0
55 55 55
141 206 232
123 207 241
112 133 141
0 0 0
2 0 0
0 49 47
4 255 239
1 254 231
4 252 232
4 255 245
1 204 192
1 0 0
0 1 1
0 0 0
0 0 0
0 0 0
0 0 0
2 3 3
0 2 2
0 2 2
0 2 2
0 2 2
0 2 2
0 2 2
0 0 0
0 0 0
0 0 0
0 0 0
0 0 0
0 0 0
0 0 0
0 0 0
0 0 0
0 0 0
0 0 0
0 0 0
0 0 0
0 0 0
0 0 0
0 0 0
0 0 0
0 0 0
0 0 0
3 4 4
0 0 0
87 97 100
131 209 239
133 209 239
83 90 93
0 0 0
3 3 4
0 0 0
0 0 0
0 0 0
0 0 0
0 0 0
0 0 0
0 0 0
0 0 0
0 0 0
0 0 0
0 0 0
0 0 0
0 0 0
0 0 0
0 0 0
0 0 0
0 0 0
0 0 0
0 0 0
0 0 0
0 0 0
0 0 0
0 0 0
0 0 0
0 0 0
14 14 14
12 12 12
0 0 0
55 55 55
141 206 232
123 207 241
112 132 141
0 0 0
2 0 0
0 49 43
0 145 127
1 170 148
0 142 124
0 155 132
0 119 101
0 5 4
0 0 0
0 0 0
0 0 0
0 0 0
0 0 0
0 0 0
0 0 0
0 0 0
0 0 0
0 0 0
0 0 0
0 0 0
101 132 144
125 158 171
120 152 164
121 152 165
120 151 164
124 158 171
101 120 127
7 6 5
0 0 0
1 1 1
0 0 0
1 2 2
0 0 0
54 69 74
130 165 179
48 56 60
0 0 0
1 2 2
0 0 0
3 3 4
0 0 0
86 96 100
130 206 237
132 206 236
82 90 93
0 0 0
3 3 4
0 0 0
1 2 2
0 0 0
59 66 70
126 158 170
120 151 164
121 152 165
121 152 165
121 152 165
121 152 164
121 152 164
122 153 166
121 154 167
121 154 167
122 154 166
121 152 165
121 152 165
121 152 165
121 152 165
121 152 165
120 151 163
126 159 172
62 78 84
0 0 0
0 0 0
55 55 55
41 41 42
0 0 0
56 56 56
139 204 230
121 204 238
111 132 140
0 0 0
2 3 3
0 2 2
2 3 3
0 0 0
38 37 38
128 148 163
78 93 102
0 0 0
0 0 0
0 0 0
0 0 0
0 0 1
0 0 0
74 90 97
126 159 172
120 151 163
121 152 165
121 152 164
122 154 166
119 153 167
124 183 206
122 211 246
122 211 247
124 213 249
125 214 249
117 209 246
159 234 255
67 69 69
0 0 0
3 3 3
1 1 1
0 0 0
19 13 11
144 194 214
123 218 255
136 175 190
5 0 0
0 0 1
0 0 0
3 4 4
0 0 0
91 99 103
137 219 251
139 219 251
86 93 95
0 0 0
3 4 4
0 0 0
0 0 0
7 0 0
146 190 206
127 222 255
123 211 246
123 213 248
123 213 248
123 213 248
123 213 248
123 213 248
120 207 242
122 206 239
122 206 239
120 206 240
123 212 248
124 213 248
123 213 248
124 213 249
123 213 249
123 212 247
120 215 252
151 212 235
27 22 20
0 0 0
1 1 1
2 3 3
0 0 0
56 56 56
147 216 243
126 217 252
118 138 146
0 0 0
2 3 4
0 0 0
2 5 6
0 0 0
123 148 157
128 221 255
149 213 239
45 41 40
0 0 0
2 2 2
2 2 2
0 0 0
37 33 31
156 220 245
118 212 250
124 212 248
124 213 248
124 213 249
118 206 241
138 210 239
141 179 195
125 198 227
134 171 186
128 167 183
127 166 181
133 174 191
103 130 141
12 11 10
0 0 0
1 1 1
1 1 1
0 0 0
22 17 15
141 190 209
113 201 236
136 173 188
7 1 0
0 0 0
0 0 0
1 1 1
0 0 0
24 23 23
126 158 171
114 147 161
19 18 18
0 0 0
1 1 1
0 0 0
1 1 2
0 0 0
54 69 75
131 171 188
128 166 182
128 167 182
128 167 183
128 167 183
127 167 182
130 167 181
132 190 213
116 194 226
114 193 225
128 193 219
133 170 185
127 166 182
128 167 183
128 167 183
128 167 183
127 165 180
133 174 191
73 95 103
0 0 0
0 0 0
49 49 49
36 36 36
0 0 0
9 6 5
110 133 142
128 167 183
37 40 41
0 0 0
1 2 2
0 0 0
1 3 3
0 0 0
119 144 154
118 203 237
141 202 226
46 45 44
0 0 0
2 2 2
0 0 0
0 0 1
0 0 0
79 103 112
133 175 191
127 165 180
128 167 183
130 166 181
121 188 214
152 206 227
150 194 211
113 143 155
0 0 0
3 2 3
5 0 0
3 0 0
2 0 0
0 0 0
0 0 0
0 0 0
1 1 1
0 0 0
21 16 14
141 190 209
115 204 240
135 173 188
7 1 0
0 0 0
0 0 0
0 0 0
0 0 0
0 0 0
3 0 0
3 0 0
0 0 0
0 0 0
0 0 0
0 0 0
0 0 0
0 0 0
0 0 0
5 0 0
5 0 0
5 0 0
5 0 0
5 0 0
7 3 3
0 0 0
81 87 89
134 208 238
125 206 239
105 121 128
0 0 0
7 3 3
5 0 0
5 0 0
5 0 0
5 0 0
5 0 0
1 0 0
1 1 1
0 0 0
24 24 24
17 17 17
0 0 0
0 1 1
2 0 0
4 0 0
0 0 0
0 0 0
0 0 0
0 0 0
1 3 3
0 0 0
119 144 153
119 206 240
142 203 228
46 44 43
0 0 0
2 2 2
0 0 0
0 0 0
0 0 0
1 0 0
5 0 0
5 0 0
8 3 4
0 0 0
91 107 114
169 223 244
155 197 214
109 133 142
0 0 0
173 176 177
228 229 230
80 81 81
0 0 0
12 12 12
0 0 0
4 4 4
8 8 8
0 0 0
22 17 15
142 190 209
115 203 239
136 173 188
7 1 0
0 0 0
0 0 0
0 0 0
0 0 0
10 10 10
1 2 2
2 2 2
10 10 10
0 0 0
0 0 0
0 0 0
0 0 0
0 0 0
1 2 2
0 0 0
0 0 0
0 0 0
0 0 0
0 0 0
3 3 3
0 0 0
73 76 77
137 209 237
127 208 240
99 112 117
0 0 0
3 4 4
0 0 0
0 0 0
0 0 0
0 0 0
0 0 0
1 2 2
0 0 0
0 0 0
0 0 0
0 0 0
0 0 0
1 1 1
1 2 2
1 1 1
2 2 2
0 0 0
0 0 0
0 0 0
1 3 3
0 0 0
120 144 154
119 206 240
142 203 228
46 44 43
0 0 0
2 2 2
0 0 0
0 0 0
0 0 0
1 2 2
0 0 0
0 0 0
3 4 4
0 0 0
81 94 99
173 224 245
155 198 215
101 127 137
30 24 22
246 247 247
255 255 255
125 125 125
0 0 0
79 79 79
0 0 0
36 36 36
66 66 66
0 0 0
25 20 18
141 190 209
114 203 239
135 173 188
7 1 0
0 0 0
0 0 0
0 0 0
0 0 0
79 79 79
5 5 5
9 9 9
79 79 79
0 0 0
2 2 2
1 1 1
1 1 1
1 1 1
1 1 1
1 1 1
0 0 0
0 0 0
0 0 0
0 0 0
3 3 3
0 0 0
72 76 78
136 208 237
128 208 240
99 113 118
0 0 0
3 4 4
0 0 0
0 0 0
0 0 0
0 0 0
1 1 1
1 1 1
1 1 1
1 1 1
2 2 2
2 2 2
1 1 1
1 1 1
1 1 1
1 1 1
0 0 0
0 0 0
0 0 0
2 2 2
1 3 3
0 0 0
120 144 154
120 206 240
142 203 227
47 45 45
0 0 0
3 3 3
1 1 1
1 1 1
0 0 0
0 0 0
0 0 0
0 0 0
3 3 4
0 0 0
80 94 100
173 224 245
154 196 213
110 136 146
0 0 0
61 62 63
90 90 90
20 20 20
0 0 0
1 1 2
0 0 0
0 0 0
1 1 1
0 0 0
23 17 14
144 191 209
114 204 239
136 174 189
7 1 0
0 0 0
0 0 0
0 0 0
0 0 0
0 0 1
0 1 1
0 0 0
0 0 0
0 0 0
0 0 0
0 0 0
0 0 0
0 0 0
0 0 0
0 0 0
1 1 1
0 0 0
0 0 0
0 0 0
3 3 3
0 0 0
72 76 77
137 208 237
128 208 240
99 112 118
0 0 0
3 4 4
0 0 0
0 0 0
0 0 0
1 2 2
0 0 0
0 0 0
0 0 0
0 0 0
0 0 0
0 0 0
0 0 0
0 0 0
0 0 0
0 0 0
1 1 2
0 0 0
0 0 0
0 0 0
1 3 3
0 0 0
119 144 154
119 206 240
144 204 228
48 45 44
0 0 0
2 2 2
0 0 0
0 0 0
1 1 2
0 0 0
0 0 0
0 0 0
3 3 4
0 0 0
80 93 99
173 225 245
154 196 213
110 135 145
0 0 0
5 6 7
40 40 40
0 0 0
0 0 0
1 0 0
20 15 13
25 20 18
25 21 19
19 13 11
44 43 42
136 194 217
116 203 238
136 173 189
7 1 0
0 0 0
0 0 0
0 0 0
0 0 0
0 0 0
14 10 9
26 20 18
24 19 17
24 19 17
24 19 17
24 19 17
24 19 17
24 19 17
24 19 17
24 19 17
5 2 2
0 0 0
0 0 0
0 0 0
3 3 3
0 0 0
71 75 76
136 208 236
128 209 241
98 111 117
0 0 0
3 4 4
0 0 0
0 0 0
0 0 0
1 0 0
21 16 15
25 20 18
24 19 17
24 19 17
24 19 17
24 19 17
24 19 17
24 19 17
25 20 18
19 14 12
0 0 0
0 0 0
3 3 3
51 51 51
2 3 3
0 0 0
119 144 153
121 206 239
135 203 230
65 70 72
16 9 6
25 21 19
24 19 17
23 18 16
3 1 1
0 0 0
0 0 0
0 0 0
3 3 4
0 0 0
80 93 99
173 224 245
154 196 213
110 135 145
0 0 0
9 10 10
53 53 53
3 3 4
0 0 0
72 82 85
143 194 214
134 188 209
136 189 210
137 188 209
128 192 217
113 192 223
115 198 231
135 175 191
8 2 0
0 0 0
0 0 0
2 2 2
0 0 0
40 41 42
131 176 194
136 191 213
135 188 209
136 189 210
136 189 210
135 189 210
136 189 210
135 188 210
135 187 208
141 197 219
96 119 128
0 0 0
0 1 1
0 0 0
3 3 3
0 0 0
74 78 80
135 207 236
124 204 237
99 114 120
0 0 0
3 4 4
0 0 0
1 2 2
0 0 0
68 84 90
138 193 214
136 188 209
135 189 210
136 189 210
136 189 210
136 189 210
136 189 210
136 189 210
135 189 210
142 191 211
63 69 72
0 0 0
5 5 5
49 49 49
2 3 3
0 0 0
120 146 156
122 204 237
111 190 221
127 193 220
137 188 209
136 189 210
135 187 209
142 197 218
85 103 111
0 0 0
1 2 2
0 0 0
3 3 4
0 0 0
80 93 99
173 224 245
154 197 213
109 135 145
0 0 0
2 3 4
0 0 0
2 3 3
0 0 0
123 147 156
138 227 255
124 209 243
126 212 246
126 212 246
127 211 244
129 208 240
133 219 254
135 169 183
2 0 0
0 0 1
0 0 0
3 3 4
0 0 0
81 89 92
148 229 255
121 208 243
127 213 247
126 212 246
126 213 247
126 212 247
126 213 247
127 212 247
126 211 245
126 218 254
142 190 209
12 7 4
0 0 0
1 1 1
2 3 3
0 0 0
60 62 63
145 216 244
144 225 255
92 102 106
0 0 0
3 3 4
0 0 0
1 2 2
0 0 0
134 165 177
134 225 255
125 210 243
126 212 246
126 212 246
126 213 247
126 212 246
127 212 246
127 213 247
122 208 243
143 230 255
114 132 139
0 0 0
3 3 4
0 0 0
2 3 3
0 0 0
114 136 145
140 224 255
128 208 240
128 211 244
126 212 246
126 212 246
126 210 244
129 221 255
141 180 195
4 0 0
0 0 1
0 0 0
3 3 4
0 0 0
80 94 99
173 224 245
154 196 213
110 135 145
0 0 0
8 9 10
82 82 82
1 1 1
0 0 0
19 20 20
95 112 118
103 122 130
102 120 127
101 120 127
101 120 128
102 121 129
101 120 128
32 35 36
0 0 0
1 1 1
0 0 0
0 0 0
0 0 0
0 0 0
77 90 96
105 125 133
100 119 126
102 120 127
101 120 127
101 120 127
101 120 127
101 120 127
100 119 126
104 123 131
34 39 41
0 0 0
1 1 2
0 0 0
0 0 0
0 0 0
0 0 0
79 91 96
96 111 117
11 10 9
0 0 0
1 1 1
0 0 0
1 1 1
0 0 0
24 26 26
99 117 124
102 121 128
101 119 127
102 120 127
101 120 127
101 120 127
101 120 127
101 119 126
102 122 129
97 112 117
18 17 17
0 0 0
6 6 6
81 81 81
2 2 2
0 0 0
22 23 23
99 115 122
102 121 129
101 120 127
101 120 127
101 119 127
101 120 127
102 121 128
32 34 35
0 0 0
1 1 1
0 0 0
3 3 4
0 0 0
80 93 99
172 224 244
154 197 213
110 135 145
0 0 0
2 3 4
0 0 0
0 0 0
0 0 0
0 0 0
0 0 0
0 0 0
0 0 0
0 0 0
0 0 0
0 0 0
0 0 0
0 0 0
0 0 0
0 0 0
0 0 0
0 0 0
0 0 0
0 0 0
0 0 0
0 0 0
0 0 0
0 0 0
0 0 0
0 0 0
0 0 0
0 0 0
0 0 0
0 0 0
0 0 0
0 0 0
0 0 0
0 0 0
0 0 0
0 0 0
0 0 0
0 0 0
0 0 0
0 0 0
0 0 0
0 0 0
0 0 0
0 0 0
0 0 0
0 0 0
0 0 0
0 0 0
0 0 0
0 0 0
0 0 0
0 0 0
0 0 0
0 0 0
0 0 0
0 0 0
0 0 0
0 0 0
0 0 0
7 7 7
0 0 0
0 0 0
0 0 0
0 0 0
0 0 0
0 0 0
0 0 0
0 0 0
0 0 0
0 0 0
0 0 0
0 0 0
0 0 0
0 0 0
3 4 4
0 0 0
80 94 99
173 225 245
153 196 212
109 134 144
0 0 0
5 6 6
34 34 34
0 0 0
8 8 8
35 35 35
0 0 0
18 19 20
32 33 33
0 0 0
25 26 27
26 27 28
0 0 0
30 30 31
16 15 15
0 0 0
1 1 1
0 0 0
0 0 0
0 0 0
2 3 4
2 3 4
2 3 4
2 3 4
2 3 4
2 3 4
2 3 4
2 3 4
2 3 4
2 3 4
1 2 2
0 0 0
0 0 0
0 0 0
0 0 0
0 0 0
0 0 0
2 3 4
2 3 4
1 1 1
0 0 0
0 0 0
0 0 0
0 0 0
0 0 0
1 1 2
2 3 4
2 3 4
2 3 4
2 3 4
2 3 4
2 3 4
2 3 4
2 3 4
2 3 4
2 3 4
1 1 1
0 0 0
0 0 0
0 0 0
0 0 0
0 0 0
1 1 1
2 3 4
2 3 4
2 3 4
2 3 4
2 3 4
2 3 4
2 3 4
1 2 2
0 0 0
0 0 0
0 0 0
3 4 4
0 0 0
80 94 99
173 225 245
153 195 212
110 136 146
0 0 0
10 11 11
66 66 67
0 0 0
18 18 18
63 63 63
0 0 0
31 31 31
55 55 55
0 0 0
43 44 44
44 45 45
0 0 0
54 55 55
31 31 31
0 0 0
4 4 4
3 3 3
3 3 3
3 3 3
3 3 3
3 3 3
3 3 3
3 3 3
3 3 3
3 3 3
3 3 3
3 3 3
3 3 3
3 3 3
3 3 3
3 3 3
3 3 3
3 3 3
3 3 3
3 3 3
3 3 3
3 3 3
3 3 3
3 3 3
3 3 3
3 3 3
3 3 3
3 3 3
3 3 3
3 3 3
3 3 3
3 3 3
3 3 3
3 3 3
3 3 3
3 3 3
3 3 3
3 3 3
3 3 3
3 3 3
3 3 3
3 3 3
3 3 3
3 3 3
3 3 3
3 3 3
3 3 3
3 3 3
3 3 3
3 3 3
3 3 3
3 3 3
3 3 3
3 3 3
3 3 3
3 3 3
3 3 3
3 3 3
6 6 7
0 0 0
80 95 101
172 223 244
156 200 217
111 134 143
0 0 0
2 3 4
0 0 0
0 0 0
0 0 0
0 0 0
0 0 0
0 0 0
0 0 0
0 0 0
0 0 0
0 0 0
0 0 0
0 0 0
0 0 0
0 0 0
0 0 0
0 0 0
0 0 0
0 0 0
0 0 0
0 0 0
0 0 0
0 0 0
0 0 0
0 0 0
0 0 0
0 0 0
0 0 0
0 0 0
0 0 0
0 0 0
0 0 0
0 0 0
0 0 0
0 0 0
0 0 0
0 0 0
0 0 0
0 0 0
0 0 0
0 0 0
0 0 0
0 0 0
0 0 0
0 0 0
0 0 0
0 0 0
0 0 0
0 0 0
0 0 0
0 0 0
0 0 0
0 0 0
0 0 0
0 0 0
0 0 0
0 0 0
0 0 0
0 0 0
0 0 0
0 0 0
0 0 0
0 0 0
0 0 0
0 0 0
0 0 0
0 0 0
0 0 0
0 0 0
0 0 0
0 0 0
0 0 0
0 0 0
3 4 4
0 0 0
82 93 98
175 227 248
136 171 185
124 175 196
53 58 60
59 67 70
60 68 71
57 66 69
58 66 70
59 68 71
58 66 69
59 67 70
59 68 71
57 65 68
59 67 70
59 68 71
57 65 68
59 68 71
58 67 70
57 66 69
57 66 69
57 66 69
58 66 69
58 66 69
57 66 69
58 66 69
58 66 69
58 66 69
58 66 69
58 66 69
58 66 69
58 66 69
57 66 69
58 66 69
57 66 69
58 66 69
57 66 69
57 66 69
58 66 69
58 66 69
58 66 69
58 66 69
58 66 69
57 66 69
58 66 69
58 66 69
58 66 69
58 66 69
57 66 69
57 66 69
58 66 69
58 66 69
57 66 69
58 66 69
58 66 69
58 66 69
57 66 69
58 66 69
58 66 69
57 66 69
58 66 69
57 66 69
58 66 69
58 66 69
58 66 69
58 66 69
58 66 69
58 66 69
57 66 69
58 66 69
57 66 69
57 66 69
58 66 69
57 66 69
58 66 69
57 66 69
58 66 69
58 66 69
59 68 71
50 55 57
115 154 169
155 204 224
36 37 38
141 183 200
175 226 247
171 220 238
171 220 240
171 221 240
172 221 240
171 220 240
172 221 240
171 221 240
171 220 240
171 220 240
171 221 240
172 221 240
172 221 240
171 220 240
171 220 240
171 220 240
171 220 240
171 221 240
171 220 240
172 220 240
171 221 240
171 220 240
171 220 240
171 221 240
172 221 240
172 221 240
171 221 240
171 220 240
171 220 240
171 220 240
171 221 240
171 221 240
171 221 240
171 220 240
171 221 240
172 221 240
171 220 240
171 221 240
171 220 240
171 221 240
172 221 240
172 221 240
172 221 240
172 221 240
171 220 240
172 221 240
171 221 240
171 220 240
172 221 240
171 220 240
171 221 240
172 221 240
171 220 240
172 221 240
172 221 240
171 220 240
171 220 240
171 220 240
171 220 240
172 221 240
171 220 240
172 221 240
171 220 240
171 220 240
172 221 240
172 221 240
172 221 240
172 220 240
171 220 240
171 221 240
172 221 240
172 221 240
171 220 240
171 220 240
171 219 239
174 224 244
154 201 219
65 71 73
