20 3 2
166 92 76
238 139 116
228 129 108
230 131 109
230 131 109
230 131 109
230 131 109
230 131 109
230 131 109
230 131 109
230 131 109
230 131 109
230 131 109
230 131 109
230 131 109
230 131 109
230 131 109
230 131 109
230 131 109
231 132 110
221 137 115
211 127 106
211 127 106
222 136 114
231 132 110
230 131 109
230 131 109
230 131 109
230 131 109
230 131 109
230 131 109
230 131 109
230 131 109
230 131 109
230 131 109
230 131 109
230 131 109
230 131 109
230 131 109
230 131 109
230 131 109
230 131 109
230 131 109
230 131 109
230 131 109
230 131 109
230 131 109
230 131 109
230 131 109
230 131 109
230 131 109
230 131 109
230 131 109
231 131 109
225 136 114
211 128 107
211 126 105
218 135 113
231 133 111
230 130 108
230 131 109
230 131 109
230 131 109
230 131 109
230 131 109
230 131 109
230 131 109
230 131 109
230 131 109
230 131 109
230 131 109
230 131 109
230 131 109
230 131 109
230 131 109
228 130 108
236 136 113
197 110 91
42 14 11
173 93 77
231 162 137
113 55 45
115 58 48
117 60 50
115 58 48
115 58 48
117 60 49
115 58 47
116 59 49
117 60 49
114 58 47
116 59 49
116 59 49
114 58 47
117 59 49
116 59 48
115 58 48
117 60 49
117 59 49
107 53 43
200 136 115
255 211 181
255 213 183
191 137 116
107 51 42
117 60 49
117 60 49
115 58 47
116 59 48
116 59 49
114 58 48
116 59 49
116 59 49
115 58 47
117 59 49
116 59 48
115 58 47
117 60 49
115 58 48
115 58 48
117 60 49
115 58 48
115 58 48
117 60 49
115 58 47
116 59 49
117 60 49
115 58 48
116 59 48
116 59 49
114 58 47
116 59 48
118 61 50
106 50 41
168 114 96
255 209 180
255 212 183
217 160 137
112 58 48
116 58 47
117 60 50
115 58 48
115 58 48
117 60 49
115 58 47
116 59 48
117 60 49
114 58 47
116 59 49
116 59 49
114 58 47
117 59 49
116 59 48
115 58 47
117 60 49
117 60 49
105 50 40
202 146 125
223 129 108
233 134 111
151 80 67
0 0 0
4 3 2
0 0 0
0 0 0
0 0 0
0 0 0
0 0 0
0 0 0
0 0 0
0 0 0
0 0 0
0 0 0
0 0 0
0 0 0
0 0 0
0 0 0
0 0 0
4 2 1
0 0 0
104 37 29
255 197 168
255 194 166
96 35 27
0 0 0
4 2 1
0 0 0
0 0 0
0 0 0
0 0 0
0 0 0
0 0 0
0 0 0
0 0 0
0 0 0
0 0 0
0 0 0
0 0 0
0 0 0
0 0 0
0 0 0
0 0 0
0 0 0
0 0 0
0 0 0
0 0 0
0 0 0
0 0 0
0 0 0
0 0 0
0 0 0
0 0 0
3 1 1
0 0 0
56 12 8
248 174 147
255 211 181
147 67 55
0 0 0
4 3 2
0 0 0
0 0 0
0 0 0
0 0 0
0 0 0
0 0 0
0 0 0
0 0 0
0 0 0
0 0 0
0 0 0
0 0 0
0 0 0
0 0 0
0 0 0
4 2 1
0 0 0
102 47 38
255 158 131
224 127 106
154 82 67
0 0 0
14 11 11
55 53 53
3 1 1
15 13 13
49 47 47
0 0 0
25 23 23
43 41 41
0 0 0
35 33 33
35 33 33
0 0 0
43 41 41
26 24 24
0 0 0
49 47 47
20 16 15
0 0 0
106 43 34
255 200 171
255 196 168
99 38 30
0 0 0
21 17 17
48 46 46
0 0 0
28 26 26
41 39 39
0 0 0
37 35 35
33 31 31
0 0 0
45 43 43
23 21 21
0 0 0
50 48 48
13 11 11
3 1 1
52 50 50
4 2 2
11 9 9
51 49 49
0 0 0
21 19 19
46 44 44
0 0 0
31 29 29
39 37 37
0 0 0
40 38 38
31 28 27
0 0 0
60 16 12
249 176 149
255 213 183
149 73 59
0 0 0
11 7 7
52 50 50
2 0 0
14 12 12
50 48 48
0 0 0
24 22 22
44 42 42
0 0 0
34 32 32
36 34 34
0 0 0
42 40 40
27 25 25
0 0 0
52 50 50
23 19 19
0 0 0
106 50 41
255 152 126
226 129 107
153 81 67
0 0 0
7 6 5
43 43 43
0 0 0
12 12 12
50 50 50
0 0 0
27 25 24
47 45 45
0 0 0
38 36 35
39 37 36
0 0 0
44 43 43
24 24 24
0 0 0
50 50 50
17 15 15
0 0 0
105 41 33
255 200 171
255 197 168
98 37 29
0 0 0
19 17 17
49 49 49
0 0 0
26 26 26
42 41 41
0 0 0
41 39 38
36 34 33
0 0 0
49 47 47
25 23 22
0 0 0
55 53 52
14 12 11
3 1 0
57 55 54
4 2 1
12 10 9
55 53 53
0 0 0
23 21 20
50 48 48
0 0 0
31 30 30
38 38 38
0 0 0
40 40 40
30 29 28
0 0 0
57 14 10
249 176 149
255 213 183
148 71 58
0 0 0
7 6 5
53 53 53
0 0 0
11 11 11
51 50 50
0 0 0
26 24 23
48 46 46
0 0 0
37 35 34
40 38 37
0 0 0
43 42 42
25 25 25
0 0 0
40 40 40
15 13 13
0 0 0
104 49 40
255 153 128
226 129 107
153 80 66
0 0 0
130 129 129
173 173 173
56 56 56
0 0 0
2 2 2
0 0 0
0 0 0
0 0 0
0 0 0
0 0 0
0 0 0
0 0 0
0 0 0
0 0 0
0 0 0
0 0 0
4 2 2
0 0 0
105 41 32
255 200 171
255 197 168
97 36 28
0 0 0
4 2 1
0 0 0
0 0 0
0 0 0
0 0 0
0 0 0
0 0 0
0 0 0
0 0 0
0 0 0
0 0 0
0 0 0
0 0 0
0 0 0
0 0 0
0 0 0
0 0 0
0 0 0
0 0 0
0 0 0
0 0 0
0 0 0
0 0 0
0 0 0
0 0 0
0 0 0
0 0 0
3 1 1
0 0 0
56 13 9
249 176 149
255 213 183
148 71 58
0 0 0
4 3 2
0 0 0
0 0 0
0 0 0
0 0 0
0 0 0
0 0 0
0 0 0
0 0 0
0 0 0
0 0 0
0 0 0
2 2 2
0 0 0
87 87 87
180 180 180
99 97 97
0 0 0
106 51 41
255 153 127
228 131 109
144 71 57
25 30 32
252 250 250
255 255 255
133 133 133
0 0 0
11 7 7
84 33 26
98 39 31
96 38 31
95 36 28
96 38 30
97 38 30
93 36 29
16 7 6
0 1 1
0 0 0
76 76 76
24 22 22
0 0 0
104 41 32
255 198 169
255 195 167
96 36 28
0 0 0
27 25 25
74 74 74
0 0 0
0 1 2
24 7 6
96 36 28
96 39 31
96 38 30
95 37 29
96 39 31
96 38 30
95 37 29
97 39 31
95 37 29
95 37 29
97 39 31
95 37 29
95 37 29
97 39 31
95 37 29
95 38 30
95 38 30
99 39 30
33 12 10
0 1 1
0 0 0
59 59 59
45 43 43
0 0 0
57 14 10
248 174 148
255 212 182
146 70 57
0 0 0
9 8 7
82 81 81
1 1 1
0 0 0
6 3 3
84 33 26
98 39 31
96 39 31
95 36 28
96 38 30
96 38 30
95 37 29
17 6 5
0 2 3
209 208 208
255 255 255
201 199 198
0 0 0
105 50 41
255 153 128
226 129 107
153 81 67
0 0 0
102 101 101
144 144 144
44 43 43
0 0 0
145 75 62
255 212 181
252 202 173
255 204 174
255 204 175
255 204 175
252 201 173
255 216 186
180 107 89
0 0 0
1 2 2
3 2 2
5 3 2
0 0 0
111 44 35
255 207 178
255 204 175
103 39 30
0 0 0
5 2 2
3 2 2
1 2 2
0 0 0
188 112 93
255 216 185
252 201 172
255 204 174
255 204 175
255 204 175
255 204 175
255 204 175
255 204 174
255 204 174
255 204 175
255 204 175
255 204 174
255 204 175
255 204 175
255 204 175
255 204 174
253 202 173
255 214 184
221 143 120
14 0 0
0 1 1
3 2 2
4 2 2
0 0 0
61 15 10
255 183 156
255 220 189
156 75 61
0 0 0
4 3 2
2 2 2
3 3 2
0 0 0
139 73 60
255 213 182
252 202 173
255 204 174
255 204 174
255 204 175
252 201 172
255 217 185
185 112 94
0 0 0
65 66 66
150 150 150
77 75 75
0 0 0
106 50 41
255 153 128
226 129 107
153 81 67
0 0 0
5 4 3
19 19 19
3 2 1
0 0 0
108 55 45
251 178 151
244 174 147
245 175 148
245 175 148
245 175 148
243 173 146
254 184 156
148 81 66
0 0 0
0 0 0
27 27 27
10 8 8
0 0 0
52 19 15
241 163 138
236 156 131
50 14 10
0 0 0
11 9 9
26 26 26
0 0 0
0 0 0
158 84 69
255 183 155
243 173 146
245 174 148
245 175 148
245 175 148
245 175 148
245 175 148
245 175 148
245 175 148
245 174 148
245 175 148
245 175 148
245 175 148
245 175 148
245 175 148
245 175 148
243 173 146
253 184 156
183 117 98
6 0 0
0 0 0
22 21 21
16 15 15
0 0 0
20 2 1
207 137 116
255 182 155
84 41 34
0 0 0
5 3 3
29 29 29
3 2 2
0 0 0
105 52 42
250 178 150
244 175 148
245 175 148
245 175 148
245 175 148
243 173 146
255 183 155
150 84 70
0 0 0
0 0 0
18 18 18
9 7 6
0 0 0
104 49 39
255 153 127
226 129 107
153 81 67
0 0 0
12 11 11
72 72 72
2 2 2
0 0 0
1 1 1
38 7 4
47 10 7
46 10 7
45 9 5
46 10 7
47 10 7
42 8 5
5 1 1
1 2 2
0 0 0
63 63 63
17 17 17
0 0 0
0 1 1
33 6 4
29 6 4
0 1 1
0 0 0
20 20 20
62 62 62
0 0 0
1 2 2
8 1 1
44 8 5
46 10 7
46 10 7
45 9 5
46 10 7
46 10 7
45 9 6
47 11 7
45 9 6
45 9 5
47 11 8
45 9 6
45 9 6
47 11 8
45 9 5
46 10 6
46 10 7
46 9 6
12 2 2
0 2 2
0 0 0
50 50 50
36 36 36
0 0 0
0 1 2
21 4 3
38 7 5
0 1 1
0 0 0
4 4 4
68 68 68
1 1 1
0 0 0
1 1 1
37 7 4
47 10 7
46 10 7
45 9 6
46 10 7
46 10 7
44 8 5
8 1 1
0 2 2
0 0 0
67 67 67
25 23 23
0 0 0
104 49 40
255 153 128
226 129 107
153 81 67
0 0 0
4 3 2
0 0 0
0 0 0
0 0 0
0 1 1
0 0 0
0 0 0
0 0 0
0 0 0
0 0 0
0 0 0
0 0 0
1 1 1
0 0 0
0 0 0
0 0 0
0 0 0
0 0 0
0 0 0
0 1 1
0 1 0
0 0 0
0 0 0
0 0 0
0 0 0
0 0 0
0 0 0
1 1 1
0 0 0
0 0 0
0 0 0
0 0 0
0 0 0
0 0 0
0 0 0
0 0 0
0 0 0
0 0 0
0 0 0
0 0 0
0 0 0
0 0 0
0 0 0
0 0 0
0 0 0
0 0 0
1 1 1
0 0 0
0 0 0
0 0 0
0 0 0
0 0 0
0 0 0
0 1 1
0 0 0
0 1 1
0 0 0
0 0 0
0 0 0
0 0 0
0 0 0
0 1 1
0 0 0
0 0 0
0 0 0
0 0 0
0 0 0
0 0 0
0 0 0
1 1 1
0 0 0
0 0 0
0 0 0
4 2 1
0 0 0
104 48 39
255 153 127
226 129 107
153 81 67
0 0 0
9 8 8
74 74 74
0 0 0
17 17 17
68 68 68
0 0 0
34 33 33
62 61 61
0 0 0
48 47 47
50 48 48
0 0 0
59 59 59
33 33 33
0 0 0
70 70 70
19 19 19
0 0 0
72 72 72
6 5 5
8 8 8
72 71 71
0 0 0
22 22 22
68 68 68
0 0 0
36 36 36
57 56 56
0 0 0
52 51 51
45 44 44
0 0 0
64 63 63
31 30 30
0 0 0
72 70 70
16 15 15
0 0 0
75 73 73
2 1 1
13 12 12
73 72 72
0 0 0
28 27 27
66 64 64
0 0 0
41 41 41
53 53 53
0 0 0
56 56 56
40 40 40
0 0 0
65 64 64
25 25 24
0 0 0
71 71 71
9 9 9
2 2 2
75 75 75
0 0 0
15 15 15
69 69 69
0 0 0
32 31 31
63 62 62
0 0 0
47 46 46
51 50 50
0 0 0
58 57 57
34 35 35
0 0 0
69 69 69
24 22 21
0 0 0
105 49 40
255 153 128
224 127 106
153 80 66
0 0 0
9 7 6
27 26 26
2 2 1
9 8 7
23 23 23
0 0 0
9 9 9
16 16 16
0 0 0
15 15 15
18 17 17
0 0 0
21 21 21
11 11 11
0 0 0
19 19 19
5 5 5
0 0 0
25 24 24
5 4 3
5 5 4
27 26 26
1 1 0
10 10 9
25 25 24
0 0 0
15 15 14
22 21 21
0 0 0
19 18 18
14 14 14
0 0 0
17 17 17
8 8 8
0 0 0
24 23 23
8 7 6
3 2 1
25 24 24
0 0 0
3 3 3
19 19 19
0 0 0
8 8 8
23 22 22
0 0 0
17 16 16
21 20 20
0 0 0
21 21 20
16 16 15
0 0 0
25 24 24
11 11 10
0 0 0
25 24 24
3 3 3
0 0 0
20 20 20
0 0 0
5 5 5
24 24 24
0 0 0
13 12 12
20 20 20
0 0 0
12 12 12
14 14 14
0 0 0
19 19 19
14 13 13
0 0 0
25 25 24
13 11 10
0 0 0
105 49 40
255 151 126
232 135 112
153 86 71
0 0 0
4 3 2
0 0 0
0 0 0
0 0 0
0 0 0
0 0 0
4 4 4
9 9 9
0 0 0
0 0 0
0 0 0
0 0 0
0 0 0
0 0 0
0 0 0
10 10 10
3 3 3
0 0 0
0 0 0
0 0 0
0 0 0
0 0 0
0 0 0
0 0 0
0 0 0
0 0 0
0 0 0
0 0 0
0 0 0
0 0 0
0 0 0
0 0 0
9 9 9
4 4 4
0 0 0
0 0 0
0 0 0
0 0 0
0 0 0
0 0 0
2 2 2
10 10 10
0 0 0
0 0 0
0 0 0
0 0 0
0 0 0
0 0 0
0 0 0
0 0 0
0 0 0
0 0 0
0 0 0
0 0 0
0 0 0
0 0 0
0 0 0
1 1 1
11 11 11
0 0 0
0 0 0
0 0 0
0 0 0
0 0 0
0 0 0
0 0 0
6 6 6
7 7 7
0 0 0
0 0 0
0 0 0
0 0 0
0 0 0
4 2 2
0 0 0
104 52 43
255 160 134
142 73 59
250 171 145
176 98 81
178 98 81
178 98 81
183 103 86
115 64 53
3 0 0
0 0 0
34 34 34
64 64 64
0 0 0
0 0 0
73 33 26
173 91 75
53 25 20
0 0 0
0 0 0
73 73 73
20 20 20
0 0 0
6 3 3
129 71 59
167 90 75
160 87 72
161 87 72
162 87 72
162 88 72
161 87 72
161 87 72
161 86 71
167 91 76
63 35 29
0 0 0
0 0 0
66 66 66
31 30 30
0 0 0
1 0 0
126 62 51
149 76 62
13 4 3
0 0 0
14 13 13
76 76 76
0 0 0
0 0 0
39 22 18
160 88 73
162 87 72
161 88 72
161 87 72
162 87 72
162 87 72
161 87 72
161 88 72
165 89 73
148 81 67
21 11 9
0 0 0
6 5 5
79 79 79
2 1 1
0 0 0
25 11 10
162 87 72
102 51 42
0 0 0
0 0 0
47 47 47
52 52 52
0 0 0
0 0 0
90 48 39
181 103 85
178 98 81
179 99 82
172 94 77
237 166 141
184 108 90
7 0 0
95 47 39
169 93 77
163 88 73
159 84 70
175 104 87
255 180 152
68 21 16
0 0 0
3 1 1
1 0 0
0 2 2
10 0 0
221 138 116
255 235 202
195 114 95
0 0 0
1 3 2
0 0 0
4 2 1
0 0 0
97 39 31
255 208 178
252 212 182
255 210 180
255 210 181
255 211 181
255 211 181
255 211 181
255 210 181
253 208 179
255 223 192
218 138 116
6 0 0
0 2 2
1 0 0
3 1 1
0 0 0
73 22 17
255 195 166
255 215 184
115 49 39
0 0 0
4 2 2
0 0 0
2 3 3
0 0 0
181 103 85
255 224 193
252 207 178
255 210 181
255 210 181
255 211 181
255 211 181
255 211 181
255 211 181
251 209 179
255 220 188
141 70 57
0 0 0
4 3 2
0 0 0
3 3 2
0 0 0
155 79 64
255 229 196
246 172 146
38 4 2
0 0 0
2 1 0
2 0 0
0 0 0
30 0 0
251 166 140
193 126 106
157 81 66
163 88 73
170 93 77
114 62 51
12 2 1
2 3 2
0 0 0
0 0 0
2 0 0
0 0 0
31 3 1
251 147 122
75 31 25
0 0 0
29 27 27
51 50 50
0 0 0
16 0 0
223 139 117
255 218 189
200 115 95
0 0 0
0 0 0
57 57 57
19 17 17
0 0 0
106 42 33
255 197 168
239 195 167
243 195 167
243 195 167
242 195 167
243 195 167
243 195 167
243 195 167
242 192 165
249 206 177
219 135 113
12 0 0
0 0 0
52 52 52
27 25 25
0 0 0
82 27 21
253 188 160
255 204 175
124 54 43
0 0 0
14 12 12
60 59 59
0 0 0
0 0 0
186 103 85
254 208 178
240 192 164
243 195 167
243 195 167
243 195 167
243 195 167
243 195 167
243 195 167
239 193 165
255 205 176
148 72 59
0 0 0
7 6 6
61 61 61
4 3 3
0 0 0
163 83 67
255 213 184
243 166 141
47 9 6
0 0 0
39 37 37
42 41 41
0 0 0
35 8 6
252 149 124
71 25 19
0 0 0
3 1 1
0 0 0
0 0 0
2 3 2
0 0 0
0 0 0
0 0 0
2 0 0
0 0 0
32 4 3
254 153 128
77 31 25
0 0 0
20 18 17
32 32 31
0 0 0
15 0 0
222 138 116
255 221 191
199 114 95
0 0 0
0 0 0
36 36 36
14 12 11
0 0 0
109 44 34
255 200 171
238 197 169
242 197 169
242 197 169
242 197 169
242 197 169
242 197 169
242 197 169
241 194 167
247 208 179
223 138 116
12 0 0
0 0 0
33 33 33
18 16 16
0 0 0
80 26 20
255 188 161
255 206 176
122 53 42
0 0 0
10 9 8
38 38 37
0 0 0
0 0 0
190 106 88
254 211 181
239 194 166
243 197 169
242 197 169
242 197 169
242 197 169
242 197 169
242 197 169
238 195 167
255 208 179
153 74 60
0 0 0
6 5 5
39 39 39
4 3 3
0 0 0
161 81 67
255 216 186
244 167 142
45 8 5
0 0 0
25 24 24
27 26 26
0 0 0
37 7 5
255 154 128
70 29 23
0 0 0
3 1 1
0 0 0
0 0 0
0 0 0
180 103 85
214 122 101
208 118 98
210 119 99
206 116 96
220 134 113
255 173 146
57 15 11
0 0 0
3 1 1
1 0 0
0 1 1
14 0 0
223 139 116
255 221 191
200 114 95
0 0 0
0 2 2
0 0 0
3 2 1
0 0 0
82 32 25
255 194 165
253 206 176
255 203 173
255 204 174
255 203 174
255 203 174
255 204 174
255 204 174
253 201 172
255 215 184
203 125 105
1 0 0
0 2 2
1 0 0
3 1 1
0 0 0
80 26 20
255 189 161
255 206 177
122 53 42
0 0 0
4 2 2
0 0 0
2 3 2
0 0 0
163 90 75
255 214 183
252 201 172
255 204 174
255 204 174
255 203 174
255 204 174
255 203 174
255 204 174
252 203 173
255 210 179
125 62 50
0 0 0
4 2 2
0 0 0
3 3 2
0 0 0
162 82 67
255 216 186
244 167 141
44 7 4
0 0 0
2 1 0
1 0 0
0 0 0
22 0 0
233 158 133
228 152 128
205 113 93
210 120 100
209 119 99
209 119 98
209 119 99
108 55 46
128 66 54
124 64 53
125 64 52
124 64 52
128 66 54
76 32 25
0 0 0
0 0 0
35 35 35
68 67 67
0 0 0
16 0 0
223 139 116
255 221 191
200 114 95
0 0 0
0 0 0
77 77 77
21 21 21
0 0 0
0 0 0
84 37 29
120 54 44
114 52 42
114 51 41
114 52 42
115 52 43
114 51 41
114 52 42
114 52 42
118 52 42
40 15 12
0 0 1
0 0 0
70 70 70
35 33 33
0 0 0
81 27 21
255 189 161
255 206 177
123 53 42
0 0 0
18 16 16
80 80 80
0 0 0
0 0 0
18 7 6
110 49 39
116 52 42
115 52 42
114 51 41
115 52 42
115 52 42
114 51 41
114 52 42
117 53 43
99 45 36
7 4 3
0 0 0
5 5 5
83 83 83
4 4 3
0 0 0
162 82 67
255 216 186
245 167 142
46 9 6
0 0 0
52 50 50
54 54 54
0 0 0
0 0 0
50 23 19
128 65 53
124 64 53
125 64 53
125 64 53
125 64 53
125 64 53
0 0 0
0 0 0
0 0 0
0 0 0
0 0 0
0 0 0
0 0 0
0 0 0
0 0 0
0 0 0
1 0 0
0 1 1
14 0 0
223 139 116
255 221 191
200 114 95
0 0 0
0 2 2
0 0 0
0 0 0
0 0 0
0 0 0
0 0 0
0 0 0
0 0 0
0 0 0
0 0 0
0 0 0
0 0 0
0 0 0
0 0 0
0 0 0
0 0 0
0 0 0
0 0 0
0 0 0
3 1 1
0 0 0
80 26 20
255 189 161
255 206 177
122 53 42
0 0 0
4 2 2
0 0 0
0 0 0
0 0 0
0 0 0
0 0 0
0 0 0
0 0 0
0 0 0
0 0 0
0 0 0
0 0 0
0 0 0
0 0 0
0 0 0
0 0 0
0 0 0
0 0 0
0 0 0
3 3 2
0 0 0
162 82 67
255 216 186
244 167 142
44 7 4
0 0 0
2 1 0
0 0 0
0 0 0
0 0 0
0 0 0
0 0 0
0 0 0
0 0 0
0 0 0
0 0 0
0 0 0
3 2 2
4 2 2
4 2 2
4 2 2
4 2 2
4 2 2
3 1 1
1 1 1
0 0 0
19 19 19
37 36 36
0 0 0
15 0 0
223 139 116
255 221 191
200 115 95
0 0 0
0 0 0
41 41 41
11 11 11
0 0 0
45 45 45
6 4 4
8 6 6
48 46 46
0 0 0
17 15 15
45 43 43
0 0 0
26 24 24
39 37 37
0 0 0
33 32 32
27 27 27
0 0 0
38 38 38
20 18 18
0 0 0
80 26 20
255 189 161
255 206 177
123 53 42
0 0 0
11 9 9
43 43 43
0 0 0
16 16 16
40 40 40
0 0 0
29 27 27
37 35 35
0 0 0
37 35 35
28 26 26
0 0 0
44 42 42
19 17 17
0 0 0
44 44 44
6 6 6
1 1 1
44 44 44
4 3 3
0 0 0
162 82 67
255 216 186
244 167 142
45 8 5
0 0 0
29 27 27
29 29 29
0 0 0
1 1 1
2 1 1
4 2 2
4 2 2
4 2 2
4 2 2
4 2 2
4 2 2
3 2 1
4 2 1
4 2 1
4 2 1
4 2 1
4 2 1
3 1 1
1 1 1
0 0 0
24 24 24
47 46 46
0 0 0
15 0 0
223 139 116
255 221 191
200 115 96
2 0 0
0 0 0
56 53 53
18 16 15
0 0 0
59 57 57
7 5 4
8 7 6
55 55 55
0 0 0
16 16 16
51 51 51
0 0 0
28 28 28
44 44 44
0 0 0
42 40 40
37 35 35
0 0 0
52 50 49
28 24 23
0 0 0
83 29 22
255 189 161
255 206 176
125 54 44
0 0 0
17 13 12
58 56 55
0 0 0
24 22 21
53 51 50
0 0 0
33 32 32
40 40 41
0 0 0
42 42 42
30 30 30
0 0 0
50 50 50
21 19 19
0 0 0
58 56 56
11 9 8
5 3 2
59 57 57
8 5 4
0 0 0
163 83 68
255 216 186
244 167 141
45 8 5
0 0 0
36 35 34
37 37 37
0 0 0
1 1 1
2 1 1
4 2 1
4 2 1
4 2 1
4 2 1
4 2 1
4 2 1
0 0 0
0 0 0
0 0 0
0 0 0
0 0 0
0 0 0
0 0 0
1 0 0
0 0 0
0 0 0
1 0 0
0 1 1
14 0 0
223 139 116
255 222 191
200 113 94
0 0 0
0 3 2
0 0 0
0 0 0
0 0 0
0 0 0
0 0 0
0 0 0
0 0 0
0 0 0
0 0 0
0 0 0
0 0 0
0 0 0
0 0 0
0 0 0
0 0 0
0 0 0
0 0 0
0 0 0
3 1 1
0 0 0
79 23 17
255 188 160
255 206 177
122 51 41
0 0 0
4 2 2
0 0 0
0 0 0
0 0 0
0 0 0
0 0 0
0 0 0
0 0 0
0 0 0
0 0 0
0 0 0
0 0 0
0 0 0
0 0 0
0 0 0
0 0 0
0 0 0
0 0 0
0 0 0
3 3 2
0 0 0
162 80 65
255 216 186
244 167 141
44 7 4
0 0 0
2 1 0
0 0 0
0 0 0
0 0 0
0 0 0
0 0 0
0 0 0
0 0 0
0 0 0
0 0 0
0 0 0
83 40 32
98 47 38
95 46 37
96 46 37
95 46 37
101 47 38
50 20 16
0 0 0
0 0 0
34 34 34
67 66 66
0 0 0
15 0 0
223 139 116
254 213 183
234 164 139
103 44 35
84 31 24
91 36 29
89 34 27
88 33 26
89 35 28
93 35 28
58 22 17
0 0 0
1 0 0
1 1 1
2 2 2
0 0 0
0 0 0
17 7 6
87 33 26
90 34 27
89 34 27
88 33 26
90 35 28
91 36 28
78 25 19
161 94 78
253 199 170
253 204 175
189 129 109
80 28 21
90 34 27
90 35 28
88 33 26
89 34 27
89 34 27
92 34 27
30 12 10
0 0 0
1 0 0
2 2 2
1 1 1
1 0 0
0 0 0
43 16 13
94 35 28
89 34 28
88 33 26
88 33 26
90 35 28
88 33 26
87 34 27
211 150 127
253 210 181
244 167 141
45 8 5
0 0 0
51 49 49
53 53 53
0 0 0
0 0 0
40 13 10
99 45 36
95 46 37
96 46 37
96 46 37
96 46 37
96 46 37
196 113 94
233 134 112
226 130 108
227 132 109
225 127 106
233 147 124
247 168 142
49 12 9
0 0 0
5 3 3
5 5 5
0 1 1
16 0 0
232 149 125
249 213 183
246 205 177
255 207 177
255 200 171
255 201 172
255 201 172
255 201 172
255 200 171
254 203 174
255 191 163
73 27 21
0 0 0
3 1 1
0 0 0
1 2 2
0 0 0
183 110 92
255 213 183
252 198 169
255 201 172
255 201 172
255 201 172
255 201 172
255 200 171
252 209 179
245 204 175
245 202 173
250 210 181
255 203 174
255 201 172
255 201 172
255 201 172
255 201 172
253 199 170
255 211 181
222 140 118
14 0 0
0 1 1
1 0 0
2 1 0
0 0 0
41 6 3
244 163 138
255 208 179
254 198 170
255 201 172
255 200 172
255 201 172
255 200 171
255 204 175
248 208 179
243 208 179
255 178 151
48 8 5
0 0 0
6 4 4
5 4 4
0 0 0
19 0 0
228 142 119
241 159 134
224 126 104
228 131 109
227 131 109
227 131 109
227 131 109
0 0 0
0 0 0
0 0 0
2 1 0
0 0 0
31 6 4
255 157 132
79 31 25
0 0 0
14 12 12
21 21 21
0 0 0
0 0 0
179 100 83
255 187 159
248 175 148
248 177 151
248 179 152
248 179 152
248 179 152
248 179 152
247 177 151
250 182 155
237 166 140
55 20 16
0 0 0
2 1 1
0 0 0
1 2 2
0 0 0
158 90 75
255 188 160
246 177 150
248 179 152
248 179 152
248 179 152
248 179 152
248 179 152
249 177 150
251 177 151
251 178 151
249 176 149
248 179 152
248 179 152
248 179 152
248 179 152
248 179 152
246 177 150
255 188 160
188 121 102
6 0 0
0 1 1
1 0 0
2 1 0
0 0 0
26 4 2
219 143 120
253 185 157
247 178 151
248 179 152
248 179 152
248 179 152
248 179 152
248 178 151
248 175 148
255 186 158
202 128 108
14 0 0
0 0 0
16 16 15
19 17 17
0 0 0
37 7 5
255 156 131
70 29 23
0 0 0
3 1 1
0 0 0
0 0 0
0 0 0
0 1 1
0 1 1
0 1 1
2 1 1
0 0 0
32 5 3
253 149 125
74 30 24
0 0 0
33 31 31
57 57 57
0 0 0
0 1 2
14 2 1
52 12 8
51 12 9
51 12 8
51 12 8
51 12 8
51 12 8
51 12 8
50 12 8
54 13 9
30 7 5
0 0 0
1 0 0
0 0 0
0 0 0
0 0 0
0 0 0
9 1 1
50 11 7
51 12 8
51 12 8
51 12 8
51 12 8
51 12 8
51 12 8
51 12 9
51 12 9
51 12 9
51 12 8
51 12 8
51 12 8
51 12 8
51 12 8
51 12 8
51 12 8
53 12 8
13 3 2
0 0 0
1 0 0
0 0 0
0 0 0
1 0 0
0 0 0
25 4 3
54 13 9
50 12 8
51 12 8
51 12 8
51 12 8
51 12 8
51 12 8
50 12 9
54 13 9
18 4 3
0 1 1
0 0 0
42 42 42
48 47 47
0 0 0
34 7 5
254 150 125
72 29 22
0 0 0
3 2 2
0 1 1
0 1 1
0 1 1
1 0 0
1 0 0
1 0 0
3 1 0
0 0 0
33 5 3
254 151 126
74 30 23
0 0 0
3 1 1
0 0 0
0 0 0
0 0 0
2 1 1
0 0 0
0 0 0
0 0 0
0 0 0
0 0 0
0 0 0
0 0 0
0 0 0
0 0 0
1 1 1
2 1 1
0 0 0
0 0 0
0 0 0
0 0 0
0 0 0
2 1 1
0 0 0
0 0 0
0 0 0
0 0 0
0 0 0
0 0 0
0 0 0
0 0 0
0 0 0
0 0 0
0 0 0
0 0 0
0 0 0
0 0 0
0 0 0
0 0 0
0 0 0
0 0 0
2 1 1
1 0 0
0 0 0
0 0 0
0 0 0
0 0 0
1 0 0
1 1 1
0 0 0
0 0 0
0 0 0
0 0 0
0 0 0
0 0 0
0 0 0
0 0 0
0 0 0
1 1 1
1 0 0
0 0 0
0 0 0
2 1 0
0 0 0
33 6 4
255 151 126
73 29 22
0 0 0
4 1 1
1 0 0
1 0 0
1 0 0
0 0 0
0 0 0
0 0 0
2 1 0
0 0 0
32 5 3
254 151 126
75 31 24
0 0 0
34 32 31
58 58 58
0 0 0
2 2 2
1 0 0
2 1 1
2 1 1
2 1 1
2 1 1
2 1 1
2 1 1
2 1 1
2 1 1
2 1 1
1 1 1
0 0 0
0 0 0
0 0 0
0 0 0
0 0 0
0 0 0
0 0 0
2 1 1
2 1 1
2 1 1
2 1 1
2 1 1
2 1 1
2 1 1
2 1 1
2 1 1
2 1 1
2 1 1
2 1 1
2 1 1
2 1 1
2 1 1
2 1 1
2 1 1
2 1 1
1 0 0
0 0 0
0 0 0
0 0 0
0 0 0
0 0 0
0 0 0
1 0 0
2 1 1
2 1 1
2 1 1
2 1 1
2 1 1
2 1 1
2 1 1
2 1 1
2 1 1
1 0 0
1 2 2
0 0 0
43 43 43
49 48 48
0 0 0
35 8 5
255 151 126
72 28 22
0 0 0
3 1 1
0 0 0
0 0 0
0 0 0
0 0 0
0 0 0
0 0 0
2 1 0
0 0 0
32 5 3
254 151 126
74 30 24
0 0 0
13 11 11
19 19 19
0 0 0
0 0 0
2 1 1
4 3 2
4 3 2
4 3 2
4 3 2
4 3 2
4 3 2
4 3 2
4 3 2
4 3 2
4 3 2
0 0 0
0 0 0
0 0 0
0 0 0
0 0 0
0 0 0
3 2 1
4 3 2
4 3 2
4 3 2
4 3 2
4 3 2
4 3 2
3 3 3
3 3 3
3 3 3
3 3 3
3 3 3
3 3 3
4 2 2
4 3 2
4 3 2
4 3 2
4 3 2
4 3 2
4 2 2
0 0 0
0 0 0
0 0 0
0 0 0
0 0 0
0 0 0
3 2 1
4 3 2
4 3 2
4 3 2
4 3 2
4 3 2
4 3 2
4 3 2
4 3 2
4 3 2
3 2 1
0 0 0
0 0 0
14 14 14
17 16 16
0 0 0
34 6 4
255 151 126
72 28 22
0 0 0
3 1 1
0 0 0
0 0 0
0 0 0
0 0 0
0 0 0
0 0 0
2 1 0
0 0 0
32 5 3
254 151 126
74 29 23
0 0 0
6 4 4
6 6 6
0 0 0
0 0 0
0 0 0
0 0 0
0 0 0
0 0 0
0 0 0
0 0 0
0 0 0
0 0 0
0 0 0
0 0 0
0 0 0
0 0 0
0 0 0
0 0 0
0 0 0
0 0 0
0 0 0
0 0 0
0 0 0
0 0 0
0 0 0
0 0 0
0 0 0
0 0 0
0 0 0
0 0 0
0 0 0
0 0 0
0 0 0
0 0 0
0 0 0
0 0 0
0 0 0
0 0 0
0 0 0
0 0 0
0 0 0
0 0 0
0 0 0
0 0 0
0 0 0
0 0 0
0 0 0
0 0 0
0 0 0
0 0 0
0 0 0
0 0 0
0 0 0
0 0 0
0 0 0
0 0 0
0 0 0
0 0 0
0 0 0
0 0 0
4 4 4
7 5 5
0 0 0
33 6 4
255 151 126
72 28 22
0 0 0
3 1 1
0 0 0
0 0 0
0 0 0
0 0 0
0 0 0
0 0 0
2 1 0
0 0 0
32 5 3
254 151 126
75 31 25
0 0 0
37 35 35
65 65 65
0 0 0
0 0 0
69 32 26
162 85 70
153 80 66
153 79 65
153 79 65
153 79 65
153 79 65
153 79 65
151 78 64
160 82 68
117 62 51
1 0 0
0 0 0
0 0 0
0 0 0
0 1 1
0 0 0
124 49 39
168 95 78
171 93 77
171 94 78
171 93 77
171 96 80
171 83 67
107 66 72
92 79 91
96 77 87
95 77 88
94 79 90
99 69 78
163 73 60
173 97 80
171 93 77
171 94 78
171 93 77
168 95 79
144 63 50
13 0 0
0 0 0
1 0 0
0 0 0
1 1 1
0 0 0
93 47 38
162 84 69
151 78 64
153 79 65
153 79 65
153 79 65
153 79 65
153 79 65
153 80 66
163 87 71
91 46 38
0 0 0
0 0 0
48 48 48
54 53 53
0 0 0
35 8 6
255 151 126
72 28 22
0 0 0
3 1 1
0 0 0
0 0 0
0 0 0
0 0 0
0 0 0
0 0 0
2 1 0
0 0 0
32 5 3
254 151 126
74 29 23
0 0 0
3 1 1
1 0 0
0 2 2
9 0 0
222 142 119
255 221 190
253 207 177
255 219 188
255 222 191
255 221 190
255 222 191
255 222 191
255 221 190
252 223 192
255 216 185
90 35 27
0 0 0
4 2 1
1 0 0
0 2 2
0 0 0
223 134 111
230 141 118
163 84 69
171 94 78
170 93 77
170 95 79
170 83 67
107 66 71
91 79 90
95 76 86
94 76 87
93 79 89
98 69 77
162 76 62
172 96 79
170 92 76
171 94 78
164 87 72
203 119 99
252 159 133
26 0 0
0 0 0
2 0 0
2 1 1
0 0 0
50 10 7
255 192 163
255 228 197
255 220 189
255 222 191
255 222 191
255 222 191
255 222 191
255 221 191
254 210 180
255 218 187
250 172 145
39 4 1
0 0 0
2 1 0
2 1 0
0 0 0
33 6 4
255 151 126
72 28 22
0 0 0
3 1 1
0 0 0
0 0 0
0 0 0
0 0 0
0 0 0
0 0 0
2 1 0
0 0 0
32 5 3
254 151 126
75 30 24
0 0 0
28 26 26
48 47 47
0 0 0
17 0 0
225 142 119
246 205 177
243 196 169
219 148 125
210 129 108
211 133 112
211 132 111
211 132 111
210 131 110
215 137 115
188 108 90
26 7 6
0 0 0
1 1 0
0 0 0
0 2 2
0 0 0
221 128 106
134 65 53
0 0 0
4 2 2
0 0 0
0 0 0
0 0 0
0 0 0
0 0 0
0 0 0
0 0 0
0 0 0
0 0 0
0 0 0
0 0 0
0 0 0
3 1 1
0 0 0
86 34 27
247 145 121
22 0 0
0 0 0
1 0 0
1 0 0
0 0 0
7 0 0
158 98 82
219 139 116
209 132 110
211 133 111
211 132 111
211 133 111
210 132 110
217 135 113
243 188 161
241 203 175
246 169 143
47 9 6
0 0 0
37 36 35
40 39 39
0 0 0
35 7 5
255 151 126
72 28 22
0 0 0
3 1 1
0 0 0
0 0 0
0 0 0
0 0 0
0 0 0
0 0 0
2 1 0
0 0 0
32 5 3
254 151 126
74 30 24
0 0 0
21 19 19
35 34 34
0 0 0
15 0 0
223 139 117
255 219 189
210 132 110
12 0 0
4 1 1
7 0 0
6 0 0
6 0 0
6 0 0
6 0 0
3 0 0
0 0 0
0 0 0
0 0 0
1 0 0
0 2 2
0 0 0
224 130 108
138 72 59
0 0 0
8 5 4
4 3 2
4 3 2
4 3 2
3 3 3
3 3 3
3 3 3
3 3 3
3 3 3
3 3 3
4 2 2
4 3 2
4 3 2
7 4 3
0 0 0
90 40 32
250 148 124
22 0 0
0 0 0
1 0 0
0 0 0
0 0 0
0 0 0
2 0 0
6 0 0
6 0 0
6 0 0
6 0 0
6 0 0
7 2 2
2 0 0
184 98 81
255 216 186
245 167 142
45 8 5
0 0 0
27 26 26
29 28 28
0 0 0
34 7 5
255 151 126
72 29 22
0 0 0
3 1 1
0 0 0
0 0 0
0 0 0
0 0 0
0 0 0
0 0 0
2 1 0
0 0 0
32 5 3
254 151 126
74 29 23
0 0 0
3 1 1
1 0 0
0 1 1
14 0 0
223 139 116
255 222 191
199 112 93
0 0 0
0 5 4
0 2 2
0 2 2
0 2 2
0 2 2
0 2 2
1 2 2
1 0 0
0 0 0
0 0 0
1 0 0
0 2 2
0 0 0
224 130 108
137 70 57
0 0 0
4 2 2
0 0 0
0 0 0
0 0 0
0 0 0
0 0 0
0 0 0
0 0 0
0 0 0
0 0 0
0 0 0
0 0 0
0 0 0
4 1 1
0 0 0
88 38 31
250 148 123
22 0 0
0 0 0
1 0 0
0 0 0
0 0 0
1 0 0
2 2 2
0 2 2
0 2 2
0 2 2
0 2 2
0 2 2
3 5 4
0 0 0
162 80 65
255 216 186
244 167 142
44 7 4
0 0 0
2 1 0
2 1 0
0 0 0
33 6 3
255 151 126
72 28 22
0 0 0
3 1 1
0 0 0
0 0 0
0 0 0
0 0 0
0 0 0
0 0 0
2 1 0
0 0 0
32 5 3
254 151 126
75 31 24
0 0 0
38 36 36
68 67 67
0 0 0
16 0 0
223 139 117
255 221 191
200 115 96
0 0 0
1 2 2
1 0 0
1 0 0
1 0 0
1 0 0
1 0 0
1 0 0
0 0 0
0 0 0
0 0 0
1 0 0
0 2 2
0 0 0
224 130 108
137 70 57
0 0 0
4 2 2
0 0 0
0 0 0
0 0 0
0 0 0
0 0 0
0 0 0
0 0 0
0 0 0
0 0 0
0 0 0
0 0 0
0 0 0
4 1 1
0 0 0
88 38 30
250 148 124
22 0 0
0 0 0
1 0 0
0 0 0
0 0 0
0 0 0
0 0 0
1 0 0
1 0 0
1 0 0
1 0 0
1 0 0
4 3 2
0 0 0
163 83 68
255 216 186
244 167 142
46 9 6
0 0 0
52 50 50
56 55 55
0 0 0
35 8 5
255 151 126
72 28 22
0 0 0
3 1 1
0 0 0
0 0 0
0 0 0
0 0 0
0 0 0
0 0 0
2 1 0
0 0 0
32 5 3
254 151 126
74 29 23
0 0 0
3 1 1
1 0 0
0 1 1
14 0 0
223 139 116
255 221 191
200 114 95
0 0 0
0 2 2
0 0 0
0 0 0
0 0 0
2 1 0
1 2 2
1 2 2
2 0 0
0 0 0
0 0 0
1 0 0
0 2 2
0 0 0
224 130 108
137 69 57
0 0 0
4 2 2
0 0 0
0 0 0
0 0 0
0 0 0
0 0 0
0 0 0
0 0 0
0 0 0
0 0 0
0 0 0
0 0 0
0 0 0
4 1 1
0 0 0
88 38 30
250 148 124
22 0 0
0 0 0
1 0 0
0 0 0
0 0 0
1 0 0
2 2 2
1 2 2
2 1 1
0 0 0
0 0 0
0 0 0
3 3 2
0 0 0
162 82 67
255 216 186
244 167 142
44 7 4
0 0 0
2 1 0
2 1 0
0 0 0
33 6 4
255 152 126
72 29 22
0 0 0
3 1 1
0 0 0
0 0 0
0 0 0
3 3 2
4 3 2
4 3 2
6 3 2
0 1 1
35 8 5
254 151 126
74 30 24
0 0 0
21 19 18
34 33 33
0 0 0
15 0 0
222 139 116
255 221 191
199 114 95
0 0 0
0 2 2
0 0 0
0 0 0
0 0 0
0 0 0
2 0 0
2 0 0
0 0 0
0 0 0
0 0 0
1 0 0
0 2 2
0 0 0
224 130 108
138 71 59
0 0 0
8 5 4
4 3 2
4 3 2
4 3 2
4 3 2
4 3 2
4 3 2
4 3 2
4 3 2
4 3 2
4 3 2
4 3 2
4 3 2
7 4 3
0 0 0
90 40 32
250 148 124
22 0 0
0 0 0
1 0 0
0 0 0
0 0 0
0 0 0
2 0 0
3 0 0
0 0 0
0 0 0
0 0 0
0 0 0
3 3 2
0 0 0
161 81 67
255 216 186
244 167 141
45 8 5
0 0 0
27 25 25
29 27 27
0 0 0
34 7 5
254 151 126
75 31 24
0 0 0
7 4 3
4 3 2
4 3 2
4 3 2
0 0 0
0 0 0
0 0 0
2 0 0
0 0 0
31 3 1
253 148 123
77 31 25
0 0 0
28 26 26
49 48 48
0 0 0
17 0 0
223 139 116
255 218 189
201 115 96
0 0 0
0 2 2
0 0 0
1 1 1
0 0 0
23 9 7
192 122 103
190 113 94
25 5 3
0 0 0
1 0 0
0 0 0
0 2 2
0 0 0
221 127 106
134 65 53
0 0 0
4 2 2
0 0 0
0 0 0
0 0 0
0 0 0
0 0 0
0 0 0
0 0 0
0 0 0
0 0 0
0 0 0
0 0 0
0 0 0
3 1 1
0 0 0
86 34 27
246 145 121
22 0 0
0 0 0
1 0 0
1 0 0
0 0 0
4 0 0
158 94 79
215 133 112
53 20 15
0 0 0
2 1 1
0 0 0
3 3 2
0 0 0
164 83 68
255 213 184
243 167 141
47 9 6
0 0 0
38 36 36
41 39 39
0 0 0
36 8 6
253 149 125
70 25 19
0 0 0
3 1 1
0 0 0
0 0 0
0 0 0
144 78 64
171 94 78
167 94 78
169 87 72
163 87 72
185 109 91
255 182 154
64 21 16
0 0 0
3 1 1
1 0 0
0 2 2
9 0 0
220 140 118
255 235 203
194 112 93
0 0 0
1 3 2
0 0 0
4 2 2
0 0 0
107 43 34
255 212 181
255 207 177
100 37 29
0 0 0
4 2 1
1 0 0
0 2 2
0 0 0
223 134 112
229 135 113
159 82 68
168 92 76
167 91 75
167 91 75
167 91 75
167 91 75
167 91 75
167 91 75
167 91 75
167 91 75
167 91 75
167 91 75
167 91 75
167 91 75
168 92 76
160 86 70
201 114 95
252 157 132
26 0 0
0 0 0
2 0 0
3 1 1
0 0 0
57 13 9
255 186 158
255 226 194
153 73 60
0 0 0
4 3 2
0 0 0
3 3 2
0 0 0
154 78 64
255 228 196
245 170 144
37 4 2
0 0 0
2 1 0
2 0 0
0 0 0
30 1 0
250 163 137
196 122 102
161 84 69
168 92 76
167 91 75
167 91 75
167 91 75
150 83 69
179 95 78
172 80 66
171 112 95
173 94 78
175 85 72
109 63 52
0 0 0
0 0 0
34 34 34
64 64 64
0 0 0
0 0 0
64 35 29
166 90 74
44 21 17
0 0 0
2 1 1
0 0 0
4 2 1
0 0 0
104 41 32
255 197 169
255 194 166
96 36 28
0 0 0
4 2 1
0 0 0
0 1 1
0 0 0
127 54 43
171 96 80
174 95 79
174 95 79
174 95 79
173 95 79
174 96 79
174 95 79
174 95 79
174 95 79
174 96 79
174 96 79
174 95 79
174 95 79
174 95 79
174 96 79
174 95 79
174 95 79
171 97 81
146 64 51
13 0 0
0 0 0
1 0 0
3 1 1
0 0 0
56 13 9
247 173 147
255 210 181
146 70 57
0 0 0
4 3 2
0 0 0
1 1 0
0 0 0
22 10 8
157 84 69
91 47 39
0 0 0
0 0 0
48 48 48
52 52 52
0 0 0
0 0 0
86 45 37
177 99 83
173 94 78
173 95 79
174 95 79
174 95 79
174 96 79
0 0 0
0 5 5
1 137 119
1 238 198
0 198 172
3 64 48
0 0 0
0 2 2
0 0 0
4 4 4
7 7 7
0 0 0
0 0 0
0 0 0
0 0 0
0 0 0
0 0 0
0 0 0
0 0 0
4 2 2
0 0 0
105 41 32
255 200 171
255 197 168
97 36 28
0 0 0
4 2 1
0 0 0
0 0 0
0 0 0
0 0 0
0 0 0
0 0 0
0 0 0
0 0 0
0 0 0
0 0 0
0 0 0
0 0 0
0 0 0
0 0 0
0 0 0
0 0 0
0 0 0
0 0 0
0 0 0
0 0 0
0 0 0
0 0 0
0 0 0
0 0 0
0 0 0
0 0 0
3 1 1
0 0 0
56 13 9
249 175 149
255 213 183
148 71 58
0 0 0
4 3 2
0 0 0
0 0 0
0 0 0
0 0 0
0 0 0
0 0 0
0 0 0
0 0 0
5 5 5
6 6 6
0 0 0
0 0 0
0 0 0
0 0 0
0 0 0
0 0 0
0 0 0
0 0 0
0 0 0
6 0 0
0 111 96
149 255 255
88 181 233
101 255 244
134 145 211
0 0 4
2 1 0
0 0 0
9 9 9
18 18 18
0 0 0
0 0 0
2 1 1
4 3 2
2 1 1
0 0 0
0 0 0
0 0 0
4 2 2
0 0 0
105 41 32
255 200 171
255 197 168
97 36 28
0 0 0
4 2 1
0 0 0
0 0 0
0 0 0
3 2 1
3 3 2
3 3 2
3 3 2
3 3 2
3 3 2
3 3 2
3 3 2
3 3 2
3 3 2
3 3 2
3 3 2
3 3 2
3 3 2
3 3 2
3 3 2
3 3 2
3 3 2
3 3 2
3 2 2
0 0 0
0 0 0
0 0 0
3 1 1
0 0 0
56 13 9
249 176 149
255 213 183
148 71 58
0 0 0
4 3 2
0 0 0
0 0 0
0 0 0
1 0 0
3 3 2
2 2 1
0 0 0
0 0 0
13 13 13
14 14 14
0 0 0
1 0 0
3 2 2
3 3 2
3 3 2
3 3 2
3 3 2
3 3 2
3 3 2
3 0 0
0 185 162
68 254 237
28 209 226
46 245 220
46 213 238
0 57 50
2 0 0
0 0 0
31 31 31
59 59 59
0 0 0
2 2 2
1 0 0
2 1 1
2 1 1
2 1 1
2 1 1
2 1 1
6 3 2
0 0 0
106 43 33
255 200 171
255 197 168
99 38 29
0 0 0
6 3 2
2 1 1
2 1 1
2 1 1
2 1 1
2 1 1
0 0 0
0 0 0
0 0 0
0 0 0
0 0 0
0 0 0
0 0 0
1 1 1
2 1 1
0 0 0
0 0 0
0 0 0
0 0 0
0 0 0
0 0 0
0 0 0
2 1 1
2 1 1
2 1 1
2 1 1
2 1 1
5 2 2
0 0 0
59 15 10
249 176 150
255 213 183
149 73 59
0 0 0
6 4 3
2 1 1
2 1 1
2 1 1
2 1 1
2 1 1
1 0 0
1 2 2
0 0 0
44 44 44
48 48 48
0 0 0
2 2 2
1 0 0
2 1 1
2 1 1
2 1 1
2 1 1
2 1 1
2 1 1
0 0 0
0 176 159
0 253 226
0 239 208
0 242 217
0 252 216
1 65 61
1 0 0
0 3 3
0 0 0
0 0 0
0 0 0
1 0 0
2 1 1
0 0 0
0 0 0
0 0 0
0 0 0
0 0 0
4 2 1
0 0 0
104 38 29
255 199 170
255 196 167
97 33 25
0 0 0
4 2 1
0 0 0
0 0 0
0 0 0
0 0 0
0 0 0
2 1 1
0 0 0
0 0 0
0 0 0
0 0 0
0 0 0
1 1 1
1 1 1
0 0 0
2 1 1
0 0 0
0 0 0
0 0 0
0 0 0
0 0 0
2 1 1
0 0 0
0 0 0
0 0 0
0 0 0
0 0 0
3 1 1
0 0 0
56 10 7
249 174 147
255 213 183
147 67 54
0 0 0
4 3 2
0 0 0
0 0 0
0 0 0
0 0 0
0 0 0
1 1 1
1 0 0
0 0 0
0 0 0
0 0 0
0 0 0
1 0 0
1 1 1
0 0 0
0 0 0
0 0 0
0 0 0
0 0 0
0 0 0
44 20 16
52 68 58
52 78 66
52 72 62
51 85 73
55 64 56
24 38 32
0 0 0
0 0 0
30 30 30
57 57 57
0 0 0
0 1 2
13 1 1
50 11 7
49 11 7
49 11 7
49 11 7
49 11 7
51 13 9
39 2 0
158 90 75
255 205 176
255 200 171
158 78 63
39 4 1
51 13 8
49 11 7
49 11 7
49 11 7
49 11 7
49 11 7
8 2 1
0 0 0
0 0 0
0 0 0
0 0 0
1 0 0
0 0 0
28 6 4
37 8 6
0 0 0
1 0 0
0 0 0
0 0 0
0 0 0
0 0 0
5 0 0
45 9 6
49 11 7
48 11 7
49 11 7
49 11 7
51 13 9
39 3 0
120 57 47
252 195 166
255 207 177
186 119 100
42 6 3
51 12 8
49 11 7
49 11 7
49 11 7
48 11 7
52 12 7
17 4 2
0 1 1
0 0 0
42 42 42
46 46 46
0 0 0
0 1 1
15 3 2
53 17 12
51 19 15
51 19 15
51 19 15
51 19 15
51 19 14
210 122 101
250 137 114
242 130 108
244 132 110
242 127 105
249 147 123
225 143 121
36 8 6
0 0 0
13 12 12
22 22 22
0 0 0
0 0 0
177 106 89
255 186 159
245 175 149
247 177 151
247 177 151
247 177 151
247 177 151
248 176 150
249 199 171
242 200 172
242 200 172
249 200 171
248 177 151
247 177 151
247 177 151
247 177 151
247 177 151
245 175 149
255 187 160
172 101 84
0 0 0
0 2 2
0 0 0
2 1 1
0 0 0
35 10 7
227 155 131
249 176 149
66 29 23
0 0 0
3 1 1
0 0 0
2 2 2
0 0 0
133 69 56
255 183 155
244 176 150
246 177 151
247 177 151
247 177 151
247 177 151
247 175 149
250 194 166
243 203 174
242 197 170
247 205 177
248 181 154
247 176 150
247 177 151
247 177 151
247 177 151
245 175 149
253 185 158
204 131 110
18 0 0
0 0 0
17 16 16
19 18 18
0 0 0
12 0 0
199 125 105
253 165 139
242 137 114
244 142 119
244 141 118
244 141 118
244 142 118
25 6 4
30 9 7
29 9 7
31 10 7
22 7 5
56 20 15
255 167 140
79 30 23
0 0 0
5 3 3
4 4 4
0 1 1
4 0 0
205 128 107
255 213 183
253 199 171
255 202 173
255 202 173
255 202 173
255 202 173
255 202 173
255 197 168
255 197 168
255 197 168
255 197 168
255 202 173
255 202 173
255 202 173
255 202 173
255 202 173
253 200 171
255 212 182
201 120 100
1 0 0
0 2 2
1 0 0
4 1 1
0 0 0
86 28 21
255 196 167
255 213 182
130 57 45
0 0 0
4 2 2
0 0 0
3 3 2
0 0 0
163 91 75
255 213 182
252 200 171
255 202 173
255 202 173
255 202 173
255 202 173
255 203 173
255 198 169
255 196 167
255 197 168
255 195 167
255 201 172
255 202 173
255 202 173
255 202 173
255 202 173
254 200 171
255 210 180
237 160 135
28 2 1
0 0 0
4 3 3
5 3 3
0 0 0
37 6 3
255 163 137
92 43 35
16 0 0
32 8 6
29 7 4
29 7 4
29 7 5
0 0 0
0 0 0
0 0 0
2 0 0
0 0 0
32 4 2
253 148 123
74 31 24
0 0 0
37 35 35
66 66 66
0 0 0
0 1 2
25 9 7
93 36 28
91 36 28
91 36 28
90 34 27
92 36 29
91 35 28
90 34 27
93 37 30
91 36 28
91 36 28
93 37 30
90 34 27
91 35 28
92 36 29
90 34 27
90 34 27
89 35 27
93 34 27
27 6 4
0 0 0
1 0 0
0 0 0
3 1 1
0 0 0
78 25 19
254 187 160
255 204 175
121 52 41
0 0 0
4 2 2
0 0 0
1 0 0
0 0 0
14 3 2
87 32 25
91 35 28
90 34 27
90 34 27
92 36 28
91 36 28
89 34 26
93 37 29
92 37 29
91 36 28
93 38 30
90 35 27
91 34 27
93 36 29
90 34 27
91 35 27
91 36 29
95 36 28
45 14 11
0 1 1
0 0 0
49 49 49
55 54 53
0 0 0
34 8 6
253 149 124
72 26 20
0 0 0
3 1 1
0 0 0
0 0 0
0 0 0
2 0 0
2 0 0
2 0 0
4 1 0
0 0 0
34 6 3
254 151 126
74 29 23
0 0 0
3 1 1
0 0 0
0 0 0
0 0 0
0 0 0
0 0 0
0 0 0
0 0 0
0 0 0
0 0 0
0 0 0
0 0 0
0 0 0
0 0 0
0 0 0
0 0 0
0 0 0
0 0 0
0 0 0
0 0 0
0 0 0
0 0 0
0 0 0
1 0 0
0 0 0
0 0 0
0 0 0
3 1 1
0 0 0
80 26 20
255 189 161
255 206 177
122 53 42
0 0 0
4 2 2
0 0 0
0 0 0
0 0 0
1 1 0
0 0 0
0 0 0
0 0 0
0 0 0
0 0 0
0 0 0
0 0 0
0 0 0
0 0 0
0 0 0
0 0 0
0 0 0
0 0 0
0 0 0
0 0 0
0 0 0
0 0 0
0 0 0
0 0 0
0 0 0
0 0 0
0 0 0
2 1 0
0 0 0
33 6 4
255 151 126
73 29 23
0 0 0
5 1 1
2 0 0
2 0 0
2 0 0
0 0 0
0 0 0
0 0 0
2 1 0
0 0 0
32 5 3
254 151 126
75 30 24
0 0 0
27 25 24
46 46 46
0 0 0
35 35 35
37 36 36
0 0 0
48 46 46
29 27 26
0 0 0
55 53 52
18 16 15
0 0 0
59 57 56
7 5 4
9 7 6
58 56 55
0 0 0
20 18 17
53 51 50
0 0 0
5 3 2
4 2 1
4 2 1
2 1 0
0 0 0
0 0 0
0 0 0
3 1 1
0 0 0
80 26 19
255 189 161
255 206 177
123 53 42
0 0 0
4 2 2
0 0 0
0 0 0
0 0 0
1 0 0
4 2 1
4 2 1
5 3 2
0 0 0
43 41 41
33 31 31
0 0 0
53 51 50
22 20 19
0 0 0
58 56 55
11 9 8
5 3 2
59 57 56
2 0 0
16 14 13
56 54 53
0 0 0
25 24 23
46 46 46
0 0 0
35 35 35
38 37 37
0 0 0
35 7 5
255 151 126
72 28 22
0 0 0
3 1 1
0 0 0
0 0 0
0 0 0
0 0 0
0 0 0
0 0 0
2 1 0
0 0 0
32 5 3
254 151 126
74 30 24
0 0 0
23 21 20
38 38 38
0 0 0
29 29 29
32 31 31
0 0 0
41 39 39
25 23 23
0 0 0
47 45 45
15 13 13
1 0 0
50 48 48
7 5 5
7 6 6
45 45 45
0 0 0
14 14 14
41 41 41
0 0 0
1 1 1
1 1 0
4 2 2
4 2 2
4 2 2
4 2 2
4 2 2
7 3 3
0 0 0
82 27 21
255 189 161
255 206 176
124 54 43
0 0 0
8 4 4
4 2 2
4 2 2
4 2 2
4 2 2
4 2 2
2 1 1
1 1 1
0 0 0
33 33 33
25 25 25
0 0 0
41 41 41
18 16 16
0 0 0
49 47 47
10 8 8
5 3 3
50 48 48
2 0 0
14 12 12
48 46 46
0 0 0
21 20 20
38 38 38
0 0 0
29 29 29
32 31 30
0 0 0
34 7 5
255 151 126
72 28 22
0 0 0
3 1 1
0 0 0
0 0 0
0 0 0
0 0 0
1 0 0
2 1 1
4 2 1
0 0 0
34 6 4
254 151 126
73 29 23
0 0 0
3 1 1
0 0 0
0 0 0
0 0 0
0 0 0
0 0 0
0 0 0
0 0 0
0 0 0
0 0 0
0 0 0
0 0 0
0 0 0
0 0 0
0 0 0
0 0 0
0 0 0
0 0 0
0 0 0
0 0 0
0 0 0
0 0 0
0 0 0
0 0 0
0 0 0
0 0 0
0 0 0
3 1 1
0 0 0
80 25 19
255 189 161
255 206 177
122 53 42
0 0 0
4 2 2
0 0 0
0 0 0
0 0 0
0 0 0
0 0 0
0 0 0
0 0 0
0 0 0
0 0 0
0 0 0
0 0 0
0 0 0
0 0 0
0 0 0
0 0 0
0 0 0
0 0 0
0 0 0
0 0 0
0 0 0
0 0 0
0 0 0
0 0 0
0 0 0
0 0 0
0 0 0
2 1 0
0 0 0
33 6 4
255 151 126
73 30 23
0 0 0
5 2 2
2 1 1
1 1 0
0 0 0
2 1 1
1 1 1
0 0 0
2 0 0
0 0 0
32 4 2
252 147 123
74 31 24
0 0 0
38 36 36
67 67 67
0 0 0
0 0 1
34 13 11
115 50 39
111 49 39
112 48 39
111 48 38
112 49 39
111 48 38
111 48 38
111 49 39
117 51 40
77 34 27
0 0 0
0 0 0
24 24 24
75 75 75
0 0 0
0 0 0
26 9 7
111 48 38
111 48 38
111 48 38
111 48 38
111 48 38
113 50 39
102 41 32
177 118 99
252 200 172
250 202 173
204 138 117
108 43 34
111 49 39
111 48 38
111 48 38
111 48 38
110 47 38
117 50 40
47 17 13
0 0 0
0 0 0
60 60 60
43 43 43
0 0 0
0 0 0
64 23 17
117 51 40
111 49 39
111 48 38
111 48 38
112 50 40
111 48 38
111 48 38
111 49 39
118 51 40
53 21 17
0 0 0
0 0 0
50 50 50
56 55 55
0 0 0
34 8 6
252 148 124
72 26 20
0 0 0
3 1 1
0 0 0
0 1 1
2 2 1
0 0 0
12 3 2
49 17 13
48 18 14
40 14 11
72 28 22
255 168 142
78 30 23
0 0 0
3 1 1
1 0 0
0 2 2
6 0 0
215 136 114
255 222 190
253 207 178
255 210 180
255 210 180
255 210 180
255 210 180
255 210 180
255 209 179
253 212 182
255 202 172
81 31 24
0 0 0
3 2 1
0 0 0
1 2 2
0 0 0
199 113 93
255 222 191
253 207 178
255 210 180
255 210 180
255 210 180
255 210 180
255 211 180
253 214 184
247 205 177
247 204 176
251 213 183
255 211 181
255 210 180
255 210 180
255 210 180
255 210 180
254 209 178
255 223 189
230 152 128
17 0 0
0 1 1
1 0 0
2 1 1
0 0 0
43 8 5
250 175 148
255 217 186
254 208 179
255 210 180
255 210 180
255 210 180
255 210 180
255 210 180
254 208 178
255 218 187
243 168 141
32 3 1
0 0 0
2 1 0
2 1 0
0 0 0
36 5 3
255 163 137
105 50 41
35 10 7
49 18 14
50 18 14
20 6 4
0 0 0
60 23 18
221 143 121
248 150 125
243 140 117
243 139 116
249 154 129
212 136 114
26 6 4
0 0 0
17 16 16
31 30 30
0 0 0
0 0 0
156 92 77
246 173 147
236 162 137
237 164 139
237 164 139
237 164 139
237 164 139
237 164 139
236 163 138
241 167 142
220 149 126
44 17 13
0 0 0
13 12 12
34 34 34
0 0 0
0 0 0
141 78 65
245 173 147
235 162 137
237 164 139
237 164 139
238 164 139
237 164 139
237 164 139
239 163 138
241 165 139
241 165 140
240 163 138
237 164 139
237 164 139
237 164 139
237 164 139
238 165 139
225 155 137
230 156 146
159 102 84
4 0 0
0 0 0
28 27 27
21 20 20
0 0 0
23 2 1
201 127 107
243 171 145
236 162 138
237 164 139
237 164 139
237 164 139
238 164 139
238 164 139
235 162 138
244 171 146
188 122 103
13 0 0
0 0 0
23 23 23
25 25 25
0 0 0
9 0 0
183 112 94
251 158 133
242 139 115
243 142 118
246 143 119
235 152 128
95 48 39
214 122 102
191 124 104
19 0 0
34 10 7
33 10 8
34 7 5
16 1 0
0 2 2
0 0 0
26 26 26
50 50 50
0 0 0
1 2 2
6 1 1
33 3 1
34 4 2
33 4 2
33 3 1
34 4 2
33 3 1
33 3 1
34 4 2
35 3 1
18 1 0
0 1 1
0 0 0
18 18 18
56 56 56
0 0 0
1 2 2
4 1 1
31 3 1
34 4 2
34 4 2
33 3 1
33 3 1
33 3 1
33 3 1
33 3 1
33 3 1
33 3 1
33 3 1
33 3 1
33 3 1
32 3 1
33 4 1
30 0 2
86 40 6
110 75 0
95 13 13
10 2 7
0 0 0
45 44 44
32 32 32
0 0 0
0 1 1
12 1 0
35 3 1
33 3 1
33 3 1
33 3 1
33 3 1
33 3 1
33 3 1
34 4 2
35 3 1
11 1 0
0 2 2
0 0 0
37 37 37
41 41 41
0 0 0
0 2 2
10 1 0
34 6 4
33 10 8
36 11 8
16 0 0
148 91 76
254 157 132
227 130 108
151 76 62
0 0 0
4 2 2
0 0 0
0 0 0
1 1 1
0 0 0
0 0 0
0 0 0
0 0 0
0 0 0
0 0 0
1 1 1
0 0 0
0 0 0
0 0 0
0 0 0
0 0 0
0 0 0
0 0 0
0 0 0
0 0 0
1 1 1
1 0 0
0 0 0
0 0 0
0 0 0
0 0 0
0 0 0
1 1 1
0 0 0
0 0 0
0 0 0
0 0 0
0 0 0
0 0 0
0 0 0
0 0 0
0 0 0
0 0 0
0 0 0
0 0 0
0 0 0
0 0 0
2 2 0
0 0 0
54 43 2
199 202 0
202 126 40
139 38 51
11 0 0
0 0 0
1 0 0
0 0 0
1 0 0
2 1 1
0 0 0
0 0 0
0 0 0
0 0 0
0 0 0
0 0 0
0 0 0
0 0 0
0 0 0
1 1 1
0 0 0
0 0 0
0 0 0
0 0 0
0 0 0
0 0 0
1 1 1
0 0 0
0 0 0
4 2 1
0 0 0
102 44 35
255 152 127
225 128 106
154 82 68
0 0 0
11 9 8
78 77 77
0 0 0
19 18 18
72 72 72
0 0 0
34 34 34
64 64 64
0 0 0
49 49 49
50 50 50
0 0 0
64 63 62
37 36 35
0 0 0
74 73 72
21 20 19
0 0 0
78 77 76
6 5 4
9 8 7
75 75 75
0 0 0
23 23 23
71 71 71
0 0 0
38 38 38
60 59 59
0 0 0
55 54 53
46 45 44
0 0 0
4 3 2
2 1 0
2 1 0
2 1 0
2 1 0
2 1 0
2 1 0
2 1 0
2 1 0
3 2 1
0 0 0
29 28 26
62 62 65
10 12 0
180 187 11
212 170 10
0 0 1
2 3 1
1 1 1
0 0 0
0 0 0
1 0 0
2 1 0
2 1 0
2 1 0
2 1 0
3 2 1
0 0 0
18 17 16
74 73 73
0 0 0
32 32 32
64 64 64
0 0 0
48 48 48
53 53 53
0 0 0
60 60 60
37 37 36
0 0 0
73 72 71
26 23 22
0 0 0
106 51 41
255 153 128
226 129 107
153 81 67
0 0 0
5 3 3
12 12 12
0 0 0
4 4 4
18 17 17
0 0 0
10 11 10
16 17 16
0 0 0
13 14 13
13 14 13
0 0 0
16 15 15
8 8 8
0 0 0
11 11 11
3 3 3
0 0 0
18 18 18
4 4 3
4 5 4
19 20 20
0 1 0
7 8 7
18 19 18
0 0 0
11 12 11
16 17 16
0 0 0
15 14 13
10 10 10
0 0 0
0 0 0
0 0 0
0 0 0
1 0 0
3 2 2
3 3 2
1 0 0
0 0 0
1 0 1
4 0 0
0 0 0
7 7 6
6 8 16
99 99 0
252 250 3
164 170 1
0 0 2
5 6 2
2 3 2
2 3 2
2 3 2
2 3 2
3 3 2
2 1 0
0 0 0
0 0 0
0 0 0
0 0 0
3 4 4
18 17 17
0 0 0
9 10 9
17 18 17
0 0 0
13 14 13
14 15 14
0 0 0
16 15 15
8 8 8
0 0 0
11 11 11
7 5 5
0 0 0
104 48 40
255 153 127
226 129 107
153 81 67
0 0 0
5 4 4
19 19 19
0 0 0
0 0 0
0 0 0
0 0 0
0 0 0
0 0 0
0 0 0
0 0 0
0 0 0
0 0 0
0 0 0
0 0 0
0 0 0
17 17 17
5 5 5
0 0 0
0 0 0
0 0 0
0 0 0
0 0 0
0 0 0
0 0 0
0 0 0
0 0 0
0 0 0
0 0 0
0 0 0
0 0 0
1 1 1
0 0 0
19 19 19
9 9 9
0 0 0
0 0 0
0 0 0
0 0 0
0 0 0
3 1 1
3 3 1
0 1 1
5 6 1
0 0 0
70 49 1
233 230 0
175 174 0
26 25 0
0 0 0
1 1 0
0 0 0
0 0 0
0 0 0
0 0 0
0 0 0
0 0 0
0 0 0
0 0 0
0 0 0
0 0 0
0 0 0
0 0 0
0 0 0
0 0 0
0 0 0
0 0 0
0 0 0
0 0 0
0 0 0
0 0 0
0 0 0
0 0 0
17 17 17
9 7 6
0 0 0
104 49 40
255 153 128
226 129 107
153 81 67
0 0 0
9 8 8
75 75 75
1 1 1
0 0 0
42 19 15
171 98 81
178 101 83
177 100 83
177 100 83
177 100 83
177 100 83
180 102 85
59 30 24
0 0 0
0 0 0
69 69 69
20 19 19
0 0 0
10 5 4
146 84 70
183 103 86
175 98 81
174 97 80
174 97 80
175 97 81
174 97 80
174 97 80
173 97 80
181 101 83
84 38 31
0 0 0
0 0 0
63 63 63
29 29 29
0 0 0
3 0 0
142 73 60
161 94 78
17 6 4
0 0 2
34 0 17
106 0 2
9 1 18
0 0 0
71 36 21
183 108 81
162 84 80
167 90 80
176 99 80
174 97 80
174 97 80
174 97 80
175 97 81
180 101 84
165 95 79
27 14 11
0 0 0
1 1 1
0 0 0
1 1 1
0 0 0
34 16 13
170 95 79
179 101 84
177 100 83
177 100 83
177 100 83
176 100 83
182 101 83
67 30 24
0 0 0
0 0 0
69 69 69
24 22 22
0 0 0
105 49 40
255 153 128
226 129 107
153 81 67
0 0 0
4 3 2
0 0 0
3 3 2
0 0 0
167 85 70
255 223 192
251 208 180
255 211 181
255 211 181
255 211 181
252 208 178
255 224 193
201 119 99
0 0 0
1 3 2
0 0 0
4 2 2
0 0 0
101 40 32
255 210 179
252 211 181
255 216 186
255 225 194
255 224 193
255 224 193
255 224 193
255 224 193
253 221 190
255 237 204
223 145 121
7 0 0
0 2 2
1 0 0
3 1 1
0 0 0
76 24 18
255 197 168
255 221 190
113 40 26
68 57 75
175 136 209
251 49 54
140 145 231
44 11 11
176 99 83
255 236 207
252 223 190
255 226 193
255 224 193
255 224 193
255 224 193
255 225 194
255 219 189
251 208 179
255 221 190
146 72 59
0 0 0
4 3 2
0 0 0
3 3 2
0 0 0
160 83 68
255 222 191
251 209 179
255 211 181
255 211 181
255 211 181
253 208 179
255 224 193
204 121 101
0 0 0
0 3 2
0 0 0
4 2 1
0 0 0
104 48 39
255 153 128
226 129 107
153 81 67
0 0 0
9 8 7
67 67 67
3 3 2
0 0 0
166 86 71
255 207 178
240 192 165
243 195 167
243 195 167
243 195 167
241 192 164
252 208 178
201 117 97
0 0 0
0 0 0
63 63 63
21 19 18
0 0 0
106 42 33
255 196 167
242 200 172
228 166 141
191 111 92
195 116 96
194 115 96
194 115 96
194 115 96
192 114 95
203 120 100
98 52 43
0 0 0
0 0 0
57 57 57
29 27 27
0 0 0
82 27 21
254 187 159
254 204 175
136 46 36
208 26 26
255 97 86
240 19 18
255 106 95
162 3 4
51 33 27
199 119 99
194 115 96
194 115 96
194 115 96
194 115 96
195 116 97
190 110 92
221 151 128
243 197 169
255 205 175
148 72 59
0 0 0
4 3 2
0 0 0
3 3 2
0 0 0
163 83 68
255 207 177
240 192 165
243 195 167
243 195 167
243 195 167
241 192 164
252 207 178
204 120 100
1 0 0
0 0 0
62 62 62
22 20 20
0 0 0
104 49 40
255 153 128
226 129 107
153 81 67
0 0 0
6 5 4
30 30 30
3 3 2
0 0 0
166 86 71
255 210 180
243 195 168
246 198 170
246 198 170
246 198 170
244 195 167
255 211 181
201 117 97
0 0 0
0 0 0
29 28 28
12 9 9
0 0 0
104 41 32
255 199 170
255 199 171
107 45 36
0 0 0
4 2 2
0 0 0
0 0 0
0 0 0
0 0 0
0 0 0
0 0 0
1 1 1
0 0 0
26 26 26
15 13 13
0 0 0
80 26 20
255 188 161
251 206 177
162 53 42
237 0 0
255 2 2
252 0 0
255 0 0
213 0 0
0 0 0
0 0 0
0 0 0
0 0 0
0 0 0
0 0 0
3 1 1
0 0 0
72 20 14
252 180 153
255 212 182
148 71 58
0 0 0
4 3 2
0 0 0
3 3 2
0 0 0
162 83 68
255 210 180
243 195 168
246 198 170
246 198 170
246 198 170
244 195 167
255 211 181
204 120 100
0 0 0
0 0 0
28 28 28
12 10 10
0 0 0
104 49 40
255 153 128
226 128 107
153 81 67
0 0 0
6 5 4
5 5 5
4 3 3
0 0 0
166 86 71
255 210 181
243 195 168
246 198 170
246 198 170
246 198 170
244 195 167
255 211 181
201 117 97
0 0 0
0 2 2
2 1 1
4 2 2
0 0 0
105 41 32
255 200 171
255 196 167
97 35 27
0 0 0
7 7 6
9 11 10
0 1 0
5 7 7
8 10 9
0 1 0
9 8 8
5 5 5
0 0 0
1 1 1
4 2 2
0 0 0
80 26 20
255 189 161
250 206 177
168 52 42
160 0 0
204 5 5
182 1 1
200 3 3
157 0 0
10 1 1
0 3 2
1 3 2
1 3 2
1 3 2
1 3 2
4 4 3
0 0 0
57 13 9
249 175 148
255 213 183
148 71 57
0 0 0
4 3 2
0 0 0
3 3 2
0 0 0
162 83 68
255 210 180
243 195 168
246 198 170
246 198 170
246 198 170
244 195 167
255 211 181
204 120 100
0 0 0
1 3 3
5 5 5
6 4 3
0 0 0
104 49 39
255 153 128
226 129 107
153 81 67
0 0 0
10 8 8
70 70 70
3 3 2
0 0 0
166 86 71
255 210 181
243 195 168
246 198 170
246 198 170
246 198 170
244 195 167
255 210 181
201 117 97
0 0 0
0 0 0
76 76 76
24 22 22
0 0 0
105 41 33
255 200 171
255 197 168
98 38 30
0 0 0
27 25 25
75 75 75
0 0 0
40 40 40
62 62 62
0 0 0
56 55 55
49 48 48
0 0 0
70 69 69
35 32 32
0 0 0
82 28 22
255 189 161
255 206 177
130 54 43
0 0 0
15 2 2
10 0 0
10 0 0
11 0 0
4 0 0
1 0 0
1 0 0
0 0 0
0 0 0
0 0 0
3 1 1
0 0 0
57 13 9
249 176 149
255 213 183
148 71 58
0 0 0
4 3 2
0 0 0
3 3 2
0 0 0
162 83 68
255 210 180
243 195 168
246 198 170
246 198 170
246 198 170
244 195 167
255 211 181
204 120 100
1 0 0
0 0 0
64 64 64
23 21 20
0 0 0
104 49 40
255 153 128
226 129 107
154 82 67
0 0 0
51 49 49
78 78 78
18 18 17
0 0 0
167 87 72
255 210 181
243 195 168
246 198 170
246 198 170
246 198 170
244 195 167
255 211 181
201 117 97
0 0 0
0 2 2
0 0 0
4 2 2
0 0 0
105 41 32
255 200 171
255 197 168
97 36 28
0 0 0
4 2 1
0 0 0
0 0 0
0 0 0
1 1 1
0 1 1
0 0 0
0 1 1
0 1 1
0 0 0
3 2 2
0 0 0
79 23 17
255 187 160
255 206 176
122 49 39
0 0 0
4 3 3
0 1 1
0 1 1
0 1 1
0 1 1
0 1 1
2 2 2
1 0 0
0 0 0
0 0 0
3 1 1
0 0 0
56 13 9
249 176 149
255 213 183
148 71 58
0 0 0
4 3 2
0 0 0
3 3 2
0 0 0
162 83 68
255 210 180
243 195 168
246 198 170
246 198 170
246 198 170
244 195 167
255 211 181
205 121 101
0 0 0
27 29 29
82 82 82
36 34 34
0 0 0
105 50 40
255 153 127
228 131 109
145 73 59
17 22 24
244 243 243
255 255 255
130 130 129
0 0 0
169 90 75
255 210 180
243 195 168
246 198 170
246 198 170
246 198 170
244 195 167
255 211 181
200 117 97
0 0 0
0 0 0
48 48 48
17 15 14
0 0 0
104 41 32
255 200 171
255 197 168
97 36 28
0 0 0
19 17 16
47 47 47
0 0 0
1 1 1
1 0 0
16 0 0
18 0 0
17 0 0
17 0 0
18 0 0
20 2 2
4 0 0
113 54 44
255 197 169
255 207 178
152 83 69
6 0 0
20 2 2
18 0 0
18 0 0
18 0 0
17 0 0
17 0 0
3 0 0
0 0 0
0 0 0
0 0 0
3 1 1
0 0 0
56 13 9
249 175 149
255 213 183
147 70 57
0 0 0
4 3 2
0 0 0
3 3 2
0 0 0
161 83 68
255 210 180
243 195 168
246 198 170
246 198 170
246 198 170
244 195 167
255 211 182
203 119 99
0 0 0
197 199 199
255 255 255
195 193 193
0 0 0
106 50 41
255 153 127
227 130 108
150 77 63
0 0 2
193 192 192
245 245 245
95 95 94
0 0 0
172 91 76
255 209 179
239 193 165
242 196 168
242 196 168
242 196 168
240 193 165
251 209 179
204 118 98
0 0 0
0 0 0
46 45 45
16 14 14
0 0 0
108 43 34
255 199 170
255 196 167
101 38 30
0 0 0
18 16 15
44 44 44
0 0 0
0 0 0
117 65 54
232 154 130
223 147 124
225 148 125
225 148 125
225 148 125
225 148 125
225 146 123
242 184 158
243 200 171
242 197 169
245 192 164
227 149 126
225 148 125
227 149 125
225 148 125
225 148 125
223 146 123
234 155 131
155 85 71
0 0 0
0 1 1
0 0 0
3 1 1
0 0 0
59 14 10
248 176 150
255 212 182
151 73 59
0 0 0
4 3 2
0 0 0
3 3 2
0 0 0
165 85 70
255 208 179
239 193 166
242 196 168
242 196 168
242 196 168
240 193 165
251 209 180
207 123 103
0 0 0
142 145 144
251 251 250
153 150 150
0 0 0
106 51 42
255 153 127
226 129 107
153 81 67
0 0 0
8 7 7
8 8 8
4 3 3
0 0 0
155 77 63
255 217 185
252 206 176
255 207 178
255 208 178
255 208 178
252 205 175
255 221 189
189 112 93
0 0 0
1 3 2
0 0 0
4 2 1
0 0 0
89 35 27
255 203 174
255 202 172
82 30 24
0 0 0
3 1 1
0 0 0
3 5 5
0 0 0
197 121 100
255 233 201
252 215 185
255 217 187
255 217 187
255 217 187
255 217 187
255 218 187
255 210 180
255 207 177
255 208 178
255 208 179
255 219 187
255 216 187
255 211 184
255 218 188
255 218 188
254 214 185
255 228 197
234 160 136
19 0 0
0 1 1
1 0 0
2 1 1
0 0 0
47 8 5
250 173 147
255 220 189
132 63 51
0 0 0
4 2 2
0 0 0
3 3 2
0 0 0
151 75 61
255 217 186
252 206 176
255 208 178
255 207 178
255 208 178
252 205 176
255 219 188
196 112 93
0 0 0
3 4 4
9 9 9
6 4 4
0 0 0
104 48 39
255 153 127
226 129 107
153 81 67
0 0 0
11 10 9
79 79 79
2 2 1
0 0 0
26 8 7
128 61 49
136 68 55
135 67 54
134 66 53
135 67 55
135 67 54
135 67 55
34 17 14
0 0 0
0 0 0
77 77 77
21 21 21
0 0 0
2 0 0
114 53 43
104 53 43
0 0 0
0 0 0
24 24 24
75 75 75
0 0 0
16 14 18
61 35 39
122 55 41
131 62 50
133 64 53
133 64 52
133 64 52
133 64 52
133 64 52
134 65 53
134 66 54
134 66 54
136 67 54
121 55 49
138 65 50
170 90 62
126 57 47
125 57 49
133 64 52
140 67 55
55 27 22
0 0 0
2 1 1
0 0 0
0 0 0
1 1 1
0 0 0
90 39 31
126 62 51
9 3 2
0 0 0
1 0 0
0 0 0
1 0 0
0 0 0
21 8 7
124 62 50
137 67 55
135 67 55
134 66 54
135 67 54
134 67 55
137 66 54
45 16 13
0 0 0
0 0 0
72 72 72
27 24 24
0 0 0
105 49 40
255 153 127
226 129 107
153 81 67
0 0 0
4 3 3
0 0 0
0 0 0
0 0 0
0 0 0
0 0 0
0 0 0
0 0 0
0 0 0
0 0 0
0 0 0
0 0 0
0 0 0
0 0 0
0 0 0
0 0 0
0 0 0
0 0 0
0 0 0
0 0 0
0 0 0
0 0 0
0 0 0
3 3 3
2 3 0
118 92 95
243 176 212
248 191 216
131 97 120
0 0 1
0 0 0
0 0 0
0 0 0
0 0 0
0 0 0
0 0 0
0 0 0
2 1 0
0 0 0
53 38 11
208 158 63
245 180 62
173 131 51
27 24 7
0 0 0
1 1 0
0 0 0
0 0 0
0 0 0
0 0 0
0 0 0
0 0 0
0 0 0
0 0 0
0 0 0
0 0 0
0 0 0
0 0 0
0 0 0
0 0 0
0 0 0
0 0 0
0 0 0
0 0 0
0 0 0
0 0 0
0 0 0
0 0 0
0 0 0
0 0 0
0 0 0
0 0 0
0 0 0
4 2 2
0 0 0
104 49 39
255 153 127
226 129 107
153 81 67
0 0 0
6 5 5
34 34 34
0 0 0
8 8 8
35 34 34
0 0 0
20 19 18
34 32 32
0 0 0
27 26 25
28 26 26
0 0 0
31 30 30
16 16 16
0 0 0
32 32 32
8 8 8
0 0 0
1 0 0
4 3 2
4 3 2
0 0 0
1 1 2
0 0 0
13 7 28
167 164 237
252 202 230
168 152 234
255 229 250
86 59 74
0 0 0
7 5 5
4 3 2
4 3 2
4 3 2
4 3 2
5 3 2
4 3 3
2 0 0
216 167 69
211 205 238
204 156 121
244 224 215
76 69 125
0 0 0
6 5 6
2 2 1
0 0 0
0 0 0
0 0 0
0 0 0
0 0 0
0 0 0
3 2 1
4 3 2
1 0 0
0 0 0
0 0 0
0 0 0
0 0 0
7 8 8
35 35 34
0 0 0
19 18 17
34 33 32
0 0 0
26 25 24
28 27 26
0 0 0
30 29 29
17 17 17
0 0 0
31 31 31
13 11 10
0 0 0
104 49 40
255 153 128
225 128 106
154 82 68
0 0 0
11 8 8
67 65 65
0 0 0
18 16 16
63 61 61
0 0 0
31 29 29
56 54 53
0 0 0
44 42 42
45 43 43
0 0 0
55 53 53
32 30 30
0 0 0
63 61 61
19 17 17
0 0 0
4 2 2
3 1 1
3 1 1
3 1 1
7 4 4
0 0 0
93 65 85
240 184 246
249 187 221
220 167 226
255 207 241
154 112 136
0 0 0
7 4 5
3 1 1
3 1 1
3 1 1
3 1 1
5 2 2
0 0 0
40 28 11
255 192 74
230 183 127
239 174 84
248 193 122
188 137 85
5 2 0
2 1 2
3 1 1
3 1 1
3 1 1
3 1 1
3 1 1
3 1 1
3 1 1
3 1 1
3 1 1
3 1 1
3 1 1
3 1 1
3 1 1
0 0 0
17 15 15
64 62 61
0 0 0
30 28 27
57 55 54
0 0 0
43 41 40
46 44 44
0 0 0
54 52 52
34 32 31
0 0 0
62 60 60
24 20 20
0 0 0
107 51 41
255 152 127
229 132 110
151 77 63
0 0 0
4 3 2
0 0 0
0 0 0
0 0 0
0 0 0
0 0 0
0 0 0
0 0 0
0 0 0
0 0 0
0 0 0
0 0 0
0 0 0
0 0 0
0 0 0
0 0 0
0 0 0
0 0 0
0 0 0
0 0 0
0 0 0
0 0 0
4 3 4
0 0 0
96 73 87
240 176 209
227 166 204
226 168 200
237 173 214
142 106 129
0 0 0
4 3 3
0 0 0
0 0 0
0 0 0
0 0 0
2 2 1
0 0 0
44 33 12
217 160 59
234 173 53
221 164 57
240 175 55
192 143 46
3 2 2
0 0 0
0 0 0
0 0 0
0 0 0
0 0 0
0 0 0
0 0 0
0 0 0
0 0 0
0 0 0
0 0 0
0 0 0
0 0 0
0 0 0
0 0 0
0 0 0
0 0 0
0 0 0
0 0 0
0 0 0
0 0 0
0 0 0
0 0 0
0 0 0
0 0 0
0 0 0
0 0 0
0 0 0
4 2 1
0 0 0
102 45 36
255 155 129
201 109 90
210 145 123
62 23 18
74 33 27
75 34 28
72 32 25
73 32 26
74 34 28
72 32 25
73 33 27
74 34 27
71 31 25
74 33 27
74 33 27
71 31 25
74 34 27
73 33 27
72 32 26
74 34 28
73 33 26
72 32 26
72 32 26
72 32 26
72 32 25
72 32 26
73 33 27
67 28 21
103 54 53
103 54 54
118 65 65
112 61 61
108 58 57
108 58 57
70 31 24
73 32 26
72 32 26
72 32 26
72 32 26
72 32 26
73 33 25
67 29 25
93 47 32
104 55 34
119 66 40
108 58 36
115 63 39
106 56 36
80 38 28
70 31 26
72 32 26
72 32 25
72 32 26
72 32 26
72 32 26
72 32 25
72 32 26
72 32 26
72 32 26
72 32 25
72 32 26
72 32 26
72 32 25
72 32 26
73 32 26
74 34 27
72 32 25
73 33 27
74 34 27
71 31 26
73 33 27
74 33 27
72 31 25
74 34 27
73 33 27
72 32 26
74 34 28
75 35 28
59 20 15
176 118 100
237 147 123
40 12 9
204 127 106
255 154 129
253 146 122
255 148 123
255 147 122
255 147 123
255 147 123
255 147 123
255 147 123
255 147 123
255 147 123
255 147 123
255 148 123
255 148 123
255 148 123
255 147 123
255 147 123
255 148 123
255 147 123
255 147 123
255 147 123
255 148 123
255 147 123
255 148 123
255 148 123
255 148 124
249 143 117
247 142 117
245 140 114
246 141 115
246 142 116
247 143 116
255 148 123
255 147 123
255 147 123
255 147 123
255 147 123
255 147 123
255 148 123
255 148 123
251 145 122
247 143 121
244 140 120
246 142 121
245 141 120
247 142 120
254 146 123
255 148 123
255 148 123
255 148 123
255 148 123
255 147 123
255 147 123
255 147 123
255 147 123
255 147 123
255 148 123
255 147 122
255 148 123
255 148 123
255 147 123
255 147 123
255 147 123
255 148 123
255 147 123
255 147 123
255 147 123
255 148 123
255 148 123
255 148 123
255 147 123
255 148 123
255 147 123
255 147 123
255 147 123
254 146 122
255 151 126
225 138 116
68 29 23
