35 25 5
102 77 123
120 92 182
121 92 171
121 92 173
121 92 173
121 92 173
121 92 173
121 92 173
121 92 173
121 92 173
121 92 173
121 92 173
121 92 173
121 92 173
121 92 173
121 92 173
121 92 173
121 92 173
121 92 173
121 92 173
121 92 173
121 92 173
121 92 173
121 92 173
121 92 173
121 92 173
121 92 173
121 92 173
121 92 173
121 92 173
121 92 173
121 92 173
121 92 173
121 92 173
121 92 173
121 92 173
121 92 173
121 92 173
121 92 173
121 92 173
121 92 173
121 92 173
121 92 173
121 92 173
121 92 173
121 92 173
121 92 173
121 92 173
121 92 173
121 92 173
121 92 173
121 92 173
121 92 173
121 92 173
121 92 173
121 92 173
121 92 173
121 92 173
121 92 173
121 92 173
121 92 173
121 92 173
121 92 173
121 92 173
121 92 173
121 92 173
121 92 173
121 92 173
121 92 173
121 92 173
121 92 173
121 92 173
121 92 173
121 92 173
121 92 173
121 92 171
121 92 179
108 81 144
51 37 20
110 83 125
85 68 206
76 56 75
72 54 78
74 56 80
73 54 78
73 54 78
74 56 80
73 54 78
74 55 79
74 56 79
73 53 78
74 55 79
74 55 79
73 53 78
74 56 79
74 55 79
73 54 78
74 56 80
73 55 78
73 54 78
74 56 80
73 54 78
73 54 78
74 56 80
73 54 78
73 55 79
74 56 80
73 54 78
74 55 79
74 56 79
73 53 78
74 55 79
74 55 79
73 54 78
74 56 79
74 55 79
73 54 78
74 56 80
73 54 78
73 54 78
74 56 80
73 54 78
73 54 78
74 56 80
73 54 78
73 55 79
74 56 79
73 54 78
74 55 79
74 55 79
73 53 78
74 56 79
74 55 79
73 54 78
74 56 80
73 55 79
73 54 78
74 56 80
73 54 78
73 54 78
74 56 80
73 54 78
73 54 78
74 56 80
73 54 78
74 55 79
74 56 79
73 53 78
74 55 79
74 55 79
73 53 78
74 56 79
74 55 79
73 54 78
74 56 80
73 54 80
75 55 68
79 63 183
118 90 168
113 91 174
91 69 106
0 0 0
1 1 3
0 0 0
0 0 0
0 0 0
0 0 0
0 0 0
0 0 0
0 0 0
0 0 0
0 0 0
0 0 0
0 0 0
0 0 0
0 0 0
0 0 0
0 0 0
0 0 0
0 0 0
0 0 0
0 0 0
0 0 0
0 0 0
0 0 0
0 0 0
0 0 0
0 0 0
0 0 0
0 0 0
0 0 0
0 0 0
0 0 0
0 0 0
0 0 0
0 0 0
0 0 0
0 0 0
0 0 0
0 0 0
0 0 0
0 0 0
0 0 0
0 0 0
0 0 0
0 0 0
0 0 0
0 0 0
0 0 0
0 0 0
0 0 0
0 0 0
0 0 0
0 0 0
0 0 0
0 0 0
0 0 0
0 0 0
0 0 0
0 0 0
0 0 0
0 0 0
0 0 0
0 0 0
0 0 0
0 0 0
0 0 0
0 0 0
0 0 0
0 0 0
0 0 0
0 0 0
0 0 0
0 0 0
0 0 0
3 2 2
0 0 0
74 55 64
123 98 204
118 90 168
91 68 109
0 0 0
7 7 10
50 50 51
0 0 0
13 13 14
47 47 48
0 0 0
23 23 24
42 41 42
0 0 0
33 33 34
34 33 34
0 0 0
41 41 42
24 24 25
0 0 0
47 47 48
14 14 15
0 0 0
50 50 51
5 5 6
7 7 8
50 49 50
0 0 0
16 16 17
46 46 47
0 0 0
26 26 27
40 39 40
0 0 0
35 35 36
31 31 32
0 0 0
43 43 44
21 21 22
0 0 0
48 48 49
11 11 12
1 1 2
50 50 51
2 2 3
9 9 10
49 49 50
0 0 0
19 19 20
44 44 45
0 0 0
29 29 30
37 37 38
0 0 0
38 38 39
28 28 29
0 0 0
45 45 46
18 18 19
0 0 0
49 49 50
8 8 9
3 3 4
50 50 51
0 0 1
12 12 13
48 48 49
0 0 0
22 22 23
42 42 43
0 0 0
32 32 33
35 34 35
0 0 0
40 40 41
25 25 26
0 0 0
47 46 47
18 17 18
0 0 0
73 54 68
129 99 200
118 90 170
91 68 108
0 0 0
5 5 7
53 53 53
0 0 0
12 12 12
50 50 50
0 0 0
25 24 24
43 43 43
0 0 0
34 34 34
35 35 35
0 0 0
43 43 43
26 25 25
0 0 0
52 51 52
16 15 15
0 0 0
55 54 55
6 5 5
7 7 6
52 52 52
0 0 0
16 16 16
49 49 49
0 0 0
26 26 26
42 42 42
0 0 0
40 39 39
35 34 34
0 0 0
48 47 48
24 23 23
0 0 0
54 53 53
13 12 12
2 1 1
56 55 55
3 2 2
11 10 10
54 53 54
0 0 0
22 21 21
49 48 49
0 0 0
31 31 30
38 38 38
0 0 0
40 40 40
29 29 29
0 0 0
47 47 47
20 19 19
0 0 0
55 54 54
10 9 9
4 3 3
56 55 55
1 0 0
13 13 12
50 50 50
0 0 0
22 22 22
45 45 45
0 0 0
32 33 33
37 37 36
0 0 0
43 43 42
25 25 25
0 0 0
50 50 50
17 16 17
0 0 0
72 54 66
129 99 201
119 90 170
91 68 108
0 0 0
2 2 4
1 1 1
0 0 0
0 0 0
0 0 0
0 0 0
0 0 0
0 0 0
0 0 0
0 0 0
0 0 0
0 0 0
0 0 0
0 0 0
0 0 0
0 0 0
0 0 0
0 0 0
0 0 0
0 0 0
0 0 0
0 0 0
0 0 0
0 0 0
0 0 0
0 0 0
0 0 0
0 0 0
0 0 0
0 0 0
0 0 0
0 0 0
0 0 0
0 0 0
0 0 0
0 0 0
0 0 0
0 0 0
0 0 0
0 0 0
0 0 0
0 0 0
0 0 0
0 0 0
0 0 0
0 0 0
0 0 0
0 0 0
0 0 0
0 0 0
0 0 0
0 0 0
0 0 0
0 0 0
0 0 0
0 0 0
0 0 0
0 0 0
0 0 0
0 0 0
0 0 0
0 0 0
0 0 0
0 0 0
0 0 0
0 0 0
0 0 0
0 0 0
0 0 0
0 0 0
0 0 0
1 1 1
1 1 1
3 2 3
0 0 0
72 53 66
129 99 201
119 90 170
90 68 108
0 0 0
8 8 10
75 75 75
1 1 1
0 0 0
14 11 5
77 56 51
46 33 25
0 0 0
0 0 0
51 51 51
52 52 52
0 0 0
0 0 0
44 32 23
79 58 57
76 56 55
76 56 54
75 55 54
76 57 55
78 57 57
61 44 36
4 3 0
0 0 0
24 24 24
74 74 74
0 0 0
0 0 0
27 20 12
77 56 53
76 56 55
77 57 54
77 56 51
78 58 54
78 57 53
77 56 52
79 58 54
77 56 52
77 56 52
79 58 54
77 56 52
77 56 52
79 58 54
77 56 52
77 57 53
76 56 55
79 58 56
39 29 20
0 0 0
0 0 0
59 59 59
43 43 43
0 0 0
0 1 0
50 37 28
79 58 57
76 56 55
75 55 54
75 55 54
76 56 55
78 57 57
56 41 32
2 2 0
0 0 0
33 33 33
67 67 67
0 0 0
0 0 0
33 24 16
81 59 54
25 18 11
0 0 1
0 0 0
68 68 68
24 23 23
0 0 0
72 54 67
129 99 201
119 90 170
91 68 108
0 0 0
21 21 23
47 47 47
5 5 7
0 0 0
95 70 89
61 54 255
98 77 193
36 26 2
0 0 0
3 3 2
3 3 2
0 0 0
35 24 1
100 79 192
52 48 255
60 53 252
59 52 254
59 52 254
60 52 253
53 48 255
86 71 236
67 48 35
0 0 0
3 2 2
3 2 2
0 0 2
8 5 0
102 77 136
58 52 255
60 53 250
52 47 254
48 46 255
49 46 255
49 46 255
49 46 255
49 46 255
49 46 255
49 46 255
49 46 255
49 46 255
49 46 255
49 46 255
49 46 255
50 47 255
60 53 250
53 49 255
102 79 176
26 18 0
0 0 1
3 3 2
3 3 2
0 0 0
45 32 10
97 77 209
52 47 255
60 53 252
59 52 254
59 52 254
60 53 252
52 48 255
92 74 224
56 40 21
0 0 0
3 3 2
3 2 2
0 0 2
17 11 0
103 79 153
55 51 255
103 78 130
5 3 0
6 7 11
48 48 48
18 17 18
0 0 0
72 54 66
129 99 201
120 92 172
85 63 102
20 21 6
224 224 226
255 255 255
114 114 118
0 0 0
105 82 120
20 26 255
80 67 216
52 39 12
0 0 0
20 19 19
20 20 19
0 0 0
51 37 10
82 68 217
19 24 255
32 33 250
30 32 252
30 32 252
31 32 252
24 27 252
55 50 254
82 62 53
0 0 0
11 10 11
27 26 26
0 0 0
19 14 0
98 78 164
22 27 255
27 30 251
60 52 237
74 62 223
72 60 225
72 60 225
72 60 225
72 60 225
72 60 225
72 60 225
72 60 225
72 60 225
72 60 225
72 60 225
73 61 223
66 56 233
30 32 252
19 24 255
88 72 203
41 30 2
0 0 0
23 22 22
17 17 16
0 0 0
62 46 22
73 62 232
20 25 255
32 33 251
30 32 252
30 32 252
31 33 251
22 26 254
64 56 244
72 54 37
0 0 0
14 14 13
25 25 24
0 0 0
30 22 0
96 77 181
12 20 255
101 80 158
12 7 0
170 172 177
255 255 255
178 177 178
0 0 0
74 55 68
129 99 201
120 92 172
85 62 102
22 23 8
229 229 231
255 255 255
127 127 131
0 0 0
106 80 116
29 31 255
85 69 213
52 37 11
0 0 0
44 44 43
45 45 44
0 0 0
50 36 10
85 69 212
27 30 255
39 38 246
37 37 248
37 37 248
38 37 247
31 33 248
61 53 249
81 59 52
0 0 0
22 22 22
62 62 62
0 0 0
19 13 0
102 78 159
23 27 255
77 63 213
75 54 34
46 32 10
53 39 17
52 37 15
51 36 14
53 38 16
51 36 14
51 36 14
53 38 16
51 36 14
51 36 14
53 39 17
48 34 13
65 46 17
88 69 184
21 26 255
94 74 197
40 29 2
0 0 0
51 51 50
38 37 37
0 0 0
61 44 22
77 64 227
28 31 253
38 38 247
37 37 248
37 37 248
38 38 247
29 32 250
69 59 239
72 52 36
0 0 0
30 30 29
57 57 57
0 0 0
29 21 0
99 77 177
21 26 255
104 80 154
12 6 0
176 177 182
255 255 255
190 189 190
0 0 0
73 54 67
129 99 201
119 90 170
91 68 108
0 0 0
24 24 26
34 34 34
6 6 9
0 0 0
103 77 114
27 31 255
85 69 214
51 36 10
0 0 0
2 1 1
2 1 1
0 0 0
47 34 7
92 75 214
23 28 255
36 36 253
34 35 255
34 35 255
35 36 254
27 30 255
66 58 253
82 60 49
0 0 0
3 2 2
1 0 0
0 0 3
18 12 0
103 79 158
19 25 255
101 80 171
26 19 0
0 0 2
1 1 0
0 0 0
0 0 0
0 0 0
0 0 0
0 0 0
0 0 0
0 0 0
0 0 0
0 0 0
0 0 3
7 5 0
105 82 130
22 27 255
93 74 197
39 27 0
0 0 0
2 1 1
2 2 1
0 0 0
59 43 19
84 70 229
24 28 255
36 36 253
34 35 255
34 35 255
35 36 254
25 29 255
76 64 242
71 52 33
0 0 0
3 2 2
1 1 0
0 0 1
28 19 0
99 77 178
19 26 255
104 80 155
14 8 0
9 10 15
37 37 37
16 15 15
0 0 0
72 54 66
129 99 201
119 90 170
90 68 108
0 0 0
7 7 9
65 65 65
0 0 3
0 0 0
103 77 113
27 31 255
85 69 214
52 38 12
0 0 0
48 47 47
47 47 47
0 0 0
4 3 0
77 57 76
98 74 141
95 72 133
95 72 134
95 72 134
95 72 133
96 73 139
91 68 106
18 13 5
0 0 0
22 22 22
68 67 67
0 0 0
19 14 0
103 79 158
19 26 255
99 77 176
30 21 0
0 0 0
64 63 62
31 30 30
0 0 0
72 71 71
16 15 15
0 0 0
75 74 74
2 1 1
13 12 12
72 72 71
0 0 0
10 6 0
104 78 136
22 27 255
93 73 197
41 29 2
0 0 0
56 55 55
39 39 39
0 0 0
8 6 0
82 61 87
97 74 141
95 72 133
95 72 134
95 72 134
95 72 133
96 73 140
87 65 97
13 9 1
0 0 0
31 30 30
62 62 62
0 0 0
30 21 0
99 77 178
19 26 255
103 79 155
18 13 0
0 0 0
61 60 60
21 20 20
0 0 0
72 54 67
129 99 201
119 90 170
91 68 108
0 0 0
4 4 6
22 22 22
0 0 4
0 0 0
103 77 113
27 31 255
85 69 214
51 36 11
0 0 0
14 14 13
13 13 13
0 0 0
0 0 0
1 1 0
5 3 0
2 1 0
4 2 0
5 3 0
2 1 0
5 3 0
3 2 0
0 0 0
0 0 0
6 6 6
18 18 18
0 0 0
18 12 0
103 79 158
19 25 255
100 77 175
27 18 0
0 0 0
17 17 17
8 8 8
0 0 0
24 24 23
6 5 8
0 0 3
25 25 25
0 0 0
3 3 3
19 19 19
0 0 2
7 5 0
104 79 134
22 27 255
93 73 197
40 28 1
0 0 0
16 15 15
10 10 10
0 0 0
0 0 0
2 1 0
5 3 0
2 1 0
5 3 0
5 3 0
2 1 0
5 3 0
2 1 0
0 0 0
0 0 0
8 8 8
17 17 17
0 0 0
29 20 0
99 77 178
19 26 255
104 79 155
16 11 0
0 0 1
21 21 21
9 8 9
0 0 0
72 53 66
129 99 201
119 90 170
91 68 108
0 0 0
2 2 4
11 11 11
0 0 3
0 0 0
103 77 113
27 31 255
85 69 214
51 36 10
0 0 0
9 8 7
7 7 7
0 0 0
14 14 13
9 9 10
0 0 0
15 15 19
4 4 7
0 0 2
16 16 20
1 1 4
2 2 4
17 17 17
0 0 0
3 3 3
10 10 10
0 0 1
18 12 0
103 79 158
19 25 255
100 77 175
26 18 0
0 0 0
10 10 9
4 4 4
0 0 0
0 0 0
0 0 0
0 0 0
0 0 0
0 0 0
2 2 2
10 10 10
0 0 3
7 4 0
104 79 134
22 27 255
93 73 197
39 28 1
0 0 0
9 9 8
6 6 6
0 0 0
15 15 15
7 6 8
0 0 1
16 16 19
2 2 5
0 0 3
16 16 20
0 0 2
4 4 6
16 16 16
0 0 0
5 5 5
10 9 9
0 0 0
28 20 0
99 77 178
19 26 255
103 79 155
16 11 0
0 0 2
10 10 10
6 5 5
0 0 0
72 53 66
129 99 201
119 90 170
91 68 108
0 0 0
7 7 9
79 79 79
0 0 3
0 0 0
103 77 113
28 31 255
84 68 214
53 39 14
0 0 0
51 50 49
53 52 52
0 0 0
62 62 62
35 35 35
0 0 0
73 73 73
20 20 20
0 0 0
76 76 76
6 5 5
9 8 8
76 76 76
0 0 0
23 23 23
72 72 72
0 0 0
19 14 0
103 79 158
19 25 255
100 77 175
28 20 0
0 0 0
67 67 67
31 31 30
0 0 0
9 7 0
83 62 86
93 69 103
20 14 7
0 0 0
14 14 14
77 77 77
0 0 0
8 5 0
104 79 134
22 27 255
93 73 197
41 29 2
0 0 0
59 59 58
43 43 43
0 0 0
68 68 68
27 26 26
0 0 0
75 75 75
10 10 10
2 2 2
79 79 79
0 0 0
16 16 16
73 73 73
0 0 0
34 33 33
66 65 65
0 0 0
31 22 0
98 77 179
20 26 255
103 79 155
18 12 0
0 0 0
73 73 72
24 23 24
0 0 0
72 54 67
129 99 201
119 90 170
90 68 108
0 0 0
1 1 3
0 0 0
0 0 3
0 0 0
103 77 113
27 31 255
86 71 211
51 38 8
0 0 0
2 2 1
0 0 0
0 0 0
0 0 1
0 0 0
0 0 0
0 0 0
0 0 0
0 0 0
0 0 1
0 0 1
0 0 1
0 0 1
0 0 0
0 0 0
1 0 0
0 0 3
18 12 0
103 79 158
19 25 255
100 77 175
26 18 0
0 0 2
1 1 0
3 2 2
0 0 0
72 52 33
72 62 242
52 48 255
92 68 67
0 0 0
2 2 3
0 0 0
0 0 3
7 4 0
104 79 134
22 27 255
93 73 197
39 27 0
0 0 0
2 1 1
0 0 0
0 0 0
0 0 0
0 0 1
0 0 1
0 0 1
0 0 0
0 0 0
0 0 0
0 0 0
0 0 0
0 0 1
0 0 1
0 0 0
1 1 0
0 0 2
28 20 0
100 80 175
19 25 255
104 79 155
16 11 0
0 0 3
0 0 0
3 2 2
0 0 0
72 53 66
129 99 201
119 90 170
91 68 108
0 0 0
6 6 8
61 61 61
0 0 3
0 0 0
102 76 113
32 34 255
65 55 235
82 60 49
35 24 0
44 31 8
43 30 6
42 29 4
9 6 1
0 1 2
0 0 0
57 57 57
15 15 15
0 0 0
0 0 1
32 22 3
31 21 3
0 0 1
0 0 0
18 18 18
56 56 56
0 0 0
19 13 0
103 79 157
20 26 255
100 77 174
27 19 0
0 0 0
52 52 52
26 25 25
0 0 0
74 54 39
63 55 240
43 41 255
91 68 74
0 0 0
12 12 13
60 60 59
0 0 0
8 5 0
104 79 133
23 28 255
93 73 196
40 29 2
0 0 0
46 46 45
32 32 32
0 0 0
0 0 1
23 16 2
38 26 4
2 2 0
0 0 0
4 4 4
61 61 61
1 1 1
0 0 0
4 3 0
38 26 4
43 30 6
44 31 7
36 25 1
70 50 24
80 65 210
22 27 255
103 79 155
17 12 0
0 0 0
57 56 56
19 19 19
0 0 0
72 54 66
129 99 201
119 90 170
91 68 108
0 0 0
4 4 6
39 39 39
0 0 3
0 0 0
99 76 117
34 35 255
26 29 250
58 51 234
82 66 207
78 64 210
78 64 208
82 66 218
84 63 94
2 1 0
0 0 0
36 36 36
11 11 11
0 0 0
48 35 22
94 74 194
95 74 190
45 32 18
0 0 0
13 12 12
36 35 35
0 0 0
19 14 0
100 79 160
14 21 255
97 77 177
28 20 0
0 0 0
33 33 33
18 17 17
0 0 0
74 54 38
65 56 242
44 42 255
92 68 72
0 0 0
9 8 9
38 38 38
0 0 1
8 6 0
102 79 136
17 23 255
89 72 198
41 30 2
0 0 0
30 29 29
21 21 21
0 0 0
28 20 2
96 74 160
91 73 216
65 48 47
0 0 0
4 4 4
39 39 39
2 1 3
0 0 0
72 53 62
87 69 211
77 63 210
79 64 210
81 66 207
66 56 227
29 31 250
25 28 255
99 77 160
18 13 0
0 0 0
36 36 36
13 12 13
0 0 0
72 53 66
129 99 201
119 90 170
90 68 108
0 0 0
1 1 3
0 0 0
1 1 3
0 0 0
97 73 98
60 54 255
51 47 253
47 44 255
42 41 255
43 41 255
43 41 251
42 41 255
108 81 143
9 6 0
0 0 3
0 0 0
3 2 3
0 0 0
87 66 59
45 44 255
49 46 255
84 64 53
0 0 0
3 2 2
0 0 0
0 0 3
10 7 0
105 80 140
46 45 255
105 81 157
17 12 0
0 0 2
1 0 0
3 2 2
0 0 0
74 53 37
65 56 242
44 42 255
92 68 72
0 0 0
2 2 3
0 0 0
0 0 3
2 0 0
103 77 116
48 47 255
102 79 181
29 20 0
0 0 1
1 1 0
2 2 1
0 0 0
62 47 22
72 62 230
24 29 255
101 78 99
0 0 0
1 1 3
0 0 0
1 1 3
0 0 0
102 75 101
53 49 255
41 39 252
43 41 255
43 41 255
45 43 255
53 48 252
51 48 255
104 79 140
9 6 0
0 0 3
0 0 0
3 2 2
0 0 0
72 53 66
129 99 201
119 90 170
91 68 108
0 0 0
8 7 10
83 83 83
1 0 0
0 0 0
20 15 8
81 59 63
83 61 72
84 62 70
84 62 67
85 63 69
84 62 69
87 64 67
31 22 14
0 0 0
0 0 0
77 77 77
23 23 23
0 0 0
85 62 57
54 48 253
57 51 249
82 59 51
0 0 0
27 26 26
75 75 75
0 0 0
0 0 0
33 24 17
89 65 71
38 28 21
0 0 0
0 0 0
70 70 70
35 34 34
0 0 0
75 54 38
65 56 242
44 42 255
92 68 73
0 0 0
16 15 17
80 80 80
0 0 0
0 0 0
25 18 11
88 64 70
46 33 28
0 0 0
0 0 0
61 60 60
46 45 44
0 0 0
61 44 22
77 64 224
36 36 255
98 73 95
0 0 0
6 6 8
83 83 83
2 1 1
0 0 0
19 13 7
82 60 60
85 63 70
85 63 69
84 62 68
84 63 69
82 61 71
85 62 69
32 23 16
0 0 0
0 0 0
76 76 76
25 24 25
0 0 0
72 54 67
129 99 201
119 90 170
90 68 108
0 0 0
1 1 3
0 0 0
0 0 0
0 0 0
0 0 0
0 0 0
0 0 0
0 0 0
0 0 0
0 0 0
0 0 0
0 0 0
0 0 0
0 0 0
0 0 0
0 0 0
3 2 3
0 0 0
85 62 57
52 48 255
56 50 252
82 60 51
0 0 0
3 2 2
0 0 0
0 0 0
0 0 0
0 0 0
0 0 0
0 0 0
0 0 0
0 0 0
0 0 0
3 2 2
0 0 0
74 53 37
65 56 242
44 42 255
92 68 72
0 0 0
2 2 3
0 0 0
0 0 0
0 0 0
0 0 0
0 0 0
0 0 0
0 0 0
0 0 0
0 0 0
2 2 1
0 0 0
61 43 20
77 64 227
34 35 255
99 74 96
0 0 0
1 1 3
0 0 0
0 0 0
0 0 0
0 0 0
0 0 0
0 0 0
0 0 0
0 0 0
0 0 0
0 0 0
0 0 0
0 0 0
0 0 0
0 0 0
0 0 0
3 2 2
0 0 0
72 53 66
129 99 201
119 90 170
91 68 108
0 0 0
5 4 7
44 44 44
0 0 0
10 10 10
44 43 43
0 0 0
16 18 21
31 33 38
0 0 0
32 31 32
31 31 32
0 0 0
38 37 37
20 20 20
0 0 0
42 42 42
14 13 14
0 0 0
86 62 57
52 48 255
56 50 252
82 60 51
0 0 0
15 15 15
41 41 41
0 0 0
22 22 22
36 36 36
0 0 0
33 32 32
27 27 27
0 0 0
38 38 38
20 19 19
0 0 0
74 54 38
65 56 242
44 42 255
92 68 73
0 0 0
10 9 10
43 43 43
0 0 0
16 16 16
40 40 40
0 0 0
27 26 26
33 33 32
0 0 0
33 33 33
25 25 24
0 0 0
61 44 21
77 64 227
34 35 255
100 74 96
0 0 0
4 4 6
44 44 44
0 0 0
9 9 9
44 43 43
0 0 0
21 21 22
40 40 41
0 0 0
30 30 31
32 32 33
0 0 0
37 37 36
21 21 21
0 0 0
41 41 41
15 14 14
0 0 0
72 53 66
129 99 201
118 90 169
91 68 109
0 0 0
9 7 9
58 57 58
0 0 0
16 15 14
50 51 53
7 0 0
156 119 60
207 166 96
32 15 0
32 33 35
39 38 37
0 0 0
48 47 47
28 27 28
0 0 0
55 54 54
19 18 18
0 0 0
86 63 60
52 47 255
56 50 252
83 60 54
0 0 0
22 20 20
54 53 53
0 0 0
31 30 30
46 45 46
0 0 0
40 40 39
33 33 33
0 0 0
48 48 48
24 23 23
0 0 0
74 54 38
65 56 242
44 42 255
92 68 73
0 0 0
11 11 12
54 54 54
0 0 0
20 20 20
50 50 49
0 0 0
34 33 33
43 43 43
0 0 0
45 44 44
34 32 32
0 0 0
63 45 24
76 63 227
34 35 255
99 74 98
0 0 0
8 6 9
59 58 58
1 0 0
15 14 14
56 55 55
0 0 0
25 25 24
47 47 47
0 0 0
35 35 35
38 38 38
0 0 0
44 44 44
28 28 27
0 0 0
54 53 54
21 19 19
0 0 0
73 54 69
129 99 200
113 90 172
91 70 104
0 0 0
1 1 3
0 0 0
1 0 0
0 0 1
1 0 0
200 159 79
255 211 98
253 192 77
248 204 105
47 31 10
0 0 0
2 2 1
0 0 0
0 0 0
0 0 0
0 0 0
3 2 2
0 0 0
89 66 55
52 48 255
56 50 251
85 63 49
0 0 0
3 2 2
0 0 0
0 0 0
0 0 0
0 0 0
0 0 0
0 0 0
0 0 0
0 0 0
0 0 0
3 2 2
0 0 0
74 53 37
65 56 242
44 42 255
92 68 72
0 0 0
2 2 3
0 0 0
0 0 0
0 0 0
0 0 0
0 0 0
0 0 0
0 0 0
0 0 0
0 0 0
3 2 1
0 0 0
64 46 19
78 65 226
33 35 255
103 77 93
0 0 0
1 1 3
0 0 0
0 0 0
0 0 0
0 0 0
0 0 0
0 0 0
0 0 0
0 0 0
0 0 0
0 0 0
0 0 0
0 0 0
0 0 0
0 0 0
0 0 0
3 2 2
0 0 0
74 56 62
123 98 203
115 86 135
86 69 201
69 50 57
64 48 62
66 50 64
71 52 64
37 27 27
69 48 2
217 192 177
197 180 188
226 186 134
200 193 227
139 104 34
14 9 8
81 59 49
75 55 48
75 55 48
74 54 47
76 56 49
74 54 49
76 55 39
87 68 150
37 37 255
38 38 255
88 68 145
75 54 38
74 54 49
76 56 49
74 54 47
75 55 48
75 55 48
77 56 47
30 22 12
0 0 0
1 0 0
2 2 2
4 3 3
0 0 0
73 52 37
65 56 241
45 43 255
91 67 71
0 0 0
3 2 3
2 2 2
1 0 0
0 0 0
19 13 6
74 54 43
75 55 49
75 55 48
73 53 47
76 56 48
75 55 50
72 52 38
91 68 114
47 44 252
30 32 255
81 65 181
80 58 45
73 53 48
76 56 49
74 54 47
74 54 47
75 55 48
78 57 49
44 32 20
0 0 0
0 0 0
49 49 49
53 53 53
0 0 0
0 0 0
40 29 19
69 51 61
66 49 64
65 49 64
67 49 51
79 63 173
122 93 180
40 28 9
94 71 131
115 89 181
118 90 172
120 91 169
112 87 192
83 65 210
142 109 42
243 182 91
229 166 89
242 177 73
236 173 107
190 146 38
86 66 161
51 48 255
53 49 252
52 48 255
52 48 255
52 48 255
52 48 255
52 48 255
35 35 255
35 35 252
35 35 252
35 36 255
52 48 255
52 48 255
52 48 255
52 48 255
52 48 255
53 48 252
48 46 255
103 79 158
17 11 0
0 0 2
1 0 0
3 2 2
0 0 0
75 57 39
57 52 246
37 38 255
93 72 75
0 0 0
2 2 3
0 0 0
0 0 3
1 0 0
101 75 116
55 51 255
51 47 252
52 48 255
52 48 255
52 48 255
52 48 255
53 49 255
38 38 255
33 34 252
36 36 252
33 34 254
50 47 255
52 48 255
52 48 255
52 48 255
52 48 255
53 49 253
44 43 255
97 77 202
41 29 5
0 0 0
5 4 4
5 5 4
0 0 0
31 22 0
102 79 187
102 80 206
121 92 167
117 90 173
118 90 179
98 75 151
55 40 26
0 0 0
6 4 0
15 10 0
15 10 1
5 3 0
53 37 11
106 84 200
114 85 59
170 120 33
157 122 52
188 151 75
155 110 34
131 95 26
81 62 134
70 59 242
69 58 227
69 58 230
69 58 230
69 58 230
69 58 230
71 59 231
43 41 251
34 35 253
34 34 253
44 41 250
71 59 230
69 58 230
69 58 230
69 58 230
69 58 230
69 58 227
68 58 242
96 73 132
11 7 0
0 0 2
0 0 0
2 1 1
0 0 0
45 32 15
95 75 197
78 65 226
61 44 39
0 0 0
2 1 2
0 0 0
0 0 3
0 0 0
88 66 95
73 61 239
68 57 228
69 58 230
69 58 230
69 58 230
68 58 230
71 60 229
50 45 246
32 33 254
36 36 252
37 37 253
68 58 233
69 58 229
69 58 230
69 58 230
69 58 230
70 58 228
64 55 239
96 75 173
31 22 2
0 0 0
17 16 16
19 18 17
0 0 0
41 31 11
116 92 203
68 48 41
4 2 0
16 11 2
15 10 0
9 6 0
0 0 0
1 1 1
1 1 3
0 0 2
2 1 3
0 0 0
38 27 10
125 96 197
60 44 42
0 0 0
36 35 35
63 63 63
0 0 0
0 1 2
20 14 3
56 40 17
55 40 20
55 40 19
54 39 18
56 41 20
55 40 21
53 38 8
92 70 121
40 39 255
42 40 255
92 69 115
53 38 8
54 39 20
54 39 18
54 39 18
54 39 18
54 39 18
56 40 18
18 13 2
0 0 0
1 0 0
0 0 0
0 0 0
0 0 0
0 0 0
40 27 10
43 30 15
0 0 0
0 0 0
0 0 0
0 0 0
0 0 0
0 0 0
10 7 0
53 38 15
54 39 19
54 39 18
54 39 18
54 39 18
55 40 20
50 36 9
89 65 81
55 49 247
30 32 255
90 70 157
60 43 12
53 38 19
57 41 21
54 39 18
55 39 19
56 40 20
57 41 19
29 20 5
0 0 2
0 0 0
42 42 42
48 48 47
0 0 0
40 29 12
124 96 197
59 43 40
0 0 0
3 2 4
0 0 2
0 0 3
2 1 2
1 1 0
1 1 0
1 1 0
3 2 1
0 0 0
39 28 9
123 95 199
60 44 41
0 0 0
5 4 2
2 1 0
3 2 1
1 1 0
0 0 1
0 0 0
0 0 0
0 0 0
0 0 0
0 0 0
3 2 2
0 0 0
86 65 54
53 48 255
56 51 251
83 62 48
0 0 0
3 2 2
0 0 0
0 0 0
0 0 0
0 0 0
0 0 0
1 1 1
0 0 0
0 0 0
0 0 0
0 0 0
0 0 0
1 1 1
0 0 1
0 0 1
1 1 1
0 0 0
0 0 0
0 0 0
0 0 0
0 0 0
1 1 1
0 0 0
0 0 0
0 0 0
0 0 0
0 0 0
2 2 1
0 0 0
61 46 18
77 65 225
34 35 255
101 77 92
0 0 0
1 1 3
0 0 0
0 0 0
0 0 0
0 0 0
0 0 0
0 0 1
0 0 0
0 0 0
0 0 0
2 1 1
0 0 0
39 27 10
124 95 199
59 43 40
0 0 0
4 3 2
1 1 0
1 1 0
1 1 0
0 0 1
0 0 1
0 0 1
2 1 2
0 0 0
38 27 9
125 96 197
59 44 42
0 0 0
33 33 32
60 60 60
0 0 0
45 45 45
47 47 47
0 0 0
59 59 58
34 34 33
0 0 0
68 68 67
22 21 21
0 0 0
86 63 60
52 47 255
56 50 252
82 60 53
0 0 0
5 4 3
2 2 1
2 2 1
2 2 1
2 2 1
2 2 1
1 1 0
0 0 0
0 0 0
0 0 0
0 0 0
0 0 0
0 0 0
1 1 1
2 2 1
0 0 0
0 0 0
0 0 0
0 0 0
0 0 0
0 0 0
0 0 0
2 2 1
2 2 1
2 2 1
2 2 1
2 2 1
4 4 2
0 0 0
61 44 23
76 63 227
34 35 255
99 74 98
0 0 0
7 7 9
73 72 72
0 0 0
17 17 16
69 69 68
0 0 0
30 30 30
59 59 59
0 0 0
45 45 45
49 48 48
0 0 0
40 29 12
124 96 197
59 43 40
0 0 0
3 2 3
0 0 1
0 0 1
0 0 1
14 9 0
16 11 0
16 11 0
18 12 1
7 5 0
52 36 11
115 91 204
60 46 42
0 0 0
14 13 13
22 22 22
0 0 0
17 17 17
19 19 19
0 0 0
23 23 23
12 12 12
0 0 0
22 22 22
8 8 8
0 0 0
85 62 57
52 48 255
56 50 252
82 60 51
0 0 0
3 2 2
0 0 0
0 0 0
0 0 0
2 2 2
1 1 4
1 1 4
1 1 4
1 1 4
1 1 4
2 1 3
3 2 2
3 2 3
3 2 3
4 2 3
3 2 3
3 2 3
2 2 3
1 1 4
1 1 4
1 1 4
1 1 4
1 1 4
2 2 3
1 0 0
0 0 0
0 0 0
2 2 1
0 0 0
61 43 20
77 64 227
34 35 255
99 74 96
0 0 0
3 2 5
23 23 23
0 0 0
6 6 6
27 26 26
0 0 0
13 12 14
23 23 22
0 0 0
17 17 17
19 19 18
0 0 0
41 31 11
116 91 204
68 49 42
7 4 0
18 13 2
16 11 0
16 11 0
16 11 0
103 78 151
122 93 179
118 91 174
119 91 176
121 92 171
109 85 193
100 79 212
50 36 18
0 0 0
2 2 1
0 0 0
0 0 0
0 0 0
0 0 0
0 0 0
0 0 0
0 0 0
0 0 0
7 7 7
5 4 4
0 0 0
85 62 57
52 48 255
56 50 252
82 60 51
0 0 0
3 2 2
0 0 0
0 0 0
0 0 0
0 0 0
0 0 0
0 0 0
0 0 0
0 0 0
0 0 0
0 0 0
0 0 0
0 0 0
0 0 0
0 0 0
0 0 0
0 0 0
0 0 0
0 0 0
0 0 0
0 0 0
0 0 0
0 0 0
0 0 0
0 0 0
0 0 0
0 0 0
2 2 1
0 0 0
61 43 20
77 64 227
34 35 255
99 74 96
0 0 0
2 1 4
8 8 8
0 0 0
0 0 0
0 0 0
0 0 0
0 0 0
0 0 0
0 0 0
0 0 0
1 1 1
0 0 0
30 21 0
101 79 184
103 81 208
122 93 169
119 91 176
119 91 175
119 91 175
119 91 175
53 40 50
64 47 59
62 46 58
62 46 58
61 45 58
65 48 59
49 35 25
0 0 0
0 0 1
1 0 0
1 1 1
1 0 1
0 0 0
55 40 43
101 75 114
44 32 30
0 0 0
0 0 0
74 74 74
23 22 23
0 0 0
85 62 57
53 48 252
57 50 249
81 59 51
0 0 0
3 2 2
0 0 0
0 0 1
4 3 0
100 73 69
90 68 125
96 73 123
96 73 124
97 73 123
92 70 128
115 86 107
114 81 84
93 66 100
98 69 97
97 69 97
95 67 99
107 76 88
121 89 99
92 71 128
97 74 123
96 73 124
97 74 123
87 67 126
107 78 86
19 13 1
0 0 0
1 1 0
2 2 1
0 0 0
60 43 20
77 63 224
35 36 255
98 73 95
0 0 0
6 6 8
80 80 80
2 2 2
0 0 0
29 21 15
97 73 108
69 51 62
0 0 0
0 0 1
1 1 1
1 1 1
1 1 0
0 0 0
38 27 16
67 49 57
61 45 58
62 46 58
62 46 58
62 46 58
62 46 58
0 0 0
0 0 0
0 0 0
0 0 0
0 0 0
0 0 0
0 0 0
1 0 0
0 0 0
0 0 0
1 1 0
0 0 2
26 18 0
105 81 176
29 33 255
109 83 145
11 7 0
0 0 3
0 0 0
3 2 3
0 0 0
88 66 58
48 46 255
52 49 255
85 63 52
0 0 0
3 2 2
1 0 0
0 0 2
17 12 0
107 86 170
109 84 181
99 74 114
96 72 126
97 72 123
92 69 128
115 85 107
113 81 84
92 66 99
97 69 96
96 69 96
94 67 98
106 76 87
121 88 99
92 70 128
97 73 123
97 72 125
95 71 117
110 83 158
110 89 202
37 27 2
0 0 0
2 1 1
2 2 1
0 0 0
63 46 21
76 64 230
27 32 255
103 78 98
0 0 0
1 1 3
0 0 0
1 1 3
0 0 0
104 78 103
38 39 255
92 74 213
49 35 9
0 0 0
2 1 1
0 0 0
0 0 0
0 0 0
0 0 1
0 0 0
0 0 0
0 0 0
0 0 0
0 0 0
0 0 0
3 2 2
3 2 2
3 2 2
3 2 2
3 2 2
3 2 2
2 2 1
0 0 0
0 0 0
0 0 0
1 1 0
0 0 1
30 21 0
96 75 181
18 24 255
102 78 152
16 11 0
0 0 0
54 54 54
16 16 15
0 0 0
34 24 13
97 75 157
96 74 153
30 22 10
0 0 0
1 1 1
1 0 0
0 0 2
14 9 0
113 87 169
87 67 88
0 0 0
2 2 3
0 0 0
0 0 0
0 0 0
0 0 0
0 0 0
0 0 0
0 0 0
0 0 0
0 0 0
0 0 0
0 0 0
0 0 0
3 2 2
0 0 0
67 51 47
121 94 191
31 22 2
0 0 0
1 1 1
1 1 0
0 0 0
16 11 0
91 69 126
99 77 177
50 36 31
0 0 0
5 5 5
58 58 58
1 1 4
0 0 0
101 76 111
26 30 255
81 66 216
53 38 13
0 0 0
2 2 1
0 0 0
0 0 0
0 0 0
1 1 1
3 2 2
3 2 2
3 2 2
3 2 2
3 2 2
3 2 2
2 2 3
2 2 3
2 2 3
2 2 3
2 2 3
2 2 3
2 2 3
2 2 3
2 2 3
2 2 3
3 3 3
0 0 4
31 21 0
98 76 181
20 26 255
104 79 151
15 10 0
0 0 0
39 39 39
11 11 11
0 0 0
0 0 0
15 10 0
15 10 0
0 0 0
0 0 0
0 0 0
1 0 0
0 0 2
14 9 0
115 88 171
84 63 96
0 0 0
3 3 7
1 1 4
1 1 4
2 1 3
3 2 2
3 2 3
3 2 3
3 2 3
3 2 3
3 2 3
2 2 3
1 1 4
1 1 4
4 3 6
0 0 0
65 48 55
122 94 195
32 22 2
0 0 0
2 1 1
0 0 0
0 0 0
0 0 0
11 7 0
19 13 0
0 0 0
0 0 0
3 3 3
42 42 42
1 1 4
0 0 0
102 76 109
29 32 255
83 68 216
53 38 14
0 0 0
4 3 4
2 2 3
2 2 3
2 2 3
2 2 3
2 2 3
2 2 3
2 2 3
2 2 3
2 2 3
2 2 3
0 0 0
0 0 0
0 0 0
0 0 0
0 0 0
0 0 0
0 0 0
0 0 0
0 0 0
0 0 0
1 1 0
0 0 1
33 24 0
99 78 181
19 25 255
104 79 151
14 9 0
0 0 3
0 0 0
0 0 0
0 0 0
1 1 1
0 0 2
0 0 2
1 1 1
0 0 0
0 0 0
1 0 0
0 0 2
14 9 0
115 88 171
85 64 93
0 0 0
2 2 3
0 0 0
0 0 0
0 0 0
0 0 0
0 0 0
0 0 0
0 0 0
0 0 0
0 0 0
0 0 0
0 0 0
0 0 0
3 2 2
0 0 0
65 48 52
123 94 195
32 22 2
0 0 0
2 1 1
0 0 0
0 0 0
1 1 0
1 1 2
0 0 2
1 1 1
0 0 0
0 0 0
0 0 0
0 0 3
0 0 0
102 76 110
29 32 255
83 68 217
57 41 11
0 0 0
2 2 1
0 0 0
0 0 0
0 0 0
0 0 0
0 0 0
0 0 0
0 0 0
0 0 0
0 0 0
0 0 0
73 54 62
87 65 74
85 63 72
85 63 72
85 63 72
85 63 72
85 63 72
85 63 72
85 63 72
85 63 72
85 63 73
84 62 66
93 69 105
54 48 238
26 30 255
103 78 153
16 11 0
0 0 0
77 77 77
21 21 21
0 0 0
1 1 1
1 1 0
1 1 0
0 0 0
0 0 0
0 0 0
1 0 0
0 0 2
14 9 0
115 88 171
85 65 95
0 0 0
2 1 3
0 0 0
0 0 0
0 0 0
0 0 0
0 0 0
0 0 0
0 0 0
0 0 0
0 0 0
0 0 0
0 0 0
0 0 0
3 2 2
0 0 0
66 48 52
123 94 195
32 22 2
0 0 0
2 1 1
0 0 0
0 0 0
0 0 0
0 0 0
1 1 0
0 0 0
0 0 0
5 5 5
83 83 83
1 1 4
0 0 0
101 75 111
37 37 255
43 41 250
91 69 129
85 62 64
85 63 74
85 63 72
85 63 72
85 63 72
85 63 72
85 63 72
85 63 72
85 63 72
85 63 72
85 63 72
85 63 72
35 34 220
42 41 255
41 40 254
41 40 255
41 40 255
41 40 255
41 40 255
41 40 255
41 40 255
41 40 255
41 40 255
42 41 255
34 35 255
34 35 249
30 33 255
102 78 154
14 9 0
0 0 3
0 0 0
0 0 0
0 0 0
1 1 1
0 0 2
0 0 2
1 1 1
0 0 0
0 0 0
1 0 0
0 0 2
14 9 0
115 87 171
85 65 95
0 0 0
2 1 3
0 0 0
0 0 0
0 0 0
0 0 0
0 0 0
0 0 0
0 0 0
0 0 0
0 0 0
0 0 0
0 0 0
0 0 0
3 2 2
0 0 0
66 48 52
123 94 195
32 22 2
0 0 0
2 1 1
0 0 0
0 0 0
1 1 0
1 1 2
0 0 2
1 1 1
0 0 0
0 0 0
0 0 0
0 0 3
0 0 0
100 75 111
39 39 255
33 34 249
32 34 255
42 41 255
41 40 255
41 40 255
41 40 255
41 40 255
41 40 255
41 40 255
41 40 255
41 40 255
41 40 255
41 40 255
41 40 255
70 56 178
83 67 211
81 65 205
81 65 206
81 65 206
81 65 206
81 65 206
81 65 206
81 65 206
81 65 206
81 65 207
83 66 203
69 58 224
34 35 252
30 32 255
102 78 154
15 10 0
0 0 0
38 38 38
10 10 10
0 0 0
0 0 0
15 10 0
14 9 0
0 0 0
0 0 0
0 0 0
1 0 0
0 0 2
14 9 0
115 87 171
84 64 97
0 0 0
3 2 7
1 1 4
1 1 4
1 1 4
1 1 4
1 1 4
1 1 4
1 1 4
1 1 4
1 1 4
1 1 4
1 1 4
1 1 4
4 3 6
0 0 0
65 48 55
122 94 195
32 22 2
0 0 0
2 1 1
0 0 0
0 0 0
0 0 0
10 6 0
18 12 0
0 0 0
0 0 0
3 3 2
41 41 41
1 1 4
0 0 0
100 75 112
40 39 255
30 32 252
61 53 232
84 67 203
80 65 207
81 65 206
81 65 206
81 65 206
81 65 206
81 65 206
81 65 206
81 65 206
81 65 206
81 65 206
81 65 206
34 24 3
40 29 3
39 28 3
39 28 3
39 28 3
39 28 3
39 28 3
39 28 3
39 28 3
39 28 3
40 29 4
33 24 0
69 50 23
80 65 211
22 27 255
103 79 152
16 11 0
0 0 0
55 55 55
16 16 16
0 0 0
33 24 12
97 74 154
97 74 150
30 21 9
0 0 0
1 1 1
1 0 0
0 0 2
14 9 0
113 87 168
87 67 87
0 0 0
2 2 3
0 0 0
0 0 0
0 0 0
0 0 0
0 0 0
0 0 0
0 0 0
0 0 0
0 0 0
0 0 0
0 0 0
0 0 0
3 2 2
0 0 0
67 51 47
121 94 190
31 22 2
0 0 0
2 1 1
1 1 0
0 0 0
16 11 0
91 69 124
100 77 174
49 35 31
0 0 0
5 5 5
59 59 59
1 1 4
0 0 0
102 76 111
32 34 255
64 55 236
82 60 50
32 23 0
40 29 5
39 28 3
39 28 3
39 28 3
39 28 3
39 28 3
39 28 3
39 28 3
39 28 3
39 28 3
39 28 3
0 0 0
0 0 0
0 0 0
0 0 0
0 0 0
0 0 0
0 0 0
0 0 0
0 0 0
0 0 0
1 1 0
0 0 1
30 22 0
99 79 178
20 25 255
104 79 151
14 9 0
0 0 3
0 0 0
3 2 3
0 0 0
88 66 58
49 46 255
53 49 255
85 63 52
0 0 0
3 2 2
1 0 0
0 0 2
17 12 0
107 86 170
109 84 180
98 73 110
95 71 123
95 71 121
95 71 121
95 71 121
95 71 121
95 71 121
95 71 121
95 71 121
95 71 121
95 71 121
95 71 121
95 71 121
95 71 121
96 71 122
94 70 114
110 83 155
111 89 202
38 28 3
0 0 0
4 2 1
4 2 2
0 0 0
63 46 21
76 64 230
28 32 255
103 78 98
0 0 0
1 1 3
0 0 0
0 0 3
0 0 0
102 76 110
28 31 255
84 70 214
53 39 10
0 0 0
2 2 1
0 0 0
0 0 0
0 0 0
0 0 0
0 0 0
0 0 0
0 0 0
0 0 0
0 0 0
0 0 0
2 1 1
2 1 1
2 1 1
2 1 1
2 1 1
2 1 1
2 1 1
2 1 1
2 1 1
2 1 1
3 2 1
0 0 2
31 21 0
97 76 181
21 27 255
103 79 150
16 11 0
0 0 0
74 74 74
23 22 22
0 0 0
85 62 57
53 48 252
57 50 249
81 59 51
0 0 0
3 2 2
0 0 0
0 0 1
4 3 0
101 74 70
90 69 128
97 73 126
97 73 127
97 73 127
97 73 127
97 73 127
97 73 127
97 73 127
97 73 127
97 73 127
97 73 127
97 73 127
97 73 127
97 73 127
97 73 127
97 73 127
98 74 126
89 67 129
101 80 88
18 14 2
13 0 0
3 1 1
2 2 2
0 0 0
60 43 20
77 63 224
35 36 255
98 73 95
0 0 0
6 6 8
80 79 79
1 1 4
0 0 0
101 76 108
30 33 255
83 67 215
53 38 13
0 0 0
4 2 2
2 1 1
2 1 1
2 1 1
2 1 1
2 1 1
2 1 1
2 1 1
2 1 1
2 1 1
2 1 1
0 0 3
0 0 3
0 0 3
0 0 3
0 0 3
0 0 3
1 1 3
1 1 0
0 0 0
0 0 0
1 1 0
0 0 1
31 23 0
95 77 185
10 18 255
102 81 155
15 11 0
0 0 2
8 8 8
5 4 5
0 0 0
85 62 57
52 48 255
56 50 252
82 60 51
0 0 0
3 2 2
0 0 0
0 0 0
0 0 0
0 0 0
1 0 0
0 0 0
0 0 0
0 0 0
0 0 0
0 0 0
0 0 0
0 0 0
0 0 0
0 0 0
0 0 0
0 0 0
0 0 0
0 0 0
0 0 0
0 0 0
1 0 0
0 0 0
28 0 0
188 10 6
253 6 1
187 6 4
45 11 5
0 0 0
62 44 20
77 64 227
34 35 255
99 74 96
0 0 0
2 1 4
9 9 9
0 0 4
0 0 0
101 79 113
19 25 255
78 66 220
54 40 13
0 0 0
2 2 1
0 0 0
0 0 0
0 0 0
1 1 2
0 0 3
0 0 3
0 0 3
0 0 3
0 0 3
0 0 3
3 1 0
3 1 0
3 1 0
3 1 0
3 1 0
5 2 0
3 2 0
0 0 0
0 0 0
0 0 0
1 0 0
0 0 2
12 8 0
98 74 135
74 63 255
94 70 106
3 1 0
0 0 1
21 21 21
8 7 8
0 0 0
85 62 57
52 48 255
56 50 252
82 60 51
0 0 0
3 2 2
0 0 0
0 0 0
0 0 0
1 1 2
0 0 4
0 0 4
0 0 4
0 0 4
0 0 4
0 0 4
0 0 4
1 1 4
0 0 4
0 0 4
0 0 4
0 0 4
0 0 4
0 0 4
0 0 4
0 0 4
3 0 4
0 0 4
177 2 0
233 176 204
195 41 90
255 146 156
96 82 146
0 0 0
63 45 24
77 64 227
34 35 255
99 74 96
0 0 0
2 2 5
22 22 22
2 1 3
0 0 0
82 60 70
79 65 247
98 76 172
29 20 0
0 0 0
1 1 1
0 0 0
0 0 0
0 0 0
2 2 0
5 3 0
3 1 0
3 1 0
3 1 0
3 1 0
3 1 0
93 71 128
111 84 153
107 82 148
108 82 149
109 83 147
103 79 157
83 63 102
12 8 0
0 0 0
1 0 0
0 0 0
1 1 0
0 0 0
21 15 4
60 43 21
14 10 2
0 0 1
0 0 0
68 68 68
21 20 21
0 0 0
86 63 58
52 48 255
56 50 252
82 60 53
0 0 0
5 4 3
2 2 1
2 2 1
2 2 1
2 2 1
2 2 1
1 0 0
0 0 0
0 0 0
0 0 0
0 0 0
0 0 0
0 0 0
1 1 1
2 2 1
0 0 0
0 0 0
0 0 0
0 0 0
0 0 0
1 0 0
0 0 0
17 2 1
237 2 0
235 79 97
221 9 37
245 67 75
189 24 65
8 0 0
57 45 24
77 63 227
34 35 255
100 74 96
0 0 0
6 5 8
73 73 73
1 1 1
0 0 0
7 5 0
56 40 19
32 23 9
0 0 0
1 0 0
0 0 0
0 0 0
0 0 1
3 2 0
73 55 79
102 78 157
109 83 147
108 82 149
108 82 149
108 82 149
108 82 149
71 53 83
84 64 98
82 62 95
82 62 97
80 61 92
88 67 115
101 81 227
64 47 33
0 0 0
3 2 2
0 0 0
0 0 0
0 0 0
1 1 1
0 0 0
1 1 1
0 0 0
0 0 0
0 0 0
3 2 3
0 0 0
85 62 57
52 47 255
56 51 251
83 62 48
0 0 0
3 2 2
0 0 0
0 0 0
0 0 0
0 0 0
0 0 0
1 1 1
0 0 0
0 0 0
0 0 0
0 0 0
0 0 0
1 1 1
0 0 1
0 0 0
1 1 1
0 0 0
0 0 0
0 0 0
0 0 0
1 0 0
0 1 1
15 0 0
237 0 0
235 0 0
245 0 0
234 0 0
237 2 1
0 0 0
58 45 18
78 65 225
33 35 255
99 74 96
0 0 0
1 1 3
0 0 0
0 0 0
0 0 0
0 0 0
0 0 0
0 0 0
0 0 0
0 0 0
0 0 0
2 1 1
0 0 0
43 31 6
105 84 211
87 67 141
82 61 87
82 62 98
82 62 96
82 62 96
82 62 96
0 0 0
0 0 0
0 0 0
2 1 1
0 0 0
39 29 6
123 96 194
58 43 42
0 0 0
3 2 2
0 0 0
0 0 0
0 0 0
1 1 0
2 2 1
0 0 0
1 1 1
0 0 0
65 65 65
20 20 20
0 0 0
85 62 57
57 51 252
39 38 255
93 70 113
51 37 7
53 38 19
53 38 17
53 38 17
53 38 17
53 38 17
55 39 17
18 12 2
0 0 0
1 0 0
0 0 0
0 0 0
0 0 0
0 0 0
37 26 9
46 33 12
0 0 0
0 0 0
0 0 0
0 0 0
0 0 0
0 0 0
10 6 0
50 37 15
137 38 17
94 40 20
131 38 18
95 40 19
135 39 21
46 34 8
89 66 79
54 48 245
40 39 255
98 73 96
0 0 0
5 5 8
70 70 70
0 0 0
14 14 14
65 65 65
0 0 0
29 29 29
55 55 56
0 0 0
2 2 2
2 1 1
0 0 0
38 27 11
122 96 196
59 45 35
0 0 0
3 2 1
0 0 0
0 0 0
0 0 0
2 2 3
2 2 3
2 2 3
4 3 4
0 0 0
39 28 12
123 95 199
59 43 41
0 0 0
3 2 2
0 0 0
0 0 0
0 0 0
1 1 2
1 1 4
1 1 1
0 0 0
0 0 0
25 25 25
9 9 9
0 0 0
85 64 60
53 49 255
21 26 252
39 38 250
72 60 228
70 59 228
70 59 228
70 59 228
70 59 228
70 59 225
69 59 239
95 72 130
10 7 0
0 0 2
0 0 0
2 1 1
0 0 0
44 32 14
94 74 196
88 71 223
63 46 38
0 0 0
2 3 3
0 3 3
0 1 4
0 0 0
88 65 94
74 62 236
54 58 226
62 59 228
56 59 228
62 59 228
55 59 228
73 61 227
46 43 247
23 27 251
37 38 255
97 74 100
0 0 0
3 3 5
27 27 27
0 0 0
6 6 6
30 29 29
0 0 0
14 14 15
25 25 24
0 0 0
1 1 1
2 1 1
0 0 0
39 27 10
123 95 199
59 43 43
0 0 0
5 4 5
2 2 3
2 2 3
2 2 3
0 0 0
0 0 0
0 0 0
2 1 1
0 0 0
38 27 9
124 95 199
59 43 41
0 0 0
3 2 2
0 0 0
0 0 0
0 0 0
0 0 0
0 0 0
0 0 0
0 0 0
0 0 0
4 4 4
3 3 3
0 0 0
69 50 39
85 70 238
55 50 255
59 52 250
51 47 255
51 47 255
51 47 255
51 47 255
51 47 255
52 47 252
47 45 255
104 79 159
17 11 0
0 0 2
1 0 0
3 2 2
0 0 0
75 57 39
58 52 246
35 37 255
93 71 75
0 0 0
3 2 3
0 0 0
0 1 4
1 2 0
101 75 117
54 50 255
54 46 252
53 47 255
54 47 255
53 47 255
55 47 255
50 47 255
57 50 252
58 52 251
73 63 255
87 64 74
0 0 0
2 2 3
4 4 4
0 0 0
0 0 0
0 0 0
0 0 0
0 0 0
0 0 0
0 0 0
0 0 0
2 1 1
0 0 0
39 27 10
124 95 199
58 43 40
0 0 0
3 2 2
0 0 0
0 0 0
0 0 0
0 0 0
0 0 0
0 0 0
2 1 1
0 0 0
38 27 9
124 95 199
59 43 41
0 0 0
3 2 2
0 0 0
1 1 1
0 0 0
52 38 39
100 74 107
41 30 26
0 0 0
0 0 0
75 75 75
21 20 20
0 0 0
4 3 0
60 44 35
76 56 53
75 55 51
75 55 48
75 55 48
75 55 48
75 55 48
75 55 48
74 54 48
79 58 49
30 21 11
0 0 0
1 1 0
0 0 0
3 2 2
0 0 0
73 52 37
65 56 240
45 43 255
91 68 73
0 0 0
3 34 32
1 77 67
1 15 13
0 0 0
18 14 6
76 55 45
75 55 49
75 55 48
75 55 48
75 55 48
75 55 48
75 55 48
75 55 51
75 55 53
68 50 42
11 8 3
0 0 0
5 5 5
81 81 81
2 2 1
0 0 0
27 20 13
96 71 100
67 49 57
0 0 0
0 0 1
0 0 0
2 1 1
0 0 0
39 27 10
124 95 199
58 43 40
0 0 0
3 2 2
0 0 0
0 0 0
0 0 0
0 0 0
0 0 0
0 0 0
2 1 1
0 0 0
38 27 9
124 95 199
59 43 41
0 0 0
3 2 2
1 1 0
0 0 2
25 17 0
105 81 175
32 35 255
109 82 143
10 7 0
0 0 3
0 0 0
0 0 0
0 0 0
0 0 0
0 0 0
0 0 0
0 0 0
0 0 0
0 0 0
0 0 0
0 0 0
0 0 0
0 0 0
0 0 0
1 0 0
0 0 0
0 0 0
0 0 0
3 2 2
0 0 0
74 53 37
65 56 242
44 45 255
92 56 63
0 94 74
9 255 223
0 255 236
8 232 199
0 50 43
1 0 0
0 2 2
0 0 0
0 0 0
0 0 0
0 0 0
0 0 0
0 0 0
0 0 0
0 0 0
0 0 0
0 0 0
0 0 0
0 0 0
0 0 0
1 1 3
0 0 0
104 77 102
41 41 255
93 74 212
48 34 8
0 0 0
2 1 1
2 1 1
0 0 0
39 27 10
124 95 199
58 43 40
0 0 0
3 2 2
0 0 0
0 0 0
0 0 0
0 0 0
0 0 0
0 0 0
2 1 1
0 0 0
38 27 9
124 95 199
59 43 41
0 0 0
3 2 2
1 1 0
0 0 1
30 21 0
96 76 182
18 24 255
102 79 152
16 11 0
0 0 0
52 52 51
14 14 14
0 0 0
55 55 55
6 5 5
8 7 7
56 56 56
1 0 0
3 2 2
3 2 2
3 2 2
3 2 2
3 2 2
3 2 2
1 1 1
0 0 0
0 0 0
0 0 0
3 2 2
0 0 0
74 53 37
65 56 243
47 40 255
79 76 77
65 202 188
175 227 240
51 238 214
190 232 249
24 160 146
0 0 0
4 5 5
3 2 2
3 2 2
3 2 2
3 2 2
4 3 3
0 0 0
50 50 50
21 20 20
0 0 0
54 54 54
7 7 7
1 1 1
55 55 55
1 1 4
0 0 0
101 76 111
26 30 255
81 66 216
53 38 13
0 0 0
2 2 1
2 1 1
0 0 0
39 27 10
124 95 199
58 43 40
0 0 0
3 2 2
0 0 0
0 0 0
0 0 0
0 0 0
0 0 0
0 0 0
2 1 1
0 0 0
38 27 9
124 95 199
59 43 41
0 0 0
3 2 2
1 1 0
0 0 1
30 21 0
98 76 181
20 26 255
104 79 151
16 12 0
0 0 2
45 44 45
14 13 14
0 0 0
48 48 49
5 5 6
7 6 7
45 45 45
0 0 0
1 1 1
2 2 2
0 0 0
0 0 0
1 1 1
2 2 3
1 1 1
0 0 0
0 0 0
0 0 0
3 2 2
0 0 0
74 53 37
65 58 244
45 32 254
89 112 110
12 226 216
41 195 242
20 253 225
42 193 248
10 210 190
0 0 1
3 2 3
2 2 2
0 0 0
0 0 0
0 0 0
1 1 1
0 0 0
40 40 40
17 17 17
0 0 0
48 47 48
8 8 9
3 3 4
48 48 49
3 3 7
0 0 0
102 76 110
29 32 255
83 68 216
53 37 12
0 0 0
2 2 1
2 1 1
0 0 0
39 27 10
124 95 199
58 43 40
0 0 0
3 2 2
0 0 0
0 0 0
0 0 0
0 0 0
1 1 0
2 2 1
4 3 2
0 0 0
39 28 10
123 95 199
59 43 41
0 0 0
3 2 2
1 1 0
0 0 1
30 21 0
98 77 181
19 25 255
106 82 151
17 11 0
0 0 3
1 0 0
0 0 0
0 0 0
0 0 0
0 0 0
0 0 0
0 0 0
3 2 2
1 1 1
0 0 0
2 2 2
1 1 1
0 0 0
0 0 0
0 0 0
0 0 0
0 0 0
0 0 0
3 2 2
0 0 0
74 53 37
65 57 244
44 35 255
92 98 100
0 233 196
2 207 174
0 229 201
0 218 181
0 203 178
1 0 0
0 1 1
0 1 1
0 0 0
0 0 0
0 0 0
0 0 0
0 0 0
0 0 0
0 0 0
0 0 0
0 0 0
0 0 0
0 0 0
0 0 0
0 0 4
0 0 0
105 80 109
28 31 255
83 68 216
53 38 12
0 0 0
2 2 1
2 1 1
0 0 0
39 27 10
124 95 199
59 44 41
0 0 0
5 4 3
2 2 1
1 1 0
0 0 0
1 1 1
0 0 1
0 0 0
2 1 1
0 0 0
39 28 8
125 97 194
58 42 41
0 0 0
3 2 2
1 1 0
0 0 1
29 20 0
97 76 182
24 28 255
66 56 222
92 68 83
81 59 62
85 63 68
83 61 66
83 61 66
84 62 67
86 63 70
69 50 45
5 4 0
0 0 0
18 14 16
39 29 34
2 2 2
0 0 0
31 22 16
88 65 70
37 26 20
0 0 0
1 1 1
0 0 0
3 2 2
0 0 0
73 52 37
66 56 240
46 43 255
91 67 72
0 24 15
4 14 14
1 29 25
3 16 14
0 25 22
23 13 7
87 65 69
45 32 27
0 0 0
1 1 1
0 0 0
0 0 0
0 0 1
0 0 0
58 42 35
87 64 70
84 62 66
83 61 66
83 61 66
85 63 68
82 60 65
89 66 69
76 62 200
24 28 255
85 69 216
52 37 12
0 0 0
2 2 1
2 1 1
0 0 0
38 27 10
124 96 195
60 45 37
0 0 0
3 2 2
0 0 0
0 0 1
1 1 2
0 0 0
26 18 4
43 32 24
42 31 25
35 26 20
66 48 40
107 86 215
63 48 40
0 0 0
3 2 2
1 1 0
0 0 1
31 23 0
94 77 189
16 23 255
24 28 252
36 37 255
44 43 255
43 42 255
43 42 255
43 42 255
44 43 254
36 37 255
79 67 250
67 49 35
79 55 70
241 172 208
255 186 226
182 128 160
29 20 4
101 77 136
48 46 255
105 80 157
17 12 0
0 0 2
1 0 0
3 2 2
0 0 0
75 57 39
58 53 246
35 37 255
93 72 75
0 0 0
6 5 5
2 1 1
0 2 5
1 1 0
103 77 115
50 47 255
102 79 180
29 20 0
0 0 1
1 1 0
2 2 1
0 0 0
53 38 14
92 75 222
34 36 255
45 43 253
43 42 255
43 42 255
43 42 255
44 42 255
40 40 255
24 28 253
15 22 255
80 68 223
54 40 13
0 0 0
2 2 1
2 1 1
0 0 0
42 32 9
110 88 209
75 56 72
35 26 14
42 31 26
43 31 25
32 22 8
1 0 0
62 45 34
102 79 187
121 93 196
124 95 185
126 96 184
113 88 201
98 76 174
35 25 9
0 0 0
1 1 1
0 0 0
0 0 2
8 5 0
93 70 118
84 68 224
84 67 210
80 65 211
78 64 212
78 64 212
78 64 212
78 64 212
78 64 211
76 63 217
89 72 186
61 40 32
213 181 206
246 217 238
242 189 218
250 229 255
140 105 97
83 65 145
17 24 255
97 77 177
27 19 0
0 0 2
1 1 0
2 1 1
0 0 0
38 27 11
95 75 180
93 74 206
58 40 32
0 0 0
2 3 2
0 0 1
0 2 4
8 7 0
102 79 136
17 23 255
89 72 198
40 29 1
0 0 0
2 1 1
1 1 1
0 0 0
30 21 4
95 74 163
75 62 220
78 64 210
78 64 212
78 64 212
78 64 212
78 64 212
79 65 211
84 68 209
81 66 223
98 75 150
22 15 0
0 0 0
1 1 0
1 1 0
0 0 1
19 13 0
94 72 145
108 84 209
127 97 183
123 94 186
124 95 190
102 80 201
79 58 62
120 91 160
84 66 163
38 27 1
32 24 15
32 24 13
37 27 12
26 18 2
0 0 0
0 0 0
0 0 0
0 0 0
1 0 0
0 0 0
13 9 1
44 31 6
42 30 6
43 30 6
43 30 6
43 30 6
43 30 6
43 30 6
42 30 6
48 34 9
16 11 0
68 49 54
227 178 236
187 152 234
243 185 222
180 151 251
210 155 154
92 70 149
22 28 255
100 77 174
26 18 0
0 0 2
1 1 0
0 0 0
0 0 0
0 0 0
29 21 3
36 25 4
0 2 0
93 0 7
88 53 0
41 48 2
0 0 5
9 5 0
104 79 133
23 28 255
93 73 196
39 27 0
0 0 0
1 1 1
0 0 0
1 0 0
0 0 0
24 16 2
46 32 6
42 30 6
43 30 6
43 30 6
43 30 6
43 30 6
43 30 6
42 30 6
44 32 6
20 14 2
0 0 0
1 0 0
0 0 0
0 0 0
1 0 0
0 0 0
19 13 1
39 28 10
32 23 13
34 25 15
32 23 0
74 57 123
125 96 200
116 89 170
91 71 102
0 0 0
1 1 3
0 0 0
0 0 0
1 1 1
1 1 1
0 0 0
0 0 0
0 0 0
0 0 0
0 0 0
1 1 2
0 0 0
0 0 0
0 0 0
0 0 0
0 0 0
0 0 0
0 0 0
0 0 0
3 2 2
0 0 0
59 43 52
255 189 229
223 161 195
239 176 214
236 171 214
207 152 158
90 69 146
22 27 255
100 78 175
26 18 0
0 0 2
1 1 0
0 0 0
0 0 0
1 1 1
2 1 2
0 1 0
115 0 17
224 77 40
243 217 0
255 255 8
140 140 14
0 0 0
106 80 134
22 28 255
93 73 197
39 27 0
0 0 0
2 1 1
0 0 0
0 0 0
1 1 0
1 1 2
0 0 0
0 0 0
0 0 0
0 0 0
0 0 0
0 0 0
0 0 0
0 0 0
0 0 0
1 1 2
1 1 0
0 0 0
0 0 0
0 0 0
0 0 0
1 0 0
1 1 2
0 0 0
0 0 0
3 2 2
0 0 0
73 56 61
126 99 200
119 90 169
90 68 109
0 0 0
3 2 4
2 1 1
2 1 1
1 1 0
0 0 0
0 0 0
0 0 0
0 0 0
0 0 0
0 0 0
1 0 0
2 1 1
2 1 1
2 1 1
2 1 1
2 2 1
2 1 1
2 1 1
2 1 1
2 1 1
0 0 0
8 6 7
58 42 51
27 20 24
51 37 44
30 22 33
63 45 28
96 74 153
20 26 255
100 77 175
27 18 0
0 0 2
1 1 0
0 0 0
0 0 0
0 0 0
5 4 1
0 0 1
144 84 0
245 227 9
177 189 1
247 251 0
255 235 9
96 23 0
90 74 135
25 29 255
93 74 197
39 27 0
0 0 0
2 1 1
0 0 0
0 0 0
0 0 0
1 1 0
2 1 1
2 1 1
2 1 1
2 1 1
2 2 1
2 1 1
2 1 1
2 1 1
2 1 1
1 1 0
0 0 0
0 0 0
0 0 0
0 0 0
0 0 0
0 0 0
1 1 0
2 1 1
2 1 1
5 3 3
0 0 0
72 53 68
129 99 201
119 90 170
90 68 108
0 0 0
1 1 3
0 0 0
0 0 0
0 0 0
1 1 1
0 0 4
0 0 4
0 0 4
0 0 4
0 0 4
0 0 4
0 0 4
1 1 2
0 0 0
0 0 0
0 0 0
0 0 0
0 0 0
1 1 0
1 1 4
1 1 3
1 1 0
0 0 0
1 1 1
1 1 0
0 0 3
18 12 0
103 79 158
19 25 255
101 79 173
26 18 0
0 0 6
1 1 4
0 0 4
0 0 4
0 0 4
4 4 4
0 0 4
94 101 4
250 251 6
245 244 9
255 255 7
242 226 10
59 18 0
96 77 133
24 29 255
93 74 197
39 27 0
0 0 0
2 1 1
0 0 0
0 0 0
1 0 0
1 1 3
0 0 4
1 1 1
0 0 0
0 0 0
0 0 0
0 0 0
0 0 0
1 1 1
0 0 4
0 0 4
0 0 4
0 0 4
0 0 4
0 0 4
0 0 4
1 1 2
0 0 0
0 0 0
0 0 0
3 2 2
0 0 0
72 53 66
129 99 201
119 90 170
90 68 108
0 0 0
1 1 3
0 0 0
0 0 0
0 0 0
0 0 0
3 2 0
4 2 0
4 2 0
4 2 0
4 2 0
4 2 0
4 2 0
0 0 0
0 0 0
0 0 0
21 21 21
6 6 6
0 0 0
0 0 0
3 1 0
2 1 0
0 0 0
2 1 0
8 7 8
23 22 23
0 0 1
20 14 0
103 79 158
19 25 255
97 76 184
39 27 0
0 0 1
5 3 0
4 2 0
4 2 0
4 2 0
5 3 0
4 2 0
5 2 0
139 136 0
233 231 0
221 217 1
86 86 3
9 4 0
107 82 145
20 26 255
93 74 197
39 27 0
0 0 0
2 1 1
0 0 0
0 0 0
0 0 0
2 1 0
3 2 0
0 0 0
0 0 0
1 1 1
23 23 23
0 0 0
0 0 0
0 0 0
3 2 0
4 2 0
4 2 0
4 2 0
4 2 0
4 2 0
4 2 0
0 0 0
0 0 0
0 0 0
0 0 0
3 2 2
0 0 0
72 53 66
129 99 201
119 90 170
90 68 108
0 0 0
1 1 3
0 0 0
1 1 1
0 0 0
39 28 24
99 74 127
94 71 133
96 73 129
96 73 128
96 73 128
95 72 128
100 76 130
51 38 40
0 0 0
0 0 0
69 69 69
20 19 19
0 0 0
19 13 5
93 70 112
91 68 109
17 12 3
0 0 0
22 22 22
68 68 68
0 0 0
19 14 0
100 77 160
28 31 255
45 42 244
92 71 157
97 73 123
96 73 129
96 73 128
96 73 128
96 73 128
96 73 128
96 73 128
95 72 128
81 58 128
103 80 129
94 71 130
82 59 125
99 75 142
52 47 235
24 28 255
92 73 198
39 27 1
0 0 0
2 1 1
0 0 0
0 0 1
6 4 0
81 60 87
100 75 128
32 23 16
0 0 0
6 5 5
74 74 74
2 2 2
0 0 0
36 26 23
98 75 122
95 73 129
96 73 128
96 73 128
96 73 129
94 71 131
100 75 135
54 40 43
0 0 0
1 1 1
0 0 0
3 2 2
0 0 0
72 53 66
129 99 201
119 90 170
90 68 108
0 0 0
1 1 3
0 0 0
0 0 3
0 0 0
104 79 113
40 41 255
33 35 252
28 32 255
29 32 255
29 32 255
30 32 251
27 31 255
109 86 152
11 7 0
0 0 3
0 0 0
3 2 2
0 0 0
86 63 54
56 51 255
60 54 253
82 60 48
0 0 0
3 2 2
1 0 0
0 0 3
17 11 0
105 82 162
24 29 255
30 33 252
26 30 255
29 32 255
29 32 255
29 32 255
29 32 255
29 32 255
29 32 255
29 32 255
29 33 255
32 36 255
27 30 255
29 32 255
33 36 255
26 30 255
29 32 252
20 26 255
95 77 202
39 28 0
0 0 0
1 1 1
2 2 1
0 0 0
60 43 18
82 68 226
36 38 255
102 76 93
0 0 0
1 1 3
0 0 0
1 1 3
0 0 0
106 82 109
39 40 255
27 30 252
29 32 255
29 32 255
28 31 255
34 36 251
30 33 255
106 82 156
14 9 0
0 0 3
0 0 0
3 2 2
0 0 0
72 53 66
129 99 201
119 90 170
90 68 108
0 0 0
1 1 3
0 0 0
0 0 3
0 0 0
99 75 115
37 37 255
33 34 250
79 64 194
98 75 145
95 73 152
94 73 151
99 76 154
61 45 54
0 0 0
0 0 0
63 63 63
20 19 19
0 0 0
85 62 58
51 47 252
55 49 249
82 60 52
0 0 0
22 21 22
61 61 61
0 0 0
0 0 0
65 48 58
99 76 160
95 73 154
96 74 151
95 73 151
95 73 151
95 73 151
95 73 151
95 73 151
95 73 151
95 73 151
95 73 151
95 73 151
96 74 151
96 74 151
95 73 151
95 73 151
95 73 152
98 75 163
78 58 82
2 1 0
0 0 1
0 0 0
2 2 1
0 0 0
60 43 21
75 62 225
33 34 255
98 73 96
0 0 0
5 5 7
67 67 67
2 2 2
0 0 0
46 34 32
99 76 146
94 73 152
95 73 152
97 74 146
87 69 179
39 38 247
28 31 255
100 77 157
16 11 0
0 0 3
0 0 0
3 2 2
0 0 0
72 53 66
129 99 201
119 90 170
90 68 108
0 0 0
1 1 3
0 0 0
0 0 3
0 0 0
102 77 113
29 32 255
77 63 224
68 48 22
2 1 0
12 8 1
11 7 0
11 8 0
1 0 0
0 1 1
0 0 0
28 28 28
10 10 10
0 0 0
85 62 57
52 48 255
56 50 252
82 60 51
0 0 0
12 11 11
28 28 28
0 0 0
0 1 1
1 0 0
11 8 0
11 7 0
11 7 0
13 9 0
10 6 0
11 7 0
12 8 0
10 6 0
12 8 0
12 8 0
10 6 0
12 8 0
12 8 0
12 8 0
12 8 0
12 8 0
12 8 0
12 8 0
2 2 0
0 0 0
0 0 0
0 0 0
2 2 1
0 0 0
60 43 20
77 64 226
34 35 255
99 74 96
0 0 0
3 3 5
30 30 30
0 0 0
0 0 0
0 0 0
10 6 0
12 7 0
11 7 1
5 3 0
48 33 1
93 73 192
20 26 255
103 79 155
16 11 0
0 0 3
0 0 0
3 2 2
0 0 0
72 53 66
129 99 201
119 90 170
90 68 108
0 0 0
1 1 3
0 0 0
0 0 3
0 0 0
103 77 113
27 31 255
86 70 212
52 37 10
0 0 0
6 6 9
5 5 9
0 0 1
9 8 9
4 4 4
0 0 0
1 1 1
3 2 3
0 0 0
85 62 57
52 48 255
56 50 252
82 60 51
0 0 0
3 2 3
1 1 1
0 0 0
4 4 4
8 8 9
0 0 1
5 5 9
4 5 8
0 0 1
6 6 11
3 3 7
0 0 2
7 7 12
1 1 5
0 0 3
7 8 12
0 0 3
0 0 3
0 0 3
0 0 3
0 0 3
0 0 3
0 0 3
1 1 2
0 0 0
0 0 0
0 0 0
2 2 1
0 0 0
61 43 20
77 64 227
34 35 255
99 74 96
0 0 0
1 1 3
1 1 1
0 0 0
2 2 2
10 10 10
0 0 2
3 3 7
7 7 11
0 0 4
29 20 0
100 79 176
19 25 255
104 79 155
16 11 0
0 0 3
0 0 0
3 2 2
0 0 0
72 53 66
129 99 201
119 90 170
90 68 108
0 0 0
1 1 3
0 0 0
0 0 3
0 0 0
103 77 113
28 31 255
85 68 214
53 38 13
0 0 0
52 52 51
54 54 54
0 0 0
65 65 65
37 37 36
0 0 0
77 76 76
24 23 23
0 0 0
86 63 59
52 47 255
56 50 252
83 61 53
0 0 0
27 26 26
75 75 74
0 0 0
41 41 40
63 63 63
0 0 0
56 56 55
48 48 48
0 0 0
70 70 70
32 32 32
0 0 0
77 76 76
17 16 16
0 0 0
80 79 79
4 4 4
0 0 0
0 0 0
0 0 0
0 0 0
0 0 0
2 1 1
1 1 0
1 1 0
1 1 0
2 2 1
4 3 2
0 0 0
61 44 22
76 63 227
34 35 255
99 74 98
0 0 0
7 7 8
82 81 81
0 0 0
17 17 17
76 76 76
0 0 0
34 34 34
68 68 67
0 0 0
31 22 0
99 77 179
19 26 255
103 79 155
16 11 0
0 0 3
0 0 0
3 2 2
0 0 0
72 53 66
129 99 201
119 90 170
90 68 108
0 0 0
1 1 3
0 0 0
0 0 3
0 0 0
103 77 113
27 31 255
85 69 214
51 36 10
0 0 0
2 1 1
0 0 0
0 0 0
0 0 0
0 0 2
0 0 0
0 0 0
3 2 2
0 0 0
86 65 54
53 48 254
56 51 251
83 62 48
0 0 0
3 2 2
0 0 0
0 0 0
0 0 0
0 0 0
0 0 0
0 0 1
0 0 0
0 0 0
0 0 0
0 0 0
0 0 0
0 0 0
0 0 1
0 0 1
0 0 1
0 0 0
0 0 0
0 0 0
0 0 0
0 0 0
2 1 2
0 0 1
0 0 0
0 0 0
0 0 0
0 0 0
2 2 2
0 0 0
61 45 18
77 65 225
34 35 255
101 77 92
0 0 0
1 1 3
0 0 0
0 0 0
0 0 1
0 0 0
0 0 0
0 0 0
1 1 0
0 0 1
28 19 0
99 77 178
19 26 255
103 79 155
16 11 0
0 0 3
0 0 0
3 2 2
0 0 0
72 53 66
129 99 201
119 90 170
90 68 108
0 0 0
1 1 3
0 0 0
1 1 5
0 0 0
103 77 113
28 31 255
85 69 213
52 37 11
0 0 0
34 34 33
33 33 33
0 0 0
0 0 2
13 9 0
33 23 0
31 22 0
32 23 3
27 19 0
95 70 93
44 42 255
46 44 255
94 69 86
26 18 0
32 23 3
32 23 0
31 22 0
31 22 0
31 22 0
31 22 0
8 6 0
0 1 2
0 0 0
44 44 44
20 20 20
0 0 0
0 0 1
20 14 0
25 18 0
0 0 0
0 0 0
0 0 0
0 0 0
0 0 0
0 0 0
4 3 0
29 21 0
31 22 0
31 22 0
31 22 0
31 22 0
33 23 2
23 16 0
83 61 51
63 54 241
30 33 255
98 74 132
36 25 0
30 21 2
31 23 0
33 23 0
18 13 0
0 0 1
0 0 0
21 21 21
44 43 43
0 0 0
29 20 0
99 77 178
20 26 255
103 79 154
16 11 0
0 0 3
0 0 0
3 2 2
0 0 0
72 53 66
129 99 201
119 90 170
90 68 108
0 0 0
1 1 3
0 0 0
1 1 5
1 0 0
101 77 115
24 28 255
81 67 214
52 38 12
0 0 0
32 32 31
32 32 31
0 0 0
17 12 0
91 69 129
85 68 201
86 68 190
85 68 192
89 70 192
50 45 239
31 32 251
30 32 252
52 46 237
89 70 191
85 68 192
86 68 192
86 68 192
86 68 192
86 68 190
88 69 201
83 63 99
5 4 0
0 0 0
41 41 41
20 20 19
0 0 0
31 22 8
96 74 161
96 75 185
48 34 25
0 0 0
2 1 1
0 0 0
1 1 2
0 0 0
72 53 69
91 72 196
85 67 191
86 68 192
86 68 192
86 68 192
85 68 193
90 70 189
61 52 228
29 31 253
33 33 249
42 39 246
86 68 197
86 68 191
86 68 191
84 67 198
95 73 155
31 23 9
0 0 0
21 21 20
41 41 41
0 0 0
30 22 0
96 76 179
16 22 255
101 78 156
17 11 0
0 0 3
0 0 0
3 2 2
0 0 0
72 53 66
129 99 201
119 90 170
90 68 108
0 0 0
1 1 3
0 0 0
1 1 3
0 0 0
103 76 102
45 43 255
96 76 206
44 31 5
0 0 0
2 1 1
2 1 1
0 0 0
44 32 5
97 78 210
26 30 255
38 38 253
36 37 255
35 36 255
42 41 255
47 43 255
47 44 255
42 41 255
35 36 255
36 37 255
36 37 255
36 37 255
36 37 255
37 38 252
29 33 255
107 84 172
21 15 0
0 0 2
1 1 0
3 2 2
0 0 0
76 57 39
60 54 246
37 38 255
95 72 74
0 0 0
2 2 3
0 0 0
0 0 3
3 2 0
108 82 129
39 39 255
35 36 251
36 37 255
36 37 255
36 37 255
36 37 255
35 37 255
40 40 255
47 44 255
46 43 255
44 42 255
36 37 255
36 37 255
37 38 254
27 30 255
81 68 239
68 50 30
0 0 0
3 2 2
1 1 0
0 0 2
22 15 0
106 81 168
38 38 255
108 82 144
11 7 0
0 0 3
0 0 0
3 2 2
0 0 0
72 53 66
129 99 201
119 90 170
91 68 108
0 0 0
7 7 9
81 81 81
1 1 0
0 0 0
25 18 11
92 68 88
61 45 47
1 1 0
0 0 0
51 51 51
53 53 53
0 0 0
0 1 0
60 44 41
94 70 91
90 67 86
90 67 86
90 67 86
90 67 89
88 65 89
88 65 89
90 67 89
90 67 86
90 67 86
91 68 87
90 67 86
90 67 87
90 67 87
94 70 88
46 33 28
0 0 0
0 0 0
69 69 69
34 34 33
0 0 0
74 54 38
65 56 239
45 43 255
91 67 72
0 0 0
2 2 3
0 0 0
1 1 1
0 0 0
31 22 15
92 69 83
89 67 87
90 67 86
90 67 86
90 67 86
90 67 86
90 67 86
89 66 88
88 65 89
88 65 89
88 66 89
90 67 86
90 67 86
89 66 85
93 69 91
73 53 55
4 3 0
0 0 0
33 33 33
67 67 67
0 0 0
0 0 0
46 33 30
96 71 93
37 27 22
0 0 0
1 1 1
0 0 0
3 2 2
0 0 0
72 53 66
129 99 201
119 90 170
90 68 108
0 0 0
1 1 3
0 0 0
0 0 0
0 0 0
0 0 0
0 0 0
0 0 0
0 0 0
0 0 0
0 0 0
0 0 0
0 0 0
0 0 0
0 0 0
0 0 0
0 0 0
0 0 0
0 0 0
0 0 0
0 0 0
0 0 0
0 0 0
0 0 0
0 0 0
0 0 0
0 0 0
0 0 0
0 0 0
0 0 0
0 0 0
0 0 0
0 0 0
0 0 0
3 2 2
0 0 0
74 53 37
65 56 242
44 42 255
92 68 72
0 0 0
2 2 3
0 0 0
0 0 0
0 0 0
0 0 0
0 0 0
0 0 0
0 0 0
0 0 0
0 0 0
0 0 0
0 0 0
0 0 0
0 0 0
0 0 0
0 0 0
0 0 0
0 0 0
0 0 0
0 0 0
0 0 0
0 0 0
0 0 0
3 3 3
6 6 6
0 0 0
0 0 0
0 0 0
0 0 0
0 0 0
0 0 0
0 0 0
0 0 0
3 2 2
0 0 0
72 53 66
129 99 201
119 90 170
91 68 108
0 0 0
4 4 6
34 34 34
0 0 0
8 8 8
35 35 34
0 0 0
18 17 17
30 30 29
0 0 0
22 22 22
22 22 22
0 0 0
29 29 29
18 18 18
0 0 0
35 35 37
11 10 12
0 0 0
37 37 39
4 3 5
5 4 6
37 37 39
0 0 0
12 11 13
35 34 36
0 0 0
20 19 21
30 29 31
0 0 0
27 26 26
21 21 21
0 0 0
29 29 29
16 15 15
0 0 0
74 54 38
65 56 242
44 42 255
92 68 72
0 0 0
2 2 3
0 0 0
0 0 0
0 0 0
1 1 1
2 1 3
2 1 3
2 1 3
2 1 3
2 1 3
2 1 3
2 1 3
2 1 3
2 1 3
2 1 3
2 1 3
2 1 3
2 1 3
2 1 3
2 1 3
2 1 2
0 0 0
0 0 0
0 0 0
0 0 0
0 0 0
0 0 0
2 1 1
2 1 3
2 1 1
0 0 0
0 0 0
0 0 0
3 2 2
0 0 0
72 53 66
129 99 201
118 90 169
90 68 110
0 0 0
8 8 10
66 65 65
0 0 0
17 17 17
62 62 62
0 0 0
30 30 30
55 54 54
0 0 0
43 43 43
44 44 44
0 0 0
54 54 53
31 31 31
0 0 0
62 61 61
18 18 18
0 0 0
66 65 65
6 6 6
8 8 8
65 65 65
0 0 0
21 21 20
60 60 60
0 0 0
34 34 34
52 52 51
0 0 0
46 46 46
40 40 40
0 0 0
57 56 56
29 28 28
0 0 0
75 55 41
64 55 242
44 42 255
92 68 75
0 0 0
4 4 5
2 2 2
2 2 2
2 2 2
2 2 2
2 2 2
2 2 2
2 2 2
2 2 2
2 2 2
2 2 2
2 2 2
2 2 2
2 2 2
2 2 2
2 2 2
2 2 2
2 2 2
2 2 2
2 2 2
2 2 2
2 2 2
2 2 2
2 2 2
3 2 2
2 2 2
2 2 2
2 2 2
2 2 2
2 2 2
2 2 2
2 2 2
2 2 2
5 4 4
0 0 0
72 53 68
129 99 200
114 90 172
92 71 103
0 0 0
1 1 3
0 0 0
0 0 0
0 0 0
0 0 0
0 0 0
0 0 0
0 0 0
0 0 0
0 0 0
0 0 0
0 0 0
0 0 0
0 0 0
0 0 0
0 0 0
0 0 0
0 0 0
0 0 0
0 0 0
0 0 0
0 0 0
0 0 0
0 0 0
0 0 0
0 0 0
0 0 0
0 0 0
0 0 0
0 0 0
0 0 0
0 0 0
0 0 0
3 2 2
0 0 0
76 56 34
65 57 241
44 42 255
94 71 69
0 0 0
2 2 3
0 0 0
0 0 0
0 0 0
0 0 0
0 0 0
0 0 0
0 0 0
0 0 0
0 0 0
0 0 0
0 0 0
0 0 0
0 0 0
0 0 0
0 0 0
0 0 0
0 0 0
0 0 0
0 0 0
0 0 0
0 0 0
0 0 0
0 0 0
0 0 0
0 0 0
0 0 0
0 0 0
0 0 0
0 0 0
0 0 0
0 0 0
0 0 0
3 2 2
0 0 0
74 56 62
124 99 202
115 87 142
82 66 186
57 42 37
52 39 45
56 41 46
53 39 44
54 40 44
55 41 46
53 39 44
54 40 45
55 41 45
52 38 44
55 41 45
55 41 45
52 38 44
55 41 45
54 40 45
53 39 44
55 41 46
54 40 44
53 39 44
55 41 46
53 39 44
53 39 44
55 41 46
53 39 44
54 40 45
55 41 46
53 39 44
54 40 45
55 41 45
52 38 44
55 41 45
54 40 45
52 38 44
55 41 46
54 40 47
60 43 28
90 68 118
44 42 255
35 35 255
88 68 151
65 47 29
53 39 45
53 39 44
53 39 44
53 39 44
53 39 44
53 39 44
53 39 44
53 39 44
53 39 44
53 39 44
53 39 44
53 39 44
53 39 44
53 39 44
53 39 44
53 39 44
53 39 44
53 39 44
53 39 44
53 39 44
53 39 44
53 39 44
53 39 44
53 39 44
53 39 44
53 39 44
53 39 44
53 39 44
53 39 44
53 39 44
53 39 44
53 39 44
53 39 44
53 39 46
54 39 32
75 59 154
121 93 185
49 35 17
110 84 163
128 98 204
130 99 192
130 99 194
130 99 194
130 99 194
130 99 194
130 99 194
130 99 194
130 99 194
130 99 194
130 99 194
130 99 194
130 99 194
130 99 194
130 99 194
130 99 194
130 99 194
130 99 194
130 99 194
130 99 194
130 99 194
130 99 194
130 99 194
130 99 194
130 99 194
130 99 194
130 99 194
130 99 194
130 99 194
130 99 194
130 99 194
130 99 194
130 99 194
130 99 194
130 99 194
83 68 233
41 40 254
33 34 252
35 35 252
37 37 255
74 62 240
124 95 198
131 100 193
130 99 194
130 99 194
130 99 194
130 99 194
130 99 194
130 99 194
130 99 194
130 99 194
130 99 194
130 99 194
130 99 194
130 99 194
130 99 194
130 99 194
130 99 194
130 99 194
130 99 194
130 99 194
130 99 194
130 99 194
130 99 194
130 99 194
130 99 194
130 99 194
130 99 194
130 99 194
130 99 194
130 99 194
130 99 194
130 99 194
130 99 194
130 99 193
130 99 200
113 87 183
67 48 38
