24 27 33
157 130 120
212 170 149
205 165 148
206 166 148
206 166 148
206 166 148
206 166 148
206 166 148
206 166 148
206 166 148
206 166 148
206 166 148
206 166 148
206 166 148
206 166 148
206 166 148
206 166 148
206 166 148
206 166 148
206 166 148
206 166 148
206 166 148
206 166 148
206 166 148
206 166 148
206 166 148
206 166 148
206 167 149
205 163 141
190 149 124
189 150 129
190 148 124
204 161 139
206 167 150
206 166 148
206 166 148
206 166 148
206 166 148
206 166 148
206 166 148
206 166 148
206 166 148
206 166 148
206 166 148
206 166 149
206 164 143
191 149 124
189 150 129
189 148 124
202 160 137
207 167 150
206 166 148
206 166 148
206 166 148
206 166 148
206 166 148
206 166 148
206 166 148
206 166 148
206 166 148
206 166 148
206 166 148
206 166 148
206 166 148
206 166 148
206 166 148
206 166 148
206 166 148
206 166 148
206 166 148
206 166 148
206 166 148
206 166 148
206 166 148
206 166 148
205 165 148
211 169 149
176 144 130
45 45 52
162 136 128
210 157 121
103 88 85
104 88 82
106 90 85
104 88 83
104 88 83
106 90 85
104 88 83
105 89 84
105 89 85
104 88 82
105 89 84
105 89 84
104 88 82
105 89 85
105 89 84
104 88 83
106 90 85
104 88 84
104 88 83
106 90 85
104 88 83
104 88 83
106 90 85
104 88 83
105 89 84
106 90 85
100 85 80
125 104 96
218 152 100
222 143 73
221 153 98
132 108 99
99 84 80
107 90 85
105 89 84
104 88 83
106 90 85
104 88 83
104 88 83
106 90 85
104 88 83
104 88 83
106 90 85
101 86 81
117 99 93
212 150 103
222 143 74
225 153 94
142 115 102
98 83 80
107 90 85
105 89 84
104 88 83
106 90 85
105 89 84
104 88 83
106 90 85
104 88 83
104 88 83
106 90 85
104 88 83
104 88 83
106 90 85
104 88 83
105 89 84
105 89 85
104 88 82
105 89 84
105 89 84
104 88 82
105 89 85
105 89 84
104 88 83
106 90 85
105 89 84
97 85 83
189 142 111
201 162 144
208 166 141
136 114 107
0 0 0
3 2 2
0 0 0
0 0 0
0 0 0
0 0 0
0 0 0
0 0 0
0 0 0
0 0 0
0 0 0
0 0 0
0 0 0
0 0 0
0 0 0
0 0 0
0 0 0
0 0 0
0 0 0
0 0 0
0 0 0
0 0 0
0 0 0
0 0 0
0 0 0
0 1 1
0 0 0
2 8 16
184 148 131
227 145 74
194 154 131
10 16 25
0 0 0
1 1 1
0 0 0
0 0 0
0 0 0
0 0 0
0 0 0
0 0 0
0 0 0
0 0 0
0 0 0
1 0 0
0 0 5
166 138 127
227 146 77
207 159 128
24 29 39
0 0 0
1 1 2
0 0 0
0 0 0
0 0 0
0 0 0
0 0 0
0 0 0
0 0 0
0 0 0
0 0 0
0 0 0
0 0 0
0 0 0
0 0 0
0 0 0
0 0 0
0 0 0
0 0 0
0 0 0
0 0 0
0 0 0
0 0 0
0 0 0
0 0 0
3 3 3
0 0 0
93 82 82
237 187 156
201 162 144
138 115 107
0 0 0
11 9 9
52 51 51
1 0 0
15 14 14
49 48 48
0 0 0
25 24 24
43 42 42
0 0 0
35 34 34
35 34 34
0 0 0
43 42 42
26 25 25
0 0 0
49 48 48
16 15 15
1 0 0
52 51 51
7 6 6
9 8 8
51 50 50
0 0 0
18 17 17
47 46 46
0 0 0
6 10 17
184 147 128
228 146 74
195 152 128
14 18 26
0 0 0
45 44 44
23 22 22
0 0 0
50 49 49
13 12 12
3 2 2
52 51 51
4 3 3
11 10 10
50 49 49
3 1 0
0 1 7
166 137 124
228 147 77
207 158 126
28 31 40
0 0 0
40 39 39
30 29 29
0 0 0
47 46 46
20 19 19
0 0 0
51 50 50
10 9 9
5 4 4
52 51 51
2 1 1
14 13 13
50 49 49
0 0 0
24 23 23
44 43 43
0 0 0
34 33 33
36 35 35
0 0 0
42 41 41
27 26 26
0 0 0
48 47 47
20 19 19
0 0 0
96 83 81
231 184 160
202 163 145
138 114 106
0 0 0
7 7 6
53 53 53
0 0 0
12 12 12
51 50 50
0 0 0
26 26 26
47 46 46
0 0 0
37 37 37
38 38 38
0 0 0
46 46 46
27 27 27
0 0 0
53 52 52
16 16 16
0 0 0
56 55 55
6 6 6
8 7 7
52 52 52
0 0 0
16 16 16
49 49 49
0 0 0
3 8 15
184 147 128
228 146 74
195 152 128
11 16 24
0 0 0
45 45 46
21 21 21
0 0 0
51 51 51
13 12 12
2 1 1
53 53 53
0 0 0
8 8 8
52 52 52
0 0 0
0 0 4
166 137 124
228 147 76
208 158 126
25 29 38
0 0 0
40 40 40
29 29 29
0 0 0
47 47 47
20 20 20
0 0 0
55 55 55
10 10 10
4 4 4
56 56 56
1 1 1
14 14 14
54 53 53
0 0 0
25 25 25
48 47 47
0 0 0
36 36 36
39 39 39
0 0 0
43 43 43
25 25 25
0 0 0
50 50 50
18 17 17
0 0 0
95 82 81
233 185 161
202 163 145
137 114 106
0 0 0
4 4 3
1 1 1
0 0 0
0 0 0
0 0 0
0 0 0
0 0 0
0 0 0
0 0 0
0 0 0
0 0 0
0 0 0
0 0 0
0 0 0
0 0 0
0 0 0
0 0 0
0 0 0
0 0 0
0 0 0
0 0 0
0 0 0
0 0 0
0 0 0
0 0 1
0 0 0
1 7 14
184 147 128
228 146 74
195 152 128
10 15 23
0 0 0
1 1 1
0 0 0
0 0 0
0 0 0
0 0 0
0 0 0
0 0 0
0 0 0
0 0 0
0 0 0
1 0 0
0 0 4
166 136 124
228 147 76
207 158 126
24 28 37
0 0 0
1 1 2
0 0 0
0 0 0
0 0 0
0 0 0
0 0 0
0 0 0
0 0 0
0 0 0
0 0 0
0 0 0
0 0 0
0 0 0
0 0 0
0 0 0
0 0 0
0 0 0
0 0 0
0 0 0
0 0 0
0 0 0
0 0 0
1 1 1
1 1 1
4 4 4
0 0 0
94 81 80
233 185 161
202 163 145
137 114 106
0 0 0
10 9 8
75 75 75
1 1 1
0 0 0
12 13 15
80 73 78
88 80 83
88 79 83
85 77 82
87 79 83
87 79 83
85 77 81
88 80 84
87 79 83
86 78 82
88 80 84
87 79 83
86 78 82
87 79 83
90 82 85
62 59 64
0 1 2
0 0 0
24 24 24
74 74 74
0 0 0
3 8 16
182 145 127
228 146 75
193 151 127
11 16 24
0 0 0
69 69 69
31 31 31
0 0 0
0 0 1
61 57 61
75 69 74
3 4 6
0 0 0
14 14 14
79 79 79
0 0 0
0 0 4
164 135 123
228 147 78
206 157 126
25 29 38
0 0 0
61 61 61
43 43 43
0 0 0
0 0 0
49 47 52
91 82 86
87 79 83
86 78 82
86 78 82
88 80 84
86 78 82
86 78 82
88 80 84
86 78 82
87 79 83
88 80 84
85 77 82
87 79 83
87 79 82
86 79 83
23 23 26
0 0 0
0 0 0
68 68 68
24 24 24
0 0 0
95 82 81
233 185 161
202 163 145
138 115 107
0 0 0
23 22 22
47 47 47
7 6 6
0 0 0
127 109 106
243 171 115
228 159 104
229 158 101
230 157 97
230 157 98
230 157 98
230 157 98
230 157 98
230 157 98
230 157 98
230 157 98
230 157 98
230 157 98
230 157 99
228 154 92
238 172 124
73 68 75
0 0 0
4 3 3
3 3 3
0 0 0
2 8 15
192 152 127
227 142 66
202 157 127
11 16 24
0 0 0
3 3 3
3 3 3
0 0 0
53 52 59
227 168 126
239 171 118
88 80 84
0 0 0
4 3 3
3 3 3
1 0 0
0 0 4
174 142 125
227 143 69
214 162 124
26 30 38
0 0 0
7 6 4
7 6 4
0 0 0
39 40 49
224 168 131
231 155 92
229 157 99
230 157 98
230 157 98
230 157 98
230 157 98
230 157 98
230 157 98
231 157 98
234 160 101
235 160 102
232 158 99
229 157 100
228 160 105
241 167 108
164 134 122
0 0 2
8 7 8
44 49 48
17 18 19
0 0 0
94 82 81
233 185 161
204 165 146
132 109 101
8 13 17
226 226 225
255 255 255
116 112 111
0 0 0
158 132 120
226 149 84
210 137 74
221 152 97
217 157 114
217 156 111
217 156 112
217 156 112
217 156 112
217 156 112
217 156 112
217 156 112
217 156 112
217 156 112
216 156 112
218 155 109
212 159 125
53 50 55
0 0 0
11 10 10
26 26 26
0 0 0
0 0 1
136 113 106
238 172 124
149 123 112
0 1 6
0 0 0
25 25 25
14 14 14
0 0 0
77 73 77
225 158 104
227 151 88
116 102 101
0 0 0
8 8 7
28 28 28
1 0 0
0 0 0
116 99 97
236 171 124
167 134 118
6 9 15
0 0 0
13 16 20
10 12 16
0 0 0
26 28 34
194 150 125
221 157 110
216 156 112
217 156 112
217 156 112
217 156 112
217 156 112
217 156 112
218 157 113
216 156 112
200 145 98
197 143 95
210 153 109
223 156 105
213 139 76
220 142 76
187 148 125
0 3 10
177 177 167
255 255 255
185 180 175
0 0 0
96 83 83
233 185 161
204 165 146
132 109 100
10 15 19
231 230 229
255 255 255
133 126 125
0 0 0
152 129 121
228 150 84
220 155 104
100 89 92
33 34 43
45 45 53
43 44 52
42 41 49
43 44 52
43 43 51
42 42 50
44 44 52
42 43 51
42 42 50
43 44 52
45 45 53
27 29 35
0 0 0
0 0 0
20 20 20
62 62 62
0 0 0
1 0 0
8 9 12
42 42 52
10 12 15
0 0 0
0 0 0
58 58 58
29 29 29
0 0 0
73 69 76
225 159 109
229 155 94
111 98 100
0 0 0
15 14 14
66 66 66
0 0 0
0 0 0
5 6 8
41 42 51
15 16 20
0 0 0
14 4 0
175 142 87
147 115 59
4 0 0
0 0 0
21 22 27
45 44 53
43 44 52
42 42 50
42 42 50
44 44 52
42 42 50
43 43 51
41 43 51
42 41 50
141 110 132
168 133 159
63 53 66
69 66 72
213 156 115
225 145 76
181 145 128
0 5 9
153 156 192
149 255 255
129 182 203
0 0 0
94 84 81
233 185 161
202 163 145
138 115 107
0 0 0
25 24 24
37 37 37
12 11 10
0 0 0
150 126 119
229 149 81
216 161 123
38 41 50
0 0 0
2 2 2
0 0 0
0 0 0
0 0 0
0 0 0
0 0 0
0 0 0
0 0 0
0 0 0
0 0 0
0 0 0
0 0 0
0 0 0
0 0 0
0 0 0
0 0 0
0 0 0
0 0 0
1 0 0
0 0 0
1 0 0
0 0 0
0 0 0
0 0 0
3 3 3
0 0 0
73 69 76
226 160 109
229 155 94
111 99 100
0 0 0
4 3 3
0 0 0
0 0 0
0 0 0
1 0 0
1 1 1
0 0 0
18 16 19
211 180 133
255 193 81
253 206 139
197 150 75
5 2 0
0 0 1
1 0 0
0 0 0
0 0 0
0 0 0
0 0 0
0 0 0
0 1 1
0 0 0
170 126 147
250 204 235
255 190 230
212 174 195
39 41 57
191 150 122
231 149 78
178 136 120
14 59 55
150 144 217
53 240 223
130 186 243
68 95 122
82 80 71
235 186 163
202 163 145
137 114 106
0 0 0
9 8 8
65 65 65
3 2 1
0 0 0
148 124 118
229 149 82
215 159 121
41 43 52
0 0 0
49 48 49
50 50 50
0 0 0
61 61 61
35 35 35
0 0 0
70 69 70
20 20 20
0 0 0
75 75 75
6 6 6
8 8 8
71 71 71
0 0 0
22 22 22
68 68 68
0 0 0
36 36 36
57 57 57
0 0 0
51 51 51
43 43 43
0 0 0
64 64 64
31 31 31
0 0 0
74 70 77
226 160 109
229 155 94
112 99 101
0 0 0
16 15 15
73 73 73
0 0 0
26 26 26
64 64 64
0 0 0
36 38 32
133 113 124
178 169 221
229 177 106
156 150 222
255 208 112
151 127 88
11 15 23
0 0 0
73 73 73
12 12 12
4 4 4
75 74 75
2 1 1
5 8 6
137 120 132
255 206 228
164 160 234
220 167 220
198 187 245
88 74 144
189 147 111
230 151 82
180 130 113
1 160 154
84 255 236
23 248 217
76 255 226
21 231 208
87 111 107
234 178 154
202 163 145
137 114 106
0 0 0
6 5 5
22 22 22
3 2 1
0 0 0
155 130 118
226 144 74
219 161 118
42 44 51
0 0 0
14 14 14
13 13 13
0 0 0
20 20 20
14 13 13
0 0 0
24 24 24
6 6 6
0 0 0
20 20 20
1 1 1
2 2 2
25 25 25
1 0 0
10 9 8
25 24 23
0 0 0
15 14 13
21 20 19
0 0 0
19 19 19
14 14 14
0 0 0
17 17 17
11 10 10
0 0 0
73 69 76
226 160 109
229 155 94
111 99 101
0 0 0
7 6 6
19 19 19
0 0 0
8 8 8
23 23 23
2 0 0
0 2 10
169 138 63
255 206 80
252 192 72
251 195 77
255 204 77
131 110 59
0 0 2
1 0 0
20 20 20
3 3 3
1 1 1
25 25 25
6 4 4
0 0 0
110 93 107
255 202 244
252 191 227
251 185 223
255 202 241
183 150 183
186 145 113
228 145 71
187 140 119
1 201 192
0 255 241
0 250 223
4 255 233
0 252 228
94 139 136
233 172 148
202 163 145
137 114 106
0 0 0
4 3 3
11 11 11
3 2 2
0 0 0
117 102 100
244 172 117
200 155 128
20 23 31
0 0 0
8 8 8
7 7 7
0 0 0
0 0 0
0 0 0
0 0 0
0 0 0
0 0 0
0 0 0
11 11 11
1 1 1
0 0 0
0 0 0
0 0 0
0 0 0
0 0 0
0 0 0
0 0 0
0 0 0
0 0 0
0 0 0
0 0 0
0 0 0
9 9 9
7 7 7
0 0 0
73 69 76
226 160 109
229 155 94
111 99 100
0 0 0
5 5 4
10 10 10
0 0 0
0 0 0
0 0 0
3 2 1
0 0 0
110 81 31
176 128 47
164 119 46
151 110 41
189 137 50
75 53 18
0 0 0
2 1 0
10 10 10
2 2 2
0 0 0
0 0 0
3 2 2
0 0 0
61 44 53
206 147 178
167 126 151
201 157 186
179 126 152
139 106 133
155 127 109
250 177 119
153 113 105
0 159 143
2 170 146
22 209 194
13 163 147
0 195 168
94 120 114
233 176 153
202 163 145
138 114 106
0 0 0
9 8 8
79 79 79
0 0 0
0 0 0
6 7 10
69 65 71
35 34 39
0 0 0
0 0 0
49 49 49
50 50 50
0 0 0
0 0 1
91 79 77
150 125 116
35 33 35
0 0 0
0 0 0
78 78 78
8 8 8
0 0 0
24 23 26
135 114 108
147 121 111
145 120 111
145 120 110
145 120 110
144 119 110
151 125 115
67 60 61
0 0 0
0 0 0
66 66 66
33 33 33
0 0 0
74 70 77
226 160 109
229 155 94
112 99 101
0 0 0
17 16 16
76 76 76
0 0 0
0 0 0
45 41 43
146 122 113
145 119 110
146 120 111
140 116 109
141 116 109
138 114 108
144 120 113
42 39 42
0 0 0
0 0 0
77 77 77
13 13 13
0 0 0
18 18 21
137 115 108
114 97 93
5 6 9
0 0 0
41 39 39
82 77 78
0 0 0
3 2 2
21 22 26
73 69 76
15 15 19
0 4 3
0 0 0
80 90 89
28 31 30
0 0 0
95 82 81
233 185 161
202 163 145
137 114 106
0 0 0
3 3 2
0 0 0
0 0 0
0 0 0
0 0 0
0 0 0
0 0 0
0 0 0
0 0 0
0 0 0
2 2 2
0 0 0
31 35 44
222 167 130
246 161 90
150 127 121
0 0 0
3 2 1
0 0 0
4 3 2
0 0 0
125 109 108
246 168 105
226 150 85
230 153 89
230 153 89
230 153 89
228 153 90
237 155 85
200 157 133
6 11 19
0 0 0
1 1 1
3 3 3
0 0 0
73 69 76
226 160 109
229 155 94
111 99 100
0 0 0
4 3 3
0 0 0
2 1 0
0 0 1
167 138 126
242 161 93
227 151 88
230 153 89
230 154 89
230 154 89
228 152 88
242 161 94
164 136 125
0 0 0
2 1 0
0 0 0
4 3 3
0 0 0
111 99 101
244 166 102
236 169 119
65 63 71
0 0 0
5 5 5
0 0 1
1 1 2
2 2 0
0 0 0
0 0 0
0 0 0
0 0 0
0 2 2
0 1 1
4 5 5
0 0 0
94 82 81
233 185 161
202 163 145
138 114 106
0 0 0
8 7 7
62 62 62
0 0 0
14 14 14
57 57 57
0 0 0
28 28 28
49 49 49
0 0 0
39 39 39
41 41 41
0 0 0
38 41 49
213 158 121
225 146 78
152 127 118
0 0 0
2 1 0
61 61 61
9 8 7
0 0 0
128 110 107
228 154 93
210 139 81
213 142 83
213 142 83
213 142 83
212 142 84
217 142 77
195 151 125
12 17 25
0 0 0
52 52 52
27 26 26
0 0 0
73 69 76
225 159 109
229 155 94
111 98 100
0 0 0
14 13 13
60 60 60
0 0 0
0 0 5
166 135 121
223 147 83
211 141 83
213 142 83
213 142 83
213 142 83
211 141 83
224 148 83
163 133 120
0 0 3
0 0 0
60 60 60
13 12 12
0 0 0
116 102 102
226 152 90
223 158 108
72 68 74
0 0 0
32 14 5
94 19 3
0 0 0
35 35 36
42 42 42
0 0 0
49 48 48
29 29 29
0 0 0
57 58 58
20 20 20
0 0 0
95 82 81
233 185 161
202 163 145
138 115 106
0 0 0
10 9 7
44 43 42
2 1 0
13 12 11
42 41 40
0 0 0
20 20 19
33 33 33
0 0 0
25 25 25
26 26 27
0 0 0
37 39 48
214 160 123
229 149 80
151 127 119
0 0 0
2 1 0
38 38 38
7 6 5
0 0 0
131 113 108
228 153 91
208 137 77
212 140 80
212 140 80
212 140 80
211 140 81
216 139 73
198 153 125
12 17 25
0 0 0
33 33 33
18 18 18
0 0 0
77 72 77
224 157 105
226 151 89
115 102 100
0 0 0
10 9 9
38 38 38
0 0 0
0 0 5
169 138 122
222 145 79
210 139 80
212 140 80
212 140 80
212 140 80
210 139 80
223 146 80
167 136 121
0 0 3
0 0 0
38 38 38
9 9 8
0 0 0
114 101 102
229 154 92
228 162 110
59 56 73
62 61 0
242 235 10
255 230 5
201 202 0
58 58 23
22 22 29
0 0 0
36 35 34
23 22 21
0 0 0
41 40 39
18 17 16
0 0 0
96 83 81
232 185 161
202 162 143
140 117 109
0 0 0
3 2 2
0 0 0
0 0 0
0 0 0
0 0 0
0 0 0
0 0 0
0 0 0
0 0 0
0 0 0
2 2 2
0 0 0
36 38 47
215 160 123
229 149 80
152 127 120
0 0 0
2 1 0
0 0 0
3 3 2
0 0 0
111 98 99
244 172 116
229 156 97
232 159 101
232 159 101
232 159 101
230 158 101
240 162 100
187 150 130
2 7 14
0 0 0
1 1 1
3 2 3
0 0 0
58 56 64
232 169 124
242 170 115
94 86 90
0 0 0
3 3 3
0 0 0
2 1 0
0 0 0
153 128 119
244 167 106
229 157 100
232 159 101
232 159 101
232 159 101
229 157 100
244 168 107
150 126 118
0 0 0
2 1 0
0 0 0
4 3 3
0 0 0
115 101 102
230 155 92
224 158 110
72 71 73
199 206 0
250 249 4
243 247 1
255 255 5
154 153 5
0 0 0
4 4 0
0 0 0
0 0 0
0 0 0
0 0 0
3 3 3
0 0 0
97 85 84
233 185 159
189 153 133
203 147 106
113 101 102
111 97 96
114 100 99
112 98 97
112 98 97
112 98 97
118 103 102
63 57 61
0 0 0
0 0 0
51 51 51
55 55 55
0 0 0
38 40 49
215 160 123
229 149 80
152 127 120
0 0 0
2 0 0
83 83 83
8 8 8
0 0 0
11 11 14
92 81 84
106 92 92
104 91 91
103 90 90
104 91 91
104 91 91
106 93 94
39 36 40
0 0 0
0 0 0
70 70 70
32 32 32
0 0 0
0 1 2
76 68 71
92 82 84
6 7 9
0 0 0
14 14 14
80 80 80
0 0 0
0 0 0
24 23 26
101 89 91
104 91 91
104 91 91
103 90 89
104 91 91
104 91 91
101 89 90
23 22 25
0 0 0
0 0 0
81 81 81
16 15 15
0 0 0
115 101 103
231 155 92
218 159 110
100 65 74
234 147 0
177 188 7
229 228 5
255 255 5
150 150 0
28 25 46
120 106 101
112 98 97
113 99 98
112 98 97
114 99 98
113 99 97
108 97 100
183 135 103
221 171 139
187 140 108
227 145 73
233 155 90
234 156 91
234 156 91
234 156 91
234 156 91
233 156 92
236 154 84
228 172 134
31 34 43
0 0 0
2 2 2
2 2 2
0 0 0
36 38 47
215 160 123
229 149 80
152 127 120
0 0 0
2 1 0
0 0 0
0 0 0
0 0 0
0 0 0
0 0 0
0 0 0
0 0 0
0 0 0
0 0 0
0 0 0
0 0 0
0 0 0
0 0 0
0 0 0
0 0 0
0 0 0
0 0 0
0 0 0
0 0 0
0 0 0
0 0 0
0 0 0
0 0 0
0 0 0
0 0 0
0 0 0
0 0 0
0 0 0
0 0 0
0 0 0
0 0 0
0 0 0
0 0 0
0 0 0
0 0 0
0 0 0
0 0 0
0 0 0
4 3 3
0 0 0
115 101 102
231 154 92
220 161 111
95 65 70
139 0 26
247 126 25
246 250 1
187 185 0
36 41 20
197 154 135
243 160 88
232 155 92
234 156 91
234 156 91
234 156 91
234 156 91
235 157 92
224 143 71
217 156 111
179 133 101
213 160 125
203 152 118
204 153 118
204 153 118
204 153 118
204 153 118
203 152 118
210 156 118
163 131 115
11 14 19
0 0 0
28 28 28
30 30 30
0 0 0
37 39 49
215 160 123
229 149 80
152 127 120
0 0 0
2 1 0
44 44 44
3 3 3
4 4 4
45 45 45
0 0 0
17 16 16
45 44 44
0 0 0
26 25 25
39 38 38
0 0 0
33 33 33
27 27 27
0 0 0
38 38 38
18 18 18
0 0 0
43 43 43
12 11 11
3 2 2
45 45 45
0 0 0
7 7 7
43 43 43
0 0 0
16 16 16
41 41 41
0 0 0
29 28 28
37 36 36
0 0 0
37 36 36
28 27 27
0 0 0
41 41 41
15 15 15
0 0 0
43 43 43
10 9 9
0 0 0
115 101 102
229 154 92
226 160 110
64 67 74
13 0 0
70 9 4
30 35 0
9 7 0
0 0 4
136 113 103
212 158 121
202 152 117
204 153 118
204 153 118
204 153 118
204 153 118
204 153 118
207 155 122
208 155 118
19 22 29
23 26 34
22 25 34
22 25 34
22 25 34
22 25 34
22 25 34
22 26 34
23 26 36
7 9 15
1 0 0
0 0 0
35 35 35
38 38 38
0 0 0
37 40 49
215 160 123
229 149 80
152 127 119
0 0 0
5 4 3
58 58 58
6 6 6
8 8 8
55 55 55
0 0 0
16 16 16
51 51 51
0 0 0
28 28 28
44 44 45
0 0 0
42 42 42
37 36 36
0 0 0
51 51 51
25 25 25
0 0 0
57 57 57
14 14 14
2 2 2
59 59 59
3 3 3
12 11 11
58 57 57
0 0 0
23 23 23
52 52 52
0 0 0
33 33 33
40 40 41
0 0 0
42 42 42
30 30 30
0 0 0
50 50 50
20 20 21
0 0 0
58 57 57
15 14 14
0 0 0
116 102 103
229 154 92
225 160 110
71 66 74
0 0 0
3 5 3
0 0 0
2 2 0
1 0 0
3 5 9
22 25 35
22 25 34
22 25 34
22 25 34
22 25 34
22 25 34
22 25 34
22 25 33
22 25 34
0 0 0
0 0 0
0 0 0
0 0 0
0 0 0
0 0 0
0 0 0
0 0 0
0 0 0
1 0 0
0 0 0
0 0 0
0 0 0
2 2 2
0 0 0
36 38 47
215 160 123
229 148 80
152 129 122
0 0 0
2 1 0
0 0 0
0 0 0
0 0 0
0 0 0
0 0 0
0 0 0
0 0 0
0 0 0
0 0 0
0 0 0
0 0 0
0 0 0
0 0 0
0 0 0
0 0 0
0 0 0
0 0 0
0 0 0
0 0 0
0 0 0
0 0 0
0 0 0
0 0 0
0 0 0
0 0 0
0 0 0
0 0 0
0 0 0
0 0 0
0 0 0
0 0 0
0 0 0
0 0 0
0 0 0
0 0 0
0 0 0
0 0 0
0 0 0
4 3 3
0 0 0
115 103 105
229 154 92
225 160 110
69 67 74
0 0 0
6 3 3
2 2 0
0 0 0
0 0 0
2 2 1
0 0 0
0 0 0
0 0 0
0 0 0
0 0 0
0 0 0
0 0 0
0 0 0
0 0 0
1 1 1
1 1 1
1 1 1
1 1 1
4 2 2
0 0 0
19 19 19
75 75 75
0 0 0
35 35 35
65 65 65
0 0 0
51 51 51
53 53 53
0 0 0
37 40 49
215 160 124
220 142 75
197 147 113
87 81 86
78 72 76
82 75 80
84 78 81
57 55 60
0 0 1
0 0 0
1 1 1
2 2 2
0 0 1
0 0 0
20 20 24
81 75 80
81 75 79
81 75 79
80 74 78
82 75 80
81 75 79
80 74 78
82 76 80
80 74 78
80 74 78
82 76 80
80 74 78
80 74 78
82 76 80
80 74 78
81 75 79
81 75 79
84 78 82
32 32 37
0 0 0
1 1 1
2 2 2
1 1 1
1 1 0
0 0 0
45 43 49
85 78 82
81 75 79
81 74 78
78 74 80
179 138 114
220 144 79
226 162 114
69 65 73
0 0 0
4 3 3
2 0 0
0 0 0
0 0 0
0 0 1
1 1 2
1 1 1
1 1 1
1 1 1
2 2 2
2 1 1
1 1 1
1 1 1
1 1 2
2 1 1
2 1 1
0 0 0
0 0 0
0 0 0
0 0 0
3 3 3
13 13 13
0 0 0
8 7 7
11 11 11
0 0 0
8 8 8
10 10 10
0 0 0
39 42 49
223 164 121
213 135 68
218 142 76
230 156 97
229 157 101
229 157 100
228 154 95
235 171 125
71 66 73
0 0 0
3 3 3
0 0 0
1 0 0
0 1 6
171 139 125
239 162 101
227 156 100
229 157 100
229 157 100
229 157 100
229 157 100
229 157 100
229 157 100
230 158 101
230 158 101
229 157 100
229 157 100
229 157 100
229 157 100
229 157 100
229 157 100
228 157 101
234 158 96
201 156 131
13 18 25
0 0 0
1 1 1
2 2 2
0 0 0
38 39 47
221 166 130
230 155 94
228 157 101
229 157 100
231 158 101
225 144 78
211 134 69
233 164 110
75 71 75
0 0 0
3 3 3
0 0 0
0 0 0
0 0 0
2 2 1
1 0 0
2 2 1
0 0 0
0 0 0
0 0 0
0 0 0
0 0 0
1 1 1
2 1 1
0 0 4
0 0 0
0 0 0
0 0 0
0 0 0
0 0 0
0 0 0
0 0 0
0 0 4
0 0 2
0 0 0
0 0 0
0 0 0
1 1 1
0 0 0
13 16 22
185 146 125
228 164 115
220 160 117
219 157 112
219 157 111
218 157 111
219 156 108
216 162 126
55 52 58
0 0 0
2 2 2
0 0 0
1 0 0
0 0 3
146 121 111
228 163 114
217 156 110
219 157 111
219 157 111
219 157 111
219 157 111
219 157 111
219 157 111
216 154 107
217 155 108
219 157 111
219 157 111
219 157 111
219 157 111
219 157 111
219 157 111
217 156 111
225 160 110
176 140 121
8 11 18
0 0 0
1 1 1
2 1 2
0 0 0
27 29 36
199 153 126
222 157 108
218 157 111
222 158 111
217 160 105
200 160 117
225 164 108
210 160 130
36 36 43
0 0 0
2 2 2
0 0 0
0 0 0
0 0 0
0 0 1
0 0 5
0 0 0
1 1 1
0 0 0
26 26 26
8 8 8
0 0 0
0 0 0
0 0 3
139 112 98
44 40 42
0 0 0
2 1 1
0 0 0
2 1 1
0 0 0
48 44 46
175 141 125
116 97 92
0 1 3
0 0 0
1 1 1
0 0 0
1 1 1
0 0 0
19 21 25
50 50 57
46 46 53
47 47 55
47 47 55
46 46 54
50 50 58
31 32 39
0 0 0
0 0 0
0 0 0
0 0 0
0 0 1
0 0 0
9 10 13
46 47 56
47 47 55
47 47 55
47 47 55
47 47 55
47 47 55
47 47 55
47 47 55
43 43 50
46 44 52
48 47 55
47 47 55
47 47 55
47 47 55
47 47 55
47 47 55
47 47 54
49 49 58
16 17 22
0 0 0
1 1 1
0 0 0
0 0 0
1 1 1
0 0 0
23 25 30
50 50 58
49 47 54
32 43 55
60 31 76
170 44 52
55 33 79
14 26 33
0 0 0
0 0 1
0 0 0
0 0 0
1 1 1
0 0 0
89 76 75
182 146 128
73 64 65
0 0 0
0 0 0
65 65 65
20 20 20
0 0 0
21 21 24
146 119 108
213 155 113
141 119 111
0 0 0
4 3 2
0 0 0
3 2 1
0 0 0
153 130 122
241 156 83
225 168 127
37 40 49
0 0 0
2 2 2
0 0 0
0 0 0
1 1 1
1 1 1
0 0 0
0 0 0
0 0 0
0 0 0
0 0 0
0 0 0
0 0 0
1 1 1
0 0 0
0 0 0
0 0 0
0 0 0
0 0 0
1 1 1
0 0 0
0 0 0
0 0 0
0 0 0
0 0 0
0 0 0
0 0 0
0 0 0
0 0 0
0 0 0
0 0 0
0 0 0
0 0 0
0 0 0
0 0 0
0 0 0
0 0 0
0 0 0
1 1 1
0 0 1
0 0 0
0 0 0
0 0 0
0 0 0
1 1 1
1 1 1
2 2 2
0 0 0
77 49 56
160 142 215
251 45 46
149 140 220
70 38 43
0 0 0
2 2 2
0 0 0
1 1 1
0 0 0
10 15 23
204 160 133
241 153 76
188 151 132
0 4 11
0 0 0
0 0 0
4 3 3
0 0 0
95 85 86
244 181 135
200 163 145
137 113 105
0 0 0
3 2 2
0 0 0
3 2 1
0 0 0
148 124 117
226 147 80
214 159 120
39 41 49
0 0 0
2 2 2
0 0 0
0 0 0
0 0 0
1 1 1
2 2 2
2 2 2
2 2 2
2 2 2
2 2 2
2 2 2
1 1 1
0 0 0
0 0 0
0 0 0
0 0 0
0 0 0
0 0 0
0 0 0
2 2 2
2 2 2
2 2 2
2 2 2
2 2 2
2 2 2
2 2 2
2 2 2
2 2 2
2 2 2
2 2 2
2 2 2
2 2 2
2 2 2
2 2 2
2 2 2
2 2 2
2 2 2
1 1 1
0 0 0
0 0 0
0 0 0
0 0 0
0 0 0
0 0 0
2 1 1
1 3 3
4 0 0
211 22 21
255 90 79
244 14 14
255 93 81
198 16 15
0 0 0
1 1 1
0 0 0
1 1 1
0 0 0
12 17 25
195 152 126
225 144 74
180 144 126
2 7 14
0 0 0
67 67 67
23 22 22
0 0 0
94 81 80
230 185 160
202 162 144
136 112 105
0 0 0
3 3 2
0 0 0
3 2 1
0 0 0
146 123 116
229 149 81
215 160 122
39 41 50
0 0 0
5 4 3
3 2 1
3 2 1
2 2 2
0 0 0
0 0 0
0 0 0
0 0 0
0 0 0
1 1 1
3 2 2
3 2 2
1 1 1
0 0 0
0 0 0
0 0 0
0 0 0
0 0 0
3 2 2
3 2 1
3 2 1
3 2 1
3 2 1
3 2 1
3 2 2
3 2 3
3 2 3
3 2 3
3 2 3
3 2 3
3 2 3
3 3 2
3 2 1
3 2 1
3 2 1
3 2 1
3 2 1
3 2 2
0 0 1
0 0 0
0 0 0
0 0 0
0 0 0
0 0 0
4 2 2
0 2 2
22 1 1
241 0 0
255 0 0
253 0 0
255 0 0
232 0 0
13 1 1
0 2 2
4 2 1
4 3 2
0 0 0
13 17 25
197 154 128
228 146 74
181 145 128
0 6 13
0 0 0
22 22 22
10 9 9
0 0 0
94 81 80
233 185 160
202 163 144
135 112 104
0 0 0
3 2 2
1 0 0
3 2 1
0 0 0
145 121 114
228 149 81
217 161 121
44 45 57
0 0 0
2 2 2
0 0 0
0 0 0
0 0 0
0 0 0
0 0 0
0 0 0
0 0 0
0 0 0
0 0 0
0 0 0
0 0 0
0 0 0
0 0 0
0 0 0
0 0 0
0 0 0
0 0 0
0 0 0
0 0 0
0 0 0
0 0 0
0 0 0
0 0 0
0 0 0
0 0 0
0 0 0
0 0 0
0 0 0
0 0 0
0 0 0
0 0 0
0 0 0
0 0 0
0 0 0
0 0 0
0 0 0
0 0 0
0 0 0
0 0 0
0 0 0
0 0 0
0 0 0
0 0 0
1 0 0
0 0 0
9 0 0
204 1 1
162 3 3
202 0 0
164 3 3
197 1 1
1 0 0
0 0 0
1 0 0
1 1 1
0 0 0
16 21 31
200 155 129
227 145 74
182 146 128
0 5 13
0 0 0
7 7 7
5 5 5
0 0 0
94 81 80
233 185 161
202 163 144
135 112 104
0 0 0
4 3 2
4 0 0
3 2 1
0 0 0
145 121 113
226 151 88
217 146 88
175 137 114
133 114 109
139 116 109
137 115 108
141 119 113
48 43 46
0 0 0
2 1 1
0 0 0
1 1 1
0 0 0
8 9 11
122 104 99
118 101 97
6 7 9
0 0 0
1 1 1
0 0 0
0 0 0
0 1 3
113 103 107
151 122 109
154 126 115
154 126 115
154 126 116
154 125 112
154 133 130
106 86 113
95 66 94
96 69 96
87 62 87
90 63 89
100 77 106
148 130 132
155 126 113
154 126 116
154 126 115
154 127 116
150 121 107
130 115 117
12 14 18
0 0 0
1 1 1
0 0 0
0 0 0
0 0 1
97 84 82
138 116 110
22 22 24
3 0 0
3 1 1
7 0 0
3 1 1
2 0 0
27 26 29
133 113 109
139 117 109
138 116 109
134 114 108
162 131 115
216 148 94
222 145 80
181 144 125
2 7 14
0 0 0
74 74 74
25 25 25
0 0 0
95 82 81
233 185 161
202 163 145
136 113 105
0 0 0
3 3 2
0 0 0
3 2 1
0 0 0
154 128 119
238 156 86
218 142 76
230 149 79
237 156 87
236 155 86
233 154 86
247 161 87
189 153 133
0 1 7
1 0 0
0 0 0
3 3 3
0 0 0
90 83 88
241 168 111
240 169 113
83 77 84
0 0 0
3 3 3
1 1 1
0 0 0
1 6 13
203 161 135
208 163 139
146 122 114
154 126 114
153 125 115
153 124 111
153 132 129
105 86 112
94 65 93
96 69 96
92 66 92
93 65 91
99 77 105
147 129 132
154 125 111
153 125 115
154 126 115
147 121 112
188 151 134
229 178 144
24 28 34
0 0 0
1 1 2
2 2 2
0 0 0
46 47 56
229 169 126
245 164 98
130 113 112
0 0 0
6 3 2
1 0 0
6 2 2
0 0 0
151 128 120
253 169 99
232 152 83
236 155 86
237 156 87
232 151 81
220 143 77
231 148 77
192 153 130
0 5 12
0 0 0
0 0 0
4 3 3
0 0 0
94 81 80
233 185 161
202 163 145
136 113 105
0 0 0
4 3 2
4 0 0
2 1 1
0 0 0
56 47 43
190 146 118
193 149 122
189 147 121
188 146 120
188 146 120
187 145 119
194 151 125
94 80 78
0 0 0
2 1 1
0 0 0
4 3 3
0 0 0
97 88 90
225 155 97
225 156 100
90 83 86
0 0 0
3 3 3
0 0 1
0 0 0
0 3 10
198 159 139
122 104 99
0 0 0
4 3 3
0 0 0
0 0 0
0 0 0
0 0 0
0 0 0
0 0 0
0 0 0
0 0 0
0 0 0
0 0 0
0 0 0
0 0 0
3 3 3
0 0 0
78 71 73
221 176 151
20 23 29
0 0 0
1 1 1
3 2 3
0 0 0
54 53 61
219 159 114
226 149 83
135 116 111
0 0 0
3 2 2
0 0 0
2 2 2
0 0 0
65 58 59
189 148 124
188 146 119
188 146 120
188 146 120
189 147 121
191 147 121
199 154 126
96 83 81
0 0 0
0 0 0
53 53 53
19 19 19
0 0 0
94 82 81
233 185 161
202 163 145
136 113 105
0 0 0
4 3 2
2 0 0
0 0 0
0 0 0
0 0 0
5 9 14
6 12 19
6 11 18
6 11 18
6 11 18
6 11 18
5 10 17
0 1 2
0 0 0
0 0 0
0 0 0
4 3 3
0 0 0
95 86 91
228 157 100
228 158 103
88 81 86
0 0 0
3 3 3
0 0 1
0 0 0
0 4 11
201 161 141
124 104 98
0 0 0
7 5 4
3 2 1
3 2 1
3 2 2
3 2 3
3 2 3
3 2 3
3 2 3
3 2 3
3 2 3
3 3 2
3 2 1
3 2 1
6 5 4
0 0 0
81 71 71
224 177 153
21 23 30
0 0 0
1 1 2
2 2 3
0 0 0
52 52 60
221 160 117
229 151 86
133 114 112
0 0 0
3 2 2
0 0 0
0 0 0
0 0 0
0 0 0
5 9 15
6 12 19
6 11 18
6 11 18
6 11 18
6 11 18
6 10 17
0 1 2
1 1 0
0 0 0
38 38 38
15 14 14
0 0 0
94 82 81
233 185 161
202 163 145
136 113 105
0 0 0
3 3 2
0 0 0
0 0 0
0 0 0
2 2 1
1 0 0
0 0 0
0 0 0
0 0 0
0 0 0
0 0 0
0 0 0
2 2 2
0 0 0
0 0 0
0 0 0
4 3 3
0 0 0
95 87 91
228 157 100
228 158 103
88 81 87
0 0 0
3 3 3
0 0 1
0 0 0
0 3 11
201 161 142
123 104 98
0 0 0
4 3 3
0 0 0
0 0 0
0 0 0
0 0 0
0 0 0
0 0 0
0 0 0
0 0 0
0 0 0
0 0 0
0 0 0
0 0 0
3 3 3
0 0 0
80 71 72
224 178 153
21 23 30
0 0 0
1 1 2
2 2 3
0 0 0
52 52 61
221 161 117
229 151 86
134 115 112
0 0 0
3 2 2
0 0 0
0 0 0
0 0 0
2 2 2
1 0 0
0 0 0
0 0 0
0 0 0
0 0 0
0 0 0
0 0 0
2 2 2
0 0 0
0 0 0
0 0 0
4 3 3
0 0 0
94 81 80
233 185 161
202 163 144
135 112 104
0 0 0
4 3 2
4 0 0
0 0 0
0 0 0
0 0 0
1 1 1
1 1 1
1 1 1
1 1 1
1 1 1
1 1 1
1 1 1
0 0 0
0 0 0
1 1 1
1 1 1
5 4 4
0 0 0
96 87 92
228 157 100
228 158 103
88 81 87
0 0 0
3 3 3
0 0 1
0 0 0
0 4 11
201 161 141
123 105 99
0 0 0
4 3 2
0 0 0
0 0 0
0 0 0
0 0 0
0 0 0
0 0 0
0 0 0
0 0 0
0 0 0
0 0 0
0 0 0
0 0 0
3 3 3
0 0 0
80 71 72
224 178 153
21 23 30
0 0 0
1 1 2
2 2 3
0 0 0
52 52 61
221 161 117
229 151 85
134 115 112
0 0 0
4 3 3
1 1 1
1 1 1
0 0 0
0 0 0
1 1 1
1 1 1
1 1 1
1 1 1
1 1 1
1 1 1
1 1 1
0 0 0
2 2 2
0 0 0
76 76 76
26 25 25
0 0 0
95 82 81
233 185 161
202 163 145
136 113 105
0 0 0
3 3 2
0 0 0
0 0 0
0 0 0
2 2 2
0 0 0
2 1 1
1 1 1
0 0 0
0 0 0
0 0 0
0 0 0
1 1 1
2 2 1
0 0 0
0 0 0
4 3 3
0 0 0
95 88 92
228 157 100
228 158 103
88 81 87
0 0 0
3 3 3
0 0 1
0 0 0
0 4 11
201 161 141
123 105 99
0 0 0
4 3 2
0 0 0
0 0 0
0 0 0
0 0 0
0 0 0
0 0 0
0 0 0
0 0 0
0 0 0
0 0 0
0 0 0
0 0 0
3 3 3
0 0 0
81 71 72
224 178 153
21 23 30
0 0 0
1 1 2
2 2 3
0 0 0
52 52 61
221 161 117
229 151 86
134 116 113
0 0 0
3 2 2
0 0 0
0 0 0
2 1 1
1 1 1
0 0 0
0 0 0
0 0 0
0 0 0
0 0 0
2 2 1
0 0 0
2 2 2
0 0 0
0 0 0
0 0 0
4 3 3
0 0 0
94 81 80
233 185 161
202 163 145
137 114 106
0 0 0
3 3 2
0 0 0
0 0 0
0 0 0
0 0 0
4 8 15
2 3 6
0 0 0
0 0 0
0 0 0
0 0 0
0 0 0
0 0 0
1 3 5
5 10 18
5 10 17
8 12 19
0 1 10
119 104 104
227 153 92
228 159 104
88 81 86
0 0 0
3 3 3
0 0 1
0 0 0
0 4 11
201 161 141
124 104 98
0 0 0
7 5 3
3 2 1
3 2 1
3 2 1
3 2 1
3 2 1
3 2 1
3 2 1
3 2 1
3 2 1
3 2 1
3 2 1
3 2 1
6 5 4
0 0 0
83 73 72
223 177 153
21 23 30
0 0 0
1 1 2
2 2 3
0 0 0
52 52 60
221 161 118
226 147 80
154 128 118
0 7 18
6 11 17
5 10 17
5 11 18
2 4 8
0 0 0
0 0 0
0 0 0
0 0 0
0 0 0
0 0 0
1 1 3
5 9 16
0 1 2
1 1 0
0 0 0
38 38 38
15 14 14
0 0 0
94 82 81
233 185 161
202 163 145
137 114 106
0 0 0
3 3 2
0 0 0
2 2 2
0 0 0
64 58 60
199 155 129
139 114 104
2 5 9
0 0 0
1 1 1
1 1 1
0 0 0
3 5 9
136 112 102
194 150 123
185 144 119
187 145 119
188 147 123
212 149 100
210 137 74
228 160 106
89 82 86
0 0 0
3 3 3
0 0 1
0 0 0
0 3 10
198 159 139
122 104 99
0 0 0
4 3 3
0 0 0
0 0 0
0 0 0
0 0 0
0 0 0
0 0 0
0 0 0
0 0 0
0 0 0
0 0 0
0 0 0
0 0 0
3 3 3
0 0 0
78 71 73
221 176 152
20 23 29
0 0 0
1 1 1
2 2 3
0 0 0
53 53 61
222 162 117
211 136 73
215 147 94
191 148 122
186 144 120
186 144 120
192 148 121
159 128 114
18 18 22
0 0 0
1 1 1
0 0 0
1 1 0
0 0 0
110 93 89
205 159 131
93 80 79
0 0 0
0 0 0
54 54 54
19 19 19
0 0 0
94 82 81
233 185 161
202 163 145
137 114 106
0 0 0
3 3 2
0 0 0
3 2 1
0 0 0
156 132 123
237 152 77
225 167 124
40 42 51
0 0 0
2 2 2
2 2 2
0 0 0
32 36 44
234 176 135
237 152 78
235 155 87
236 155 86
236 155 85
230 153 88
227 150 84
243 173 119
83 78 84
0 0 0
3 3 3
1 1 1
0 0 0
1 6 13
203 161 135
206 162 139
143 120 113
151 124 113
150 123 113
150 123 113
150 123 113
150 123 113
150 123 113
150 123 113
150 123 113
150 123 113
150 123 113
150 123 113
150 123 113
150 123 113
151 124 114
144 119 111
186 150 134
229 178 144
24 28 34
0 0 0
1 1 2
2 2 2
0 0 0
47 48 57
233 172 129
230 151 83
230 153 89
235 154 85
236 155 86
236 155 87
234 150 78
249 179 126
67 65 72
0 0 0
3 3 3
1 1 1
0 0 0
11 17 25
206 161 131
236 148 70
190 153 131
0 5 12
0 0 0
0 0 0
4 3 3
0 0 0
94 81 80
233 185 161
202 163 145
137 114 106
0 0 0
3 3 2
0 0 0
3 2 1
0 0 0
147 124 117
227 149 81
213 159 121
38 40 49
0 0 0
2 2 2
0 0 0
1 1 0
0 0 0
84 74 74
147 123 115
138 116 109
140 117 110
140 117 110
140 116 109
146 120 111
116 99 97
7 8 11
0 0 0
1 1 1
0 0 0
0 0 0
0 1 3
115 104 109
153 124 110
156 128 116
156 128 116
156 128 116
156 128 116
156 128 116
156 128 116
156 128 116
156 128 116
156 128 116
156 128 116
156 128 116
156 128 116
156 128 116
156 128 116
156 128 116
156 129 117
152 122 108
132 117 118
12 14 18
0 0 0
1 1 1
0 0 0
0 0 0
0 0 1
97 84 83
148 122 113
140 116 108
140 117 110
140 117 110
139 116 109
146 121 114
105 91 89
2 3 5
0 0 0
0 0 0
1 1 1
0 0 0
12 16 25
195 152 127
227 146 75
179 144 126
2 7 14
0 0 0
73 73 73
25 25 25
0 0 0
95 82 81
233 185 161
202 163 145
137 114 106
0 0 0
3 3 2
0 0 0
3 2 1
0 0 0
149 125 118
229 149 81
216 160 122
38 40 49
0 0 0
2 2 2
0 0 0
0 0 0
0 0 0
0 0 0
0 0 0
0 0 0
0 0 0
0 0 0
0 0 0
0 0 0
0 0 0
0 0 0
0 0 0
0 0 0
0 0 0
0 0 0
0 0 0
0 0 0
0 0 0
0 0 0
0 0 0
0 0 0
0 0 0
0 0 0
0 0 0
0 0 0
0 0 0
0 0 0
0 0 0
0 0 0
0 0 0
0 0 0
0 0 0
0 0 0
0 0 0
0 0 0
0 0 0
0 0 0
0 0 0
0 0 0
0 0 0
0 0 0
0 0 0
0 0 0
0 0 0
0 0 0
0 0 0
0 0 0
0 0 0
0 0 0
0 0 0
0 0 0
0 0 0
0 0 0
1 1 1
0 0 0
11 16 25
197 153 128
228 146 74
182 145 127
0 6 13
0 0 0
8 8 8
6 5 5
0 0 0
94 81 80
233 185 161
202 163 145
137 114 106
0 0 0
3 3 2
0 0 0
3 2 1
0 0 0
149 125 119
229 149 81
216 160 122
38 40 49
0 0 0
2 2 2
0 0 0
0 0 0
0 0 0
3 2 2
3 2 1
3 2 1
3 2 1
3 2 1
3 2 1
3 2 1
3 2 2
1 1 1
0 0 0
0 0 0
0 0 0
0 0 0
0 0 0
3 2 2
3 2 1
3 2 1
3 2 1
3 2 1
3 2 1
3 2 1
3 2 1
3 2 1
3 2 1
3 2 1
3 2 1
3 2 1
3 2 1
3 2 1
3 2 1
3 2 1
3 2 1
3 2 1
3 2 2
0 0 1
0 0 0
0 0 0
0 0 0
0 0 0
0 0 0
3 2 2
3 2 1
3 2 1
3 2 1
3 2 1
3 2 1
3 2 1
3 2 2
0 0 0
0 0 0
0 0 0
1 1 1
0 0 0
11 16 25
197 153 128
228 146 74
182 145 128
0 6 13
0 0 0
21 21 21
9 9 9
0 0 0
94 82 80
233 185 161
202 163 145
137 114 106
0 0 0
3 3 2
0 0 0
3 2 1
0 0 0
149 125 119
229 149 81
216 160 121
40 42 51
0 0 0
4 4 4
2 2 2
2 2 2
0 0 0
0 0 0
0 0 0
0 0 0
0 0 0
0 0 0
0 0 0
1 1 1
2 2 2
2 2 2
2 2 2
2 2 2
2 2 2
2 2 2
2 2 2
2 2 2
2 2 2
1 1 1
0 0 0
0 0 0
0 0 0
0 0 0
0 0 0
0 0 0
1 1 1
2 2 2
0 0 0
0 0 0
0 0 0
1 1 0
0 0 0
1 1 0
0 0 0
2 2 2
2 2 2
2 2 2
2 2 2
2 2 2
2 2 2
2 2 2
2 2 2
2 2 2
2 2 2
0 0 0
0 0 0
0 0 0
0 0 0
0 0 0
0 0 0
0 0 0
2 2 2
2 2 2
3 3 3
0 0 0
14 18 27
197 153 128
228 146 74
182 145 128
2 7 14
0 0 0
67 67 67
23 23 23
0 0 0
95 82 81
233 185 161
202 163 145
137 114 106
0 0 0
3 3 2
0 0 0
3 2 1
0 0 0
149 125 119
229 149 81
216 161 123
38 41 50
0 0 0
2 2 2
0 0 0
0 0 0
1 1 1
0 0 0
0 0 0
0 0 0
0 0 0
0 0 0
1 1 1
0 0 0
0 0 0
0 0 0
0 0 0
0 0 0
0 0 0
0 0 0
0 0 0
0 0 0
0 0 0
1 1 1
0 0 0
0 0 0
0 0 0
0 0 0
0 0 0
1 1 1
1 0 0
0 0 0
1 1 1
0 0 0
0 0 0
1 1 0
0 0 0
1 1 0
1 1 1
0 0 0
0 0 0
0 0 0
0 0 0
0 0 0
0 0 0
0 0 0
0 0 0
0 0 0
0 0 0
1 1 1
0 0 0
0 0 0
0 0 0
0 0 0
0 0 0
1 1 1
0 0 0
0 0 0
1 1 1
0 0 0
11 17 25
197 155 129
228 146 74
182 145 128
0 5 12
0 0 0
0 0 0
4 3 3
0 0 0
94 81 80
233 185 161
202 163 145
137 114 106
0 0 0
3 3 2
0 0 0
3 2 1
0 0 0
148 124 117
228 150 85
220 155 104
103 91 93
36 38 47
47 46 54
45 45 53
44 44 53
7 9 11
0 0 0
0 0 1
0 0 0
0 0 0
0 0 0
0 0 0
31 32 39
47 47 56
44 44 52
45 45 53
45 45 53
45 45 53
45 45 53
45 45 53
45 45 53
46 46 55
11 12 16
0 0 0
0 1 1
0 0 0
0 0 0
1 1 1
0 0 0
25 26 30
37 38 46
0 0 0
0 0 0
0 0 0
0 0 0
0 0 0
0 0 0
5 6 8
42 43 51
46 46 53
45 45 53
45 45 53
45 45 53
45 45 53
45 45 53
45 45 53
47 46 54
37 38 46
1 2 3
0 0 0
0 0 0
0 0 0
0 0 0
0 0 0
2 3 5
39 40 49
46 46 54
46 46 54
39 40 48
77 73 80
212 154 113
225 145 77
181 145 127
1 7 14
0 0 0
65 65 65
22 22 22
0 0 0
95 82 81
233 185 161
202 163 145
137 114 106
0 0 0
3 3 2
0 0 0
3 2 1
0 0 0
154 128 116
227 149 84
210 136 74
222 152 96
218 158 113
218 157 111
216 156 110
227 163 115
138 115 107
0 0 1
1 1 0
0 0 0
2 2 2
0 0 0
55 52 57
217 164 130
223 160 115
219 159 116
218 157 111
218 157 111
218 157 111
218 157 111
218 157 111
216 156 111
226 162 112
157 128 115
0 3 8
0 0 0
0 0 0
2 2 2
0 0 0
37 37 43
203 152 118
225 167 127
67 62 67
0 0 0
3 2 2
0 0 0
2 1 1
0 0 0
125 105 100
227 164 117
216 155 110
218 157 111
218 157 111
218 157 111
218 157 111
218 157 111
219 159 115
221 160 115
227 168 127
88 78 80
0 0 0
3 2 2
0 0 0
3 2 2
0 0 0
104 90 90
226 165 120
216 155 109
218 157 111
218 158 113
222 155 102
213 139 76
220 142 75
187 148 124
2 7 14
0 0 0
25 25 25
11 10 10
0 0 0
94 82 80
233 185 161
202 163 145
137 114 106
0 0 0
3 3 2
0 0 0
3 2 2
0 0 0
125 107 104
242 171 117
228 159 106
229 158 103
230 157 98
230 157 99
228 156 98
240 163 101
166 136 123
0 0 4
1 0 0
0 0 0
4 3 3
0 0 0
101 92 92
235 161 101
210 134 69
223 146 80
231 158 100
230 157 99
230 157 99
230 157 99
230 157 99
228 156 99
238 160 98
185 148 129
2 7 14
0 0 0
1 1 1
3 3 3
0 0 0
79 74 78
230 161 106
230 153 87
118 105 102
0 0 0
4 3 3
0 0 0
2 1 0
0 0 0
151 126 118
242 165 105
227 155 98
230 157 99
230 157 99
230 157 99
230 157 99
231 158 101
226 149 84
210 135 72
232 153 88
141 120 111
0 0 0
3 2 2
0 0 0
3 2 2
0 0 0
129 111 108
243 168 110
227 155 96
230 157 99
230 157 99
229 158 101
228 160 107
241 167 110
162 132 121
0 0 4
1 0 0
4 4 4
5 4 4
0 0 0
94 81 80
233 185 161
202 163 145
137 114 106
0 0 0
3 3 2
0 0 0
1 1 1
0 0 0
9 10 12
77 71 76
84 76 80
82 75 79
82 75 80
82 75 80
82 75 80
82 76 82
17 18 22
0 0 0
1 1 1
0 0 0
4 3 3
0 0 0
94 85 89
229 159 105
221 146 84
165 131 112
76 72 79
84 76 81
84 77 82
82 75 80
83 76 81
83 76 81
84 77 83
26 26 31
0 0 0
1 1 1
2 2 2
4 4 4
0 0 0
72 68 75
225 159 109
228 154 94
110 97 99
0 0 0
4 3 3
2 2 2
0 0 1
0 0 0
14 15 19
79 73 79
84 76 81
83 76 81
81 74 80
84 77 81
85 77 82
74 70 77
143 118 108
220 150 93
229 153 92
132 113 110
0 0 0
3 3 2
2 2 2
0 0 1
0 0 0
8 10 13
75 70 76
85 77 82
84 76 81
81 74 80
83 76 80
84 76 80
83 76 80
21 21 25
0 0 0
0 0 0
74 74 74
25 25 25
0 0 0
95 82 81
233 185 161
202 163 145
137 114 106
0 0 0
3 3 2
0 0 0
0 0 0
0 0 0
1 1 1
0 0 0
0 0 0
0 0 0
0 0 0
0 0 0
0 0 0
0 0 0
0 0 1
0 0 0
0 0 0
0 0 0
4 3 3
0 0 0
95 87 91
228 157 100
228 158 103
88 83 89
0 0 0
3 3 3
0 0 0
0 0 0
0 0 0
0 0 0
0 0 0
0 0 0
0 0 0
0 0 0
0 0 0
3 3 3
0 0 0
73 69 76
226 160 109
229 155 94
111 99 100
0 0 0
4 3 3
0 0 0
0 0 0
0 0 0
0 0 0
0 0 0
0 0 0
0 0 0
0 0 0
0 0 0
2 2 3
0 0 0
52 54 63
221 161 118
229 151 85
134 115 112
0 0 0
3 2 2
0 0 0
0 0 0
0 0 0
0 0 0
0 0 0
0 0 0
0 0 0
0 0 0
0 0 0
0 0 0
0 0 0
0 0 0
0 0 0
0 0 0
0 0 0
4 3 3
0 0 0
94 81 80
233 185 161
202 163 145
138 114 106
0 0 0
3 3 2
0 0 0
0 0 0
0 0 0
1 1 1
3 3 3
3 3 3
3 3 3
3 3 3
3 3 3
3 3 3
3 3 3
1 1 1
0 0 0
0 0 0
0 0 0
4 3 3
0 0 0
95 87 91
228 157 100
227 158 102
91 83 88
0 0 0
22 22 22
53 53 53
0 0 0
30 30 30
46 46 46
0 0 0
39 39 39
33 33 33
0 0 0
47 47 47
24 24 24
0 0 0
74 70 77
226 160 109
229 155 94
112 99 101
0 0 0
13 12 12
53 53 53
0 0 0
19 19 19
49 49 49
0 0 0
34 34 34
43 43 43
0 0 0
44 44 44
34 33 34
0 0 0
55 55 63
221 160 117
229 151 86
134 115 112
0 0 0
7 6 5
55 55 55
0 0 0
11 11 11
53 53 53
0 0 0
26 26 26
49 49 49
0 0 0
37 37 37
40 40 40
0 0 0
45 45 45
26 26 26
0 0 0
51 51 51
18 18 18
0 0 0
95 82 81
233 185 161
202 163 145
138 115 106
0 0 0
7 6 5
4 3 3
4 3 3
3 3 3
0 0 0
0 0 0
0 0 0
0 0 0
0 0 0
0 0 0
2 2 2
4 3 3
1 1 1
0 0 0
0 0 0
0 0 0
4 3 3
0 0 0
95 87 91
228 157 100
228 158 103
89 82 87
0 0 0
17 16 16
42 42 42
0 0 0
23 23 23
37 37 37
0 0 0
36 35 35
31 30 30
0 0 0
43 42 42
24 23 23
0 0 0
75 71 77
226 159 109
229 155 94
112 99 101
0 0 0
15 13 13
49 48 48
0 0 0
20 19 19
44 43 43
0 0 0
28 28 28
33 33 33
0 0 0
34 34 34
26 26 26
0 0 0
53 53 62
221 161 117
229 151 86
134 115 112
0 0 0
6 5 5
46 46 46
0 0 0
9 9 9
44 44 44
0 0 0
22 21 21
38 38 38
0 0 0
29 29 29
31 31 31
0 0 0
36 36 36
24 24 24
0 0 0
46 45 45
20 18 18
0 0 0
96 83 81
232 185 161
202 163 144
139 117 109
0 0 0
3 2 2
0 0 0
0 0 0
0 0 0
0 0 0
0 0 0
0 0 0
0 0 0
0 0 0
0 0 0
0 0 0
0 0 0
0 0 0
0 0 0
0 0 0
1 1 1
4 3 3
0 0 0
95 87 91
228 157 100
228 158 103
88 81 87
0 0 0
3 3 3
0 0 0
0 0 0
0 0 0
0 0 0
0 0 0
0 0 0
0 0 0
0 0 0
0 0 0
3 3 3
0 0 0
74 72 80
226 160 109
229 154 93
113 101 104
0 0 0
4 3 3
0 0 0
0 0 0
0 0 0
0 0 0
0 0 0
0 0 0
0 0 0
0 0 0
0 0 0
2 2 3
0 0 0
52 52 61
221 161 117
229 151 86
134 115 112
0 0 0
3 2 2
0 0 0
0 0 0
0 0 0
0 0 0
0 0 0
0 0 0
0 0 0
0 0 0
0 0 0
0 0 0
0 0 0
0 0 0
0 0 0
0 0 0
0 0 0
4 3 3
0 0 0
95 84 84
233 185 160
191 152 132
200 146 107
101 92 96
99 88 89
99 88 89
105 93 94
66 61 65
0 0 0
1 0 0
0 0 0
0 0 0
1 1 1
0 0 0
39 37 40
106 95 96
27 26 29
0 0 0
0 0 0
76 76 76
24 23 23
0 0 0
94 86 90
228 157 100
227 157 103
88 81 86
0 0 0
27 27 27
75 75 75
0 0 0
0 0 0
29 29 33
101 91 93
101 90 91
101 90 91
100 89 90
102 90 92
102 90 91
94 86 89
167 132 112
221 149 89
219 146 84
185 141 112
98 89 92
101 89 90
102 91 92
100 89 90
101 90 91
101 89 91
105 93 95
45 43 47
0 0 0
0 0 0
60 60 60
46 45 46
0 0 0
53 53 61
220 160 117
229 151 87
132 114 111
0 0 0
8 7 7
83 83 83
1 1 2
0 0 0
14 15 17
100 89 91
58 53 56
0 0 0
0 0 0
50 50 50
54 54 54
0 0 0
0 0 0
50 47 52
105 94 95
101 90 91
101 90 90
95 88 92
178 133 103
223 171 138
185 150 134
225 146 78
232 156 93
233 157 94
233 157 95
232 154 87
237 174 129
56 55 64
0 0 0
3 2 3
1 1 1
0 0 0
5 10 17
189 151 130
249 168 101
165 136 124
0 0 4
1 0 0
0 0 0
4 3 3
0 0 0
102 92 93
233 157 95
232 158 98
95 87 89
0 0 0
4 3 3
0 0 0
0 0 0
0 2 8
181 147 130
243 162 95
231 156 94
233 157 94
233 157 94
233 157 94
233 157 94
234 158 95
225 146 79
216 140 75
217 142 78
223 145 77
234 157 94
233 157 94
233 157 94
233 157 94
233 157 94
232 157 95
238 157 89
211 164 135
16 20 29
0 0 0
1 1 1
3 2 3
0 0 0
56 56 62
227 163 114
232 149 79
141 121 114
0 0 0
3 3 2
0 0 0
3 2 2
0 0 0
129 111 109
247 169 106
214 163 130
28 31 40
0 0 0
2 2 2
1 1 2
0 0 0
25 28 37
219 168 134
236 156 88
232 157 95
233 157 94
234 158 96
221 143 74
215 166 136
185 149 131
225 150 86
213 156 118
210 155 116
210 155 116
214 156 114
192 149 123
30 31 37
0 0 0
2 1 2
1 1 1
0 0 0
15 20 27
201 155 125
223 141 69
182 146 125
0 6 12
0 0 0
35 35 35
11 11 11
0 0 0
47 45 50
207 158 127
204 156 127
42 41 46
0 0 0
13 13 13
34 34 34
0 0 0
0 0 1
130 108 101
219 161 119
209 154 115
211 155 116
211 155 116
211 155 116
211 155 116
211 155 116
212 157 119
214 158 119
210 154 114
208 153 114
211 155 116
211 155 116
211 155 116
211 155 116
211 155 116
209 154 116
218 159 117
160 129 114
5 9 14
0 0 0
28 28 28
21 21 21
0 0 0
19 21 27
182 143 122
222 165 128
76 69 71
0 0 0
5 4 4
37 37 37
3 2 1
0 0 0
150 126 117
224 145 77
217 160 118
44 46 53
0 0 0
24 24 25
25 25 25
0 0 0
11 14 19
169 135 117
219 160 118
214 159 120
213 157 118
212 157 120
220 147 86
216 165 133
196 156 136
172 134 113
24 32 44
31 33 40
30 33 41
32 35 43
15 18 24
0 0 0
0 0 0
0 0 0
1 1 1
0 0 0
13 18 26
198 154 128
228 146 75
178 143 127
0 5 12
0 0 0
57 57 57
15 15 15
0 0 0
0 0 0
21 24 31
20 23 30
0 0 0
0 0 0
18 18 18
55 55 55
0 0 0
0 0 0
4 6 9
29 32 41
30 33 41
30 33 41
30 33 41
30 33 41
30 33 41
30 33 41
30 33 41
30 32 40
26 29 36
26 29 36
30 33 41
30 33 41
32 34 43
30 33 41
31 33 42
31 34 42
31 34 43
9 11 15
1 1 0
0 0 0
45 45 45
32 32 32
0 0 0
0 0 0
14 17 23
25 29 37
0 1 2
0 0 0
4 4 4
62 62 62
3 2 2
0 0 0
145 123 117
229 150 82
216 160 121
42 44 53
0 0 0
39 39 39
41 41 41
0 0 0
0 0 0
11 14 19
21 23 32
11 12 21
20 22 30
20 27 39
137 111 99
229 177 147
202 163 145
137 116 107
0 0 0
3 3 2
0 0 0
0 0 0
1 1 1
1 1 1
0 0 0
0 0 0
1 1 1
0 0 0
13 18 27
199 154 128
228 146 74
179 144 127
0 4 11
0 0 0
0 0 0
0 0 0
0 0 0
1 1 1
0 0 0
1 0 0
1 1 1
0 0 0
0 0 0
0 0 0
0 0 0
0 0 0
2 1 2
0 0 0
0 0 0
0 0 0
0 0 0
0 0 0
0 0 0
0 0 0
0 0 0
0 0 0
0 0 0
0 0 0
0 0 0
0 0 0
0 0 0
0 0 0
0 0 0
0 0 0
0 0 0
1 0 0
0 0 0
0 0 0
0 0 0
0 0 0
0 0 0
0 0 0
0 0 0
0 0 0
0 0 0
0 0 0
0 0 0
0 0 0
3 2 1
0 0 0
146 123 117
229 149 82
217 160 121
41 43 52
0 0 0
2 2 2
0 0 0
0 0 0
2 2 2
0 0 0
64 64 63
159 159 157
80 79 78
0 0 0
96 84 83
233 186 161
202 163 144
139 115 106
0 0 0
5 4 4
2 2 2
2 2 2
1 1 1
0 0 0
0 0 0
0 0 0
1 1 1
0 0 0
14 19 27
199 154 128
228 146 74
179 144 127
0 4 11
0 0 0
2 2 2
1 1 1
0 0 0
0 0 0
2 2 2
1 1 1
0 0 0
0 0 0
1 1 1
2 2 2
0 0 0
0 0 0
0 0 0
2 2 2
2 2 2
2 2 2
2 2 2
2 2 2
2 2 2
2 2 2
2 2 2
2 2 2
2 2 2
2 2 2
0 0 0
15 15 15
77 76 77
0 0 0
29 29 29
69 69 69
0 0 0
43 43 44
55 55 56
0 0 0
58 58 58
42 42 42
0 0 0
68 68 68
26 26 27
0 0 0
74 74 74
10 10 10
2 2 2
79 79 79
4 3 2
0 0 0
146 123 117
229 149 82
217 160 121
43 45 54
0 0 0
49 48 49
53 53 53
0 0 0
59 59 59
39 39 39
201 201 201
255 255 255
203 200 200
0 0 0
96 84 82
233 185 160
202 163 145
137 114 106
0 0 0
3 3 2
0 0 0
0 0 0
0 0 0
2 2 2
2 2 1
2 1 0
3 2 1
0 0 0
14 19 27
199 155 129
228 146 74
179 144 127
0 4 11
0 0 0
0 0 0
0 0 0
0 0 0
1 1 1
3 2 1
2 1 0
2 1 0
2 1 0
2 1 0
2 1 0
2 1 0
2 1 0
2 1 0
2 1 0
2 2 2
0 0 0
0 0 0
0 0 0
0 0 0
0 0 0
1 1 1
2 2 1
3 1 1
1 1 1
0 0 0
2 2 2
12 12 12
0 0 0
6 6 6
17 17 17
0 0 0
12 11 10
15 14 13
0 0 0
15 14 13
11 10 9
0 0 0
18 17 16
8 7 6
0 0 0
19 19 19
2 2 2
0 0 0
12 12 12
3 2 1
0 0 0
146 123 117
229 149 82
217 161 121
42 44 53
0 0 0
14 13 13
14 13 12
0 0 0
18 18 18
0 0 0
77 77 77
173 174 174
100 98 98
0 0 0
95 83 82
233 185 161
202 163 145
137 114 106
0 0 0
3 3 2
0 0 0
0 0 0
0 0 0
0 0 0
0 0 0
0 0 0
1 1 1
0 0 0
21 26 37
204 156 127
227 145 74
179 144 127
0 4 11
0 0 0
0 0 0
0 0 0
0 0 0
0 0 0
0 0 0
0 0 0
0 0 0
0 0 0
0 0 0
0 0 0
0 0 0
0 0 0
0 0 0
0 0 0
0 0 0
1 1 1
0 0 0
19 19 19
9 9 9
0 0 0
1 1 0
0 0 0
0 0 0
0 0 0
0 0 0
3 3 3
18 18 18
0 0 0
0 0 0
0 0 0
0 0 0
0 0 0
0 0 0
0 0 0
0 0 0
0 0 0
0 0 0
0 0 0
0 0 0
0 0 0
0 0 0
0 0 0
1 1 1
19 19 19
3 2 1
0 0 0
146 123 117
228 149 82
219 160 118
50 52 63
0 0 0
2 2 2
0 0 0
0 0 0
0 0 0
0 0 0
0 0 0
11 11 11
7 6 6
0 0 0
94 81 80
233 185 161
202 163 145
137 114 106
0 0 0
3 3 2
0 0 0
2 1 1
0 0 0
41 37 40
154 127 117
157 128 115
156 128 115
152 126 115
178 140 117
216 146 90
221 145 80
178 143 125
0 4 11
0 0 0
0 0 0
1 1 1
0 0 0
15 15 18
137 114 107
162 131 116
156 128 115
156 128 115
156 128 115
156 128 115
156 128 115
156 128 115
155 127 114
162 133 120
76 66 67
0 0 0
0 0 0
63 63 63
29 29 29
0 0 0
6 8 10
121 98 87
142 114 100
18 18 20
0 0 0
13 13 13
73 73 73
0 0 0
0 0 0
53 47 49
158 130 119
156 128 115
156 128 115
156 128 115
157 128 116
157 128 115
156 128 115
157 128 116
160 129 115
152 125 115
34 32 34
0 0 0
6 6 6
75 75 75
4 3 2
0 0 0
145 122 115
226 151 89
215 143 84
188 143 114
152 127 116
157 128 115
156 127 114
160 132 120
64 57 58
0 0 0
0 0 0
72 72 72
27 26 26
0 0 0
95 82 81
233 185 161
202 163 145
137 114 106
0 0 0
3 3 2
0 0 0
3 2 1
0 0 0
157 133 123
254 168 96
233 151 81
237 154 84
238 155 85
233 150 80
222 146 81
235 152 81
188 150 130
0 3 10
0 0 0
0 0 0
4 3 3
0 0 0
94 86 90
244 171 113
224 147 80
230 150 83
237 154 83
237 154 84
237 154 84
237 154 84
237 154 84
235 153 85
245 156 80
212 166 137
6 12 19
0 0 0
1 1 1
3 3 3
0 0 0
71 68 75
237 168 115
242 164 99
111 99 101
0 0 0
4 3 3
0 0 0
2 1 0
0 0 0
177 146 130
251 163 90
234 152 83
237 154 84
237 154 84
237 154 84
237 154 84
238 154 84
231 151 82
224 147 83
245 165 100
135 116 113
0 0 0
4 3 2
0 0 0
3 2 1
0 0 0
152 128 119
241 160 91
221 145 79
231 149 80
238 155 84
237 154 84
235 153 84
248 159 84
195 157 135
0 2 9
0 0 0
0 0 0
4 3 3
0 0 0
94 81 80
233 185 161
202 163 145
137 114 106
0 0 0
4 3 2
1 0 0
2 1 1
0 0 0
54 49 51
172 139 122
173 138 118
173 138 119
173 138 119
174 139 120
175 138 118
182 144 124
78 69 69
0 0 0
2 1 1
0 0 0
4 3 3
0 0 0
96 86 90
229 159 105
211 139 76
207 148 105
173 139 122
173 138 118
174 138 119
173 138 119
173 138 119
172 137 118
180 144 124
93 80 78
0 0 0
0 0 0
57 57 57
29 29 29
0 0 0
74 70 77
223 157 108
226 152 93
112 99 100
0 0 0
15 14 14
65 65 65
0 0 0
0 0 0
67 59 60
176 141 123
173 137 118
173 138 119
173 138 119
174 138 119
174 138 119
171 138 121
200 148 110
212 141 80
227 153 93
134 114 110
0 0 0
7 6 6
67 67 67
2 2 2
0 0 0
52 48 50
175 140 123
177 139 118
175 139 120
173 138 119
173 138 119
172 137 118
179 143 124
80 70 69
0 0 0
0 0 0
62 62 62
22 21 21
0 0 0
95 82 81
233 185 161
202 163 145
137 114 106
0 0 0
3 3 2
0 0 0
0 0 0
0 0 0
0 0 0
0 2 7
0 2 8
0 1 7
0 2 10
0 1 7
0 1 8
0 2 9
0 0 0
0 0 0
0 0 0
0 0 0
4 3 3
0 0 0
95 86 91
228 158 101
227 155 97
105 95 99
0 0 0
3 4 10
0 1 7
0 2 10
0 1 8
0 1 7
0 2 9
0 0 1
1 1 1
0 0 0
26 26 26
15 14 15
0 0 0
73 69 76
226 159 109
229 155 94
111 99 100
0 0 0
9 8 8
30 30 30
0 0 0
0 0 0
0 0 0
0 2 8
0 1 8
0 1 7
0 2 10
0 1 7
3 4 10
0 0 0
69 67 77
223 159 111
229 151 87
134 115 112
0 0 0
5 4 4
30 30 30
0 0 0
0 0 0
0 0 0
0 2 7
0 2 8
0 1 7
0 2 10
0 1 7
0 1 8
0 2 9
0 0 0
1 1 1
0 0 0
28 28 28
12 11 11
0 0 0
94 82 80
233 185 161
202 163 145
137 114 106
0 0 0
3 3 2
0 0 0
0 0 0
2 2 2
10 10 10
0 0 0
4 4 3
8 7 6
0 0 0
6 5 5
6 6 5
0 0 0
9 9 9
4 4 4
0 0 0
0 0 0
4 3 3
0 0 0
95 87 91
228 157 100
228 158 103
89 82 88
0 0 0
6 5 5
8 8 7
0 0 0
5 4 4
7 7 6
0 0 0
8 8 8
5 5 5
0 0 0
1 1 1
4 3 3
0 0 0
73 69 76
226 160 109
229 155 94
111 99 100
0 0 0
4 3 3
1 1 1
0 0 0
3 3 3
10 10 9
0 0 0
5 5 4
7 6 6
0 0 0
7 6 6
7 7 6
0 0 0
52 53 62
221 161 118
229 151 85
134 115 112
0 0 0
3 2 2
1 1 1
0 0 0
2 2 2
10 10 10
0 0 0
4 3 3
8 7 6
0 0 0
6 5 5
6 6 5
0 0 0
9 9 9
4 4 4
0 0 0
1 1 1
4 3 3
0 0 0
94 81 80
233 185 161
202 163 145
137 114 106
0 0 0
3 3 2
1 1 1
0 0 0
19 19 19
75 75 75
0 0 0
36 36 37
67 67 68
0 0 0
52 52 53
53 53 54
0 0 0
65 65 65
35 35 35
0 0 0
1 1 1
4 3 3
0 0 0
95 87 91
228 157 100
228 158 102
90 83 88
0 0 0
27 26 26
75 75 75
0 0 0
40 40 40
62 62 63
0 0 0
56 56 56
49 49 49
0 0 0
70 70 70
35 34 35
0 0 0
76 71 78
226 159 109
229 154 93
113 100 101
0 0 0
18 17 17
79 79 80
0 0 0
29 29 29
71 71 71
0 0 0
45 45 46
58 58 58
0 0 0
61 61 61
45 45 45
0 0 0
54 54 63
221 161 117
229 151 86
134 115 112
0 0 0
8 7 7
82 82 82
0 0 0
17 17 17
76 76 76
0 0 0
34 34 35
68 68 69
0 0 0
50 50 51
55 55 56
0 0 0
63 63 63
38 38 38
0 0 0
76 76 76
26 25 25
0 0 0
95 82 81
233 185 161
202 163 145
137 114 106
0 0 0
3 3 2
0 0 0
0 0 0
0 0 0
1 0 0
0 0 0
0 0 0
0 0 0
0 0 0
0 0 0
0 0 0
0 0 0
1 1 0
0 0 0
0 0 0
0 0 0
4 3 3
0 0 0
95 87 91
228 157 100
228 158 103
88 81 87
0 0 0
3 3 3
0 0 0
0 0 0
0 0 0
1 1 0
0 0 0
0 0 0
0 0 0
0 0 0
0 0 0
3 3 3
0 0 0
73 70 77
226 160 109
229 155 94
111 100 101
0 0 0
4 3 3
0 0 0
0 0 0
0 0 0
0 0 0
0 0 0
1 1 0
0 0 0
0 0 0
0 0 0
2 2 3
0 0 0
52 52 61
221 161 117
229 151 86
134 115 112
0 0 0
3 2 2
0 0 0
0 0 0
0 0 0
1 0 0
0 0 0
0 0 0
0 0 0
0 0 0
0 0 0
0 0 0
0 0 0
1 1 0
0 0 0
0 0 0
0 0 0
4 3 3
0 0 0
94 81 80
233 185 161
202 163 145
137 114 106
0 0 0
3 3 2
0 0 0
0 0 0
0 0 0
0 1 2
13 17 25
17 21 30
16 21 29
16 20 29
16 21 29
17 21 29
14 19 28
1 2 5
0 0 0
0 0 0
0 0 0
4 3 3
0 0 0
95 87 91
228 157 100
228 158 103
89 82 87
0 0 0
18 18 18
47 47 47
0 0 0
1 1 0
1 3 5
15 19 28
17 21 29
16 21 29
16 20 29
17 21 29
19 22 31
4 11 21
108 96 98
226 156 100
226 150 88
142 119 112
7 14 26
18 21 30
17 21 29
16 20 29
16 20 29
17 21 29
16 20 30
3 5 9
1 1 0
0 0 0
38 38 38
29 29 30
0 0 0
53 53 62
221 161 117
229 151 86
134 115 112
0 0 0
6 6 5
52 52 52
0 1 1
0 0 0
0 1 2
12 16 25
17 21 30
16 21 29
16 20 29
16 21 29
17 21 29
15 19 28
1 2 5
1 1 0
0 0 0
47 47 47
17 17 17
0 0 0
94 82 81
233 185 161
202 163 145
137 114 106
0 0 0
3 3 2
0 0 0
2 2 2
0 0 0
80 71 71
204 155 125
199 150 118
200 151 119
200 151 119
200 151 119
198 150 118
207 157 124
108 92 88
0 0 0
2 1 0
0 0 0
4 3 3
0 0 0
95 87 91
228 157 100
228 158 103
89 82 87
0 0 0
18 17 17
44 44 44
0 0 0
0 0 0
114 96 91
208 157 123
198 150 118
200 151 119
200 151 119
200 151 119
200 151 118
200 152 122
215 150 99
212 140 78
212 140 79
216 147 92
202 153 121
199 151 119
200 151 119
200 151 119
200 151 119
198 150 118
207 156 121
143 117 106
3 6 10
0 0 0
36 36 36
28 28 28
0 0 0
53 53 62
221 161 117
229 151 86
134 115 112
0 0 0
6 5 5
49 49 49
3 2 2
0 0 0
78 69 70
203 155 125
199 150 118
200 151 119
200 151 119
200 151 119
198 150 118
207 157 123
111 94 90
0 0 0
0 0 0
45 45 45
17 16 16
0 0 0
94 82 81
233 185 161
202 163 145
137 114 106
0 0 0
3 3 2
0 0 0
3 2 1
0 0 0
149 127 120
251 169 100
232 153 86
235 156 89
235 156 89
235 156 89
232 155 89
246 162 91
184 149 132
0 0 6
1 0 0
0 0 0
4 3 3
0 0 0
95 87 91
228 157 100
228 158 103
88 81 87
0 0 0
3 3 3
0 0 0
0 0 0
0 3 9
190 153 133
245 161 89
233 155 89
235 156 89
235 156 89
235 156 89
235 156 89
235 156 88
231 155 92
232 157 96
232 157 95
231 155 93
234 155 88
235 156 89
235 156 89
235 156 89
235 156 89
234 156 90
239 155 83
219 169 136
18 23 31
0 0 0
1 1 1
2 2 3
0 0 0
52 52 61
221 161 117
229 151 86
134 115 112
0 0 0
3 2 2
0 0 0
3 2 2
0 0 0
145 124 118
251 169 101
231 153 86
235 156 89
235 156 89
235 156 89
233 155 89
246 162 90
187 151 133
0 1 8
1 0 0
0 0 0
4 3 3
0 0 0
94 81 80
233 185 161
202 163 145
137 114 106
0 0 0
3 3 2
0 0 0
1 1 1
0 0 0
22 21 24
115 101 100
121 105 101
120 104 101
120 104 101
120 104 101
120 104 100
122 106 104
37 35 38
0 0 0
1 1 1
0 0 0
4 3 3
0 0 0
95 87 91
228 157 100
228 158 103
89 82 87
0 0 0
27 27 27
75 75 75
0 0 0
0 0 0
41 38 42
123 107 105
121 104 101
121 104 102
120 104 101
121 105 102
121 104 102
120 104 101
122 105 102
121 103 100
121 103 100
123 105 102
120 104 101
120 104 101
122 105 102
120 104 101
121 104 101
120 104 101
126 109 106
60 54 58
0 0 0
0 0 0
60 60 60
45 45 46
0 0 0
54 54 62
221 161 117
229 151 86
134 115 112
0 0 0
8 7 7
83 83 83
2 2 2
0 0 0
21 21 24
114 100 99
122 105 102
121 104 102
120 104 101
121 104 102
121 104 101
122 106 104
39 37 40
0 0 0
0 0 0
76 76 76
26 25 25
0 0 0
95 82 81
233 185 161
202 163 145
137 114 106
0 0 0
3 3 2
0 0 0
0 0 0
0 0 0
0 0 0
0 0 0
0 0 0
0 0 0
0 0 0
0 0 0
0 0 0
0 0 0
0 0 0
0 0 0
0 0 0
0 0 0
4 3 3
0 0 0
95 87 91
228 157 100
228 158 103
88 81 87
0 0 0
3 3 3
0 0 0
0 0 0
0 0 0
0 0 0
0 0 0
0 0 0
0 0 0
0 0 0
0 0 0
0 0 0
0 0 0
0 0 0
0 0 0
0 0 0
0 0 0
0 0 0
0 0 0
0 0 0
0 0 0
0 0 0
0 0 0
0 0 0
0 0 0
0 0 0
0 0 0
0 0 0
2 2 3
0 0 0
52 52 61
221 161 117
229 151 86
134 115 112
0 0 0
3 2 2
0 0 0
0 0 0
0 0 0
0 0 0
0 0 0
0 0 0
0 0 0
0 0 0
0 0 0
0 0 0
0 0 0
0 0 0
0 0 0
0 0 0
0 0 0
4 3 3
0 0 0
94 81 80
233 185 161
202 163 145
137 114 106
0 0 0
3 3 2
0 0 0
0 0 0
0 0 0
1 1 1
4 3 2
4 3 2
4 3 2
4 3 2
4 3 2
4 3 2
4 3 2
1 1 2
0 0 0
0 0 0
0 0 0
4 3 3
0 0 0
95 87 91
228 157 100
228 158 103
89 82 87
0 0 0
13 13 13
31 31 31
0 0 0
18 18 18
29 29 29
0 0 0
29 28 27
25 24 23
0 0 0
34 33 33
18 17 16
0 0 0
38 37 37
11 10 9
3 2 1
40 39 38
4 3 2
9 8 7
39 38 37
0 0 0
17 16 15
35 34 34
0 0 0
22 22 22
26 26 26
0 0 0
25 25 25
20 20 20
0 0 0
53 53 61
221 161 117
229 151 86
134 115 112
0 0 0
5 4 4
34 34 34
0 0 0
7 7 7
35 35 35
0 0 0
19 18 17
34 33 32
0 0 0
26 25 24
28 27 26
0 0 0
30 30 30
17 17 17
0 0 0
31 31 31
13 12 12
0 0 0
94 82 80
233 185 161
201 162 144
139 115 106
0 0 0
6 6 5
3 3 3
3 3 3
3 3 3
3 3 3
3 3 3
3 3 3
3 3 3
3 3 3
3 3 3
3 3 3
3 3 3
3 3 3
3 3 3
3 3 3
3 3 3
6 6 6
0 0 0
97 87 91
228 157 100
228 158 102
91 83 88
0 0 0
25 24 24
61 61 61
0 0 0
35 35 35
53 52 52
0 0 0
47 47 47
41 41 41
0 0 0
57 57 57
28 28 28
0 0 0
64 64 64
15 15 15
1 1 1
67 66 66
3 3 3
13 13 13
65 65 65
0 0 0
26 25 25
59 59 59
0 0 0
39 38 38
49 49 49
0 0 0
50 50 50
38 38 38
0 0 0
56 55 63
221 160 117
229 151 86
135 115 112
0 0 0
10 9 9
66 66 66
0 0 0
16 16 16
64 63 63
0 0 0
29 29 29
56 56 56
0 0 0
42 42 42
46 46 46
0 0 0
54 53 53
33 33 33
0 0 0
62 62 62
23 23 23
0 0 0
96 83 81
232 184 160
205 165 141
136 114 106
0 0 0
3 3 2
0 0 0
0 0 0
0 0 0
0 0 0
0 0 0
0 0 0
0 0 0
0 0 0
0 0 0
0 0 0
0 0 0
0 0 0
0 0 0
0 0 0
0 0 0
4 3 3
0 0 0
95 88 92
228 157 100
228 158 103
88 83 88
0 0 0
3 3 3
0 0 0
0 0 0
0 0 0
0 0 0
0 0 0
0 0 0
0 0 0
0 0 0
0 0 0
0 0 0
0 0 0
0 0 0
0 0 0
0 0 0
0 0 0
0 0 0
0 0 0
0 0 0
0 0 0
0 0 0
0 0 0
0 0 0
0 0 0
0 0 0
0 0 0
0 0 0
2 2 3
0 0 0
52 53 62
221 161 118
229 151 85
134 116 113
0 0 0
3 2 2
0 0 0
0 0 0
0 0 0
0 0 0
0 0 0
0 0 0
0 0 0
0 0 0
0 0 0
0 0 0
0 0 0
0 0 0
0 0 0
0 0 0
0 0 0
3 3 3
0 0 0
92 82 81
235 186 157
180 148 136
195 146 115
62 57 61
66 58 58
66 58 59
66 58 59
66 58 59
66 58 59
66 58 59
66 58 59
66 58 59
66 58 59
66 58 59
66 58 59
66 58 59
66 58 59
66 58 59
66 58 59
66 58 59
67 59 59
60 57 64
160 127 111
223 149 88
223 150 89
155 125 110
59 56 63
68 60 60
68 60 61
66 58 59
67 59 60
68 60 60
65 57 59
67 59 60
67 59 60
66 58 59
68 60 60
67 59 60
66 58 59
68 60 61
66 58 59
66 58 59
68 60 61
66 58 59
66 58 59
68 60 61
66 58 59
67 59 60
68 60 60
66 58 59
67 59 60
67 59 60
65 57 59
68 60 60
69 60 61
57 54 59
130 109 103
223 153 97
221 145 81
183 140 114
66 63 71
66 58 59
68 60 61
66 58 59
66 58 59
68 60 61
66 58 59
67 59 60
68 60 60
65 57 59
67 59 60
67 59 60
65 57 59
68 60 60
67 59 60
66 58 59
68 60 61
68 60 60
57 53 57
165 126 101
217 173 150
42 42 49
192 154 135
234 186 160
226 182 160
228 183 160
228 183 160
228 183 160
228 183 160
228 183 160
228 183 160
228 183 160
228 183 160
228 183 160
228 183 160
228 183 160
228 183 160
228 183 160
228 183 160
228 183 161
228 182 157
229 166 120
224 150 88
215 143 82
215 143 82
225 150 89
229 167 121
228 182 158
228 183 160
228 183 160
228 183 160
228 183 160
228 183 160
228 183 160
228 183 160
228 183 160
228 183 160
228 183 160
228 183 160
228 183 160
228 183 160
228 183 160
228 183 160
228 183 160
228 183 160
228 183 160
228 183 160
228 183 160
228 183 160
228 183 160
228 183 160
228 183 160
228 183 160
228 183 160
228 183 161
229 170 128
227 153 93
216 142 81
215 143 84
222 147 84
230 163 113
228 179 152
228 184 162
228 183 160
228 183 160
228 183 160
228 183 160
228 183 160
228 183 160
228 183 160
228 183 160
228 183 160
228 183 160
228 183 160
228 183 160
228 183 160
228 183 160
227 182 160
232 186 161
209 166 142
70 65 70
